# device: Atmel maXTouch Touchpad
# bit: 0B 00 00 00 00 00 00 00
# key: 00 00 00 00 00 00 00 00 00 00 00 00 00 00 00 00 00 00 00 00 00 00 00 00 00 00 00 00 00 00 00 00 00 00 01 00 00 00 00 00 20 E5 00 00 00 00 00 00 00 00 00 00 00 00 00 00 00 00 00 00 00 00 00 00 00 00 00 00 00 00 00 00 00 00 00 00 00 00 00 00 00 00 00 00 00 00 00 00 00 00 00 00 00 00 00 00
# rel: 00 00 00 00 00 00 00 00
# abs: 03 00 00 01 00 80 61 06
# led: 00 00 00 00 00 00 00 00
# prp: 05 00 00 00 00 00 00 00
# absinfo: 0 0 2040 0 0 20
# absinfo: 1 0 1360 0 0 20
# absinfo: 24 0 255 0 0 0
# absinfo: 47 0 9 0 0 0
# absinfo: 48 0 1878 0 0 0
# absinfo: 53 0 2040 0 0 20
# absinfo: 54 0 1360 0 0 20
# absinfo: 57 0 65535 0 0 0
# absinfo: 58 0 255 0 0 0
E: 21495.571709 0003 002f 0
E: 21495.571709 0003 0030 220
E: 21495.571709 0003 0031 0
E: 21495.571709 0003 0032 0
E: 21495.571709 0003 0033 0
E: 21495.571709 0003 0034 0
E: 21495.571709 0003 0035 824
E: 21495.571709 0003 0036 103
E: 21495.571709 0003 0037 0
E: 21495.571709 0003 0038 0
E: 21495.571709 0003 0039 4289
E: 21495.571709 0003 003a 46
E: 21495.571709 0003 003b 0
E: 21495.571709 0003 002f 1
E: 21495.571709 0003 0030 286
E: 21495.571709 0003 0031 0
E: 21495.571709 0003 0032 0
E: 21495.571709 0003 0033 0
E: 21495.571709 0003 0034 0
E: 21495.571709 0003 0035 960
E: 21495.571709 0003 0036 1170
E: 21495.571709 0003 0037 0
E: 21495.571709 0003 0038 0
E: 21495.571709 0003 0039 4290
E: 21495.571709 0003 003a 69
E: 21495.571709 0003 003b 0
E: 21495.571709 0003 002f 2
E: 21495.571709 0003 0039 -1
E: 21495.571709 0003 002f 3
E: 21495.571709 0003 0039 -1
E: 21495.571709 0003 002f 4
E: 21495.571709 0003 0039 -1
E: 21495.571709 0003 002f 5
E: 21495.571709 0003 0039 -1
E: 21495.571709 0003 002f 6
E: 21495.571709 0003 0039 -1
E: 21495.571709 0003 002f 7
E: 21495.571709 0003 0039 -1
E: 21495.571709 0003 002f 8
E: 21495.571709 0003 0039 -1
E: 21495.571709 0003 002f 9
E: 21495.571709 0003 0039 -1
E: 21495.571709 0003 002f 1
E: 21495.571709 0001 014a 1
E: 21495.571709 0001 014d 1
E: 21495.571709 0000 0000 0
E: 21495.578364 0003 002f 0
E: 21495.578364 0003 003a 49
E: 21495.578364 0003 002f 1
E: 21495.578364 0003 003a 77
E: 21495.578364 0003 0030 312
E: 21495.578364 0003 0018 49
E: 21495.578364 0000 0000 0
E: 21495.585028 0003 002f 0
E: 21495.585028 0003 003a 50
E: 21495.585028 0003 002f 1
E: 21495.585028 0003 003a 74
E: 21495.585028 0003 0018 50
E: 21495.585028 0000 0000 0
E: 21495.591801 0003 002f 0
E: 21495.591801 0003 003a 46
E: 21495.591801 0003 0030 180
E: 21495.591801 0003 002f 1
E: 21495.591801 0003 0036 1171
E: 21495.591801 0003 003a 78
E: 21495.591801 0003 0018 46
E: 21495.591801 0000 0000 0
E: 21495.598467 0003 002f 0
E: 21495.598467 0003 0035 823
E: 21495.598467 0003 0036 104
E: 21495.598467 0003 003a 50
E: 21495.598467 0003 002f 1
E: 21495.598467 0003 003a 77
E: 21495.598467 0003 0030 338
E: 21495.598467 0003 0000 823
E: 21495.598467 0003 0001 104
E: 21495.598467 0003 0018 50
E: 21495.598467 0000 0000 0
E: 21495.605468 0003 002f 0
E: 21495.605468 0003 0036 105
E: 21495.605468 0003 003a 47
E: 21495.605468 0003 002f 1
E: 21495.605468 0003 003a 75
E: 21495.605468 0003 0030 286
E: 21495.605468 0001 0110 1
E: 21495.605468 0003 0001 105
E: 21495.605468 0003 0018 47
E: 21495.605468 0000 0000 0
E: 21495.611867 0003 002f 0
E: 21495.611867 0003 0036 107
E: 21495.611867 0003 003a 45
E: 21495.611867 0003 0030 220
E: 21495.611867 0003 002f 1
E: 21495.611867 0003 0035 959
E: 21495.611867 0003 0030 338
E: 21495.611867 0003 0001 107
E: 21495.611867 0003 0018 45
E: 21495.611867 0000 0000 0
E: 21495.618565 0003 002f 0
E: 21495.618565 0003 0036 108
E: 21495.618565 0003 003a 48
E: 21495.618565 0003 002f 1
E: 21495.618565 0003 003a 79
E: 21495.618565 0003 0001 108
E: 21495.618565 0003 0018 48
E: 21495.618565 0000 0000 0
E: 21495.625381 0003 002f 0
E: 21495.625381 0003 0036 110
E: 21495.625381 0003 002f 1
E: 21495.625381 0003 003a 77
E: 21495.625381 0003 0030 360
E: 21495.625381 0003 0001 110
E: 21495.625381 0000 0000 0
E: 21495.632102 0003 002f 0
E: 21495.632102 0003 0036 112
E: 21495.632102 0003 003a 53
E: 21495.632102 0003 002f 1
E: 21495.632102 0003 0035 958
E: 21495.632102 0003 003a 79
E: 21495.632102 0003 0030 338
E: 21495.632102 0003 0001 112
E: 21495.632102 0003 0018 53
E: 21495.632102 0000 0000 0
E: 21495.638794 0003 002f 0
E: 21495.638794 0003 0035 824
E: 21495.638794 0003 0036 115
E: 21495.638794 0003 002f 1
E: 21495.638794 0003 0035 957
E: 21495.638794 0003 0036 1170
E: 21495.638794 0003 0030 360
E: 21495.638794 0003 0000 824
E: 21495.638794 0003 0001 115
E: 21495.638794 0000 0000 0
E: 21495.645580 0003 002f 0
E: 21495.645580 0003 0036 117
E: 21495.645580 0003 002f 1
E: 21495.645580 0003 0035 956
E: 21495.645580 0003 003a 77
E: 21495.645580 0003 0030 338
E: 21495.645580 0003 0001 117
E: 21495.645580 0000 0000 0
E: 21495.652335 0003 002f 0
E: 21495.652335 0003 0035 823
E: 21495.652335 0003 0036 120
E: 21495.652335 0003 003a 56
E: 21495.652335 0003 002f 1
E: 21495.652335 0003 0035 955
E: 21495.652335 0003 0036 1169
E: 21495.652335 0003 003a 81
E: 21495.652335 0003 0030 360
E: 21495.652335 0003 0000 823
E: 21495.652335 0003 0001 120
E: 21495.652335 0003 0018 56
E: 21495.652335 0000 0000 0
E: 21495.658887 0003 002f 0
E: 21495.658887 0003 0036 122
E: 21495.658887 0003 003a 54
E: 21495.658887 0003 002f 1
E: 21495.658887 0003 0035 953
E: 21495.658887 0003 003a 78
E: 21495.658887 0003 0030 338
E: 21495.658887 0003 0001 122
E: 21495.658887 0003 0018 54
E: 21495.658887 0000 0000 0
E: 21495.665641 0003 002f 0
E: 21495.665641 0003 0036 125
E: 21495.665641 0003 003a 55
E: 21495.665641 0003 002f 1
E: 21495.665641 0003 0035 952
E: 21495.665641 0003 003a 76
E: 21495.665641 0003 0001 125
E: 21495.665641 0003 0018 55
E: 21495.665641 0000 0000 0
E: 21495.673567 0003 002f 0
E: 21495.673567 0003 0035 822
E: 21495.673567 0003 0036 128
E: 21495.673567 0003 003a 53
E: 21495.673567 0003 002f 1
E: 21495.673567 0003 0035 951
E: 21495.673567 0003 003a 79
E: 21495.673567 0003 0000 822
E: 21495.673567 0003 0001 128
E: 21495.673567 0003 0018 53
E: 21495.673567 0000 0000 0
E: 21495.680364 0003 002f 0
E: 21495.680364 0003 0036 132
E: 21495.680364 0003 003a 54
E: 21495.680364 0003 0030 254
E: 21495.680364 0003 002f 1
E: 21495.680364 0003 0036 1168
E: 21495.680364 0003 003a 77
E: 21495.680364 0003 0030 312
E: 21495.680364 0003 0001 132
E: 21495.680364 0003 0018 54
E: 21495.680364 0000 0000 0
E: 21495.687184 0003 002f 0
E: 21495.687184 0003 0035 821
E: 21495.687184 0003 0036 136
E: 21495.687184 0003 003a 55
E: 21495.687184 0003 002f 1
E: 21495.687184 0003 003a 76
E: 21495.687184 0003 0000 821
E: 21495.687184 0003 0001 136
E: 21495.687184 0003 0018 55
E: 21495.687184 0000 0000 0
E: 21495.693998 0003 002f 0
E: 21495.693998 0003 0036 143
E: 21495.693998 0003 003a 56
E: 21495.693998 0003 002f 1
E: 21495.693998 0003 0035 950
E: 21495.693998 0003 0036 1167
E: 21495.693998 0003 003a 75
E: 21495.693998 0003 0001 143
E: 21495.693998 0003 0018 56
E: 21495.693998 0000 0000 0
E: 21495.700744 0003 002f 0
E: 21495.700744 0003 0035 820
E: 21495.700744 0003 0036 149
E: 21495.700744 0003 003a 57
E: 21495.700744 0003 002f 1
E: 21495.700744 0003 0035 949
E: 21495.700744 0003 003a 78
E: 21495.700744 0003 0030 338
E: 21495.700744 0003 0000 820
E: 21495.700744 0003 0001 149
E: 21495.700744 0003 0018 57
E: 21495.700744 0000 0000 0
E: 21495.707539 0003 002f 0
E: 21495.707539 0003 0036 158
E: 21495.707539 0003 003a 58
E: 21495.707539 0003 002f 1
E: 21495.707539 0003 003a 76
E: 21495.707539 0003 0030 312
E: 21495.707539 0003 0001 158
E: 21495.707539 0003 0018 58
E: 21495.707539 0000 0000 0
E: 21495.714267 0003 002f 0
E: 21495.714267 0003 0035 819
E: 21495.714267 0003 0036 166
E: 21495.714267 0003 003a 56
E: 21495.714267 0003 002f 1
E: 21495.714267 0003 0035 948
E: 21495.714267 0003 003a 79
E: 21495.714267 0003 0030 338
E: 21495.714267 0003 0000 819
E: 21495.714267 0003 0001 166
E: 21495.714267 0003 0018 56
E: 21495.714267 0000 0000 0
E: 21495.721152 0003 002f 0
E: 21495.721152 0003 0035 818
E: 21495.721152 0003 0036 174
E: 21495.721152 0003 003a 60
E: 21495.721152 0003 0030 220
E: 21495.721152 0003 002f 1
E: 21495.721152 0003 0036 1166
E: 21495.721152 0003 003a 77
E: 21495.721152 0003 0030 312
E: 21495.721152 0003 0000 818
E: 21495.721152 0003 0001 174
E: 21495.721152 0003 0018 60
E: 21495.721152 0000 0000 0
E: 21495.727838 0003 002f 0
E: 21495.727838 0003 0036 182
E: 21495.727838 0003 003a 61
E: 21495.727838 0003 002f 1
E: 21495.727838 0003 0035 947
E: 21495.727838 0003 003a 79
E: 21495.727838 0003 0030 338
E: 21495.727838 0003 0001 182
E: 21495.727838 0003 0018 61
E: 21495.727838 0000 0000 0
E: 21495.734554 0003 002f 0
E: 21495.734554 0003 0035 820
E: 21495.734554 0003 0036 189
E: 21495.734554 0003 003a 58
E: 21495.734554 0003 0030 254
E: 21495.734554 0003 002f 1
E: 21495.734554 0003 0035 946
E: 21495.734554 0003 0000 820
E: 21495.734554 0003 0001 189
E: 21495.734554 0003 0018 58
E: 21495.734554 0000 0000 0
E: 21495.741317 0003 002f 0
E: 21495.741317 0003 0036 194
E: 21495.741317 0003 003a 59
E: 21495.741317 0003 0030 220
E: 21495.741317 0003 002f 1
E: 21495.741317 0003 0035 945
E: 21495.741317 0003 003a 80
E: 21495.741317 0003 0001 194
E: 21495.741317 0003 0018 59
E: 21495.741317 0000 0000 0
E: 21495.748027 0003 002f 0
E: 21495.748027 0003 0036 198
E: 21495.748027 0003 003a 58
E: 21495.748027 0003 0030 254
E: 21495.748027 0003 002f 1
E: 21495.748027 0003 0035 944
E: 21495.748027 0003 003a 77
E: 21495.748027 0003 0001 198
E: 21495.748027 0003 0018 58
E: 21495.748027 0000 0000 0
E: 21495.754772 0003 002f 0
E: 21495.754772 0003 0036 202
E: 21495.754772 0003 003a 59
E: 21495.754772 0003 0030 220
E: 21495.754772 0003 002f 1
E: 21495.754772 0003 0035 943
E: 21495.754772 0003 0036 1165
E: 21495.754772 0003 0001 202
E: 21495.754772 0003 0018 59
E: 21495.754772 0000 0000 0
E: 21495.761465 0003 002f 0
E: 21495.761465 0003 0036 206
E: 21495.761465 0003 003a 61
E: 21495.761465 0003 0030 254
E: 21495.761465 0003 002f 1
E: 21495.761465 0003 0035 942
E: 21495.761465 0003 0001 206
E: 21495.761465 0003 0018 61
E: 21495.761465 0000 0000 0
E: 21495.768189 0003 002f 0
E: 21495.768189 0003 0035 821
E: 21495.768189 0003 0036 209
E: 21495.768189 0003 003a 57
E: 21495.768189 0003 002f 1
E: 21495.768189 0003 0036 1164
E: 21495.768189 0003 0030 312
E: 21495.768189 0003 0000 821
E: 21495.768189 0003 0001 209
E: 21495.768189 0003 0018 57
E: 21495.768189 0000 0000 0
E: 21495.775060 0003 002f 0
E: 21495.775060 0003 0036 212
E: 21495.775060 0003 003a 58
E: 21495.775060 0003 002f 1
E: 21495.775060 0003 003a 78
E: 21495.775060 0003 0001 212
E: 21495.775060 0003 0018 58
E: 21495.775060 0000 0000 0
E: 21495.781718 0003 002f 0
E: 21495.781718 0003 0036 215
E: 21495.781718 0003 003a 60
E: 21495.781718 0003 002f 1
E: 21495.781718 0003 0035 941
E: 21495.781718 0003 003a 79
E: 21495.781718 0003 0030 338
E: 21495.781718 0003 0001 215
E: 21495.781718 0003 0018 60
E: 21495.781718 0000 0000 0
E: 21495.788215 0003 002f 0
E: 21495.788215 0003 0036 218
E: 21495.788215 0003 003a 58
E: 21495.788215 0003 0030 286
E: 21495.788215 0003 002f 1
E: 21495.788215 0003 0035 940
E: 21495.788215 0003 0036 1163
E: 21495.788215 0003 0030 360
E: 21495.788215 0003 0001 218
E: 21495.788215 0003 0018 58
E: 21495.788215 0000 0000 0
E: 21495.794916 0003 002f 0
E: 21495.794916 0003 0036 220
E: 21495.794916 0003 003a 61
E: 21495.794916 0003 002f 1
E: 21495.794916 0003 0035 939
E: 21495.794916 0003 003a 78
E: 21495.794916 0003 0030 338
E: 21495.794916 0003 0001 220
E: 21495.794916 0003 0018 61
E: 21495.794916 0000 0000 0
E: 21495.801466 0003 002f 0
E: 21495.801466 0003 0035 822
E: 21495.801466 0003 0036 222
E: 21495.801466 0003 003a 62
E: 21495.801466 0003 002f 1
E: 21495.801466 0003 0036 1162
E: 21495.801466 0003 0030 312
E: 21495.801466 0003 0000 822
E: 21495.801466 0003 0001 222
E: 21495.801466 0003 0018 62
E: 21495.801466 0000 0000 0
E: 21495.808035 0003 002f 0
E: 21495.808035 0003 0036 223
E: 21495.808035 0003 003a 58
E: 21495.808035 0003 0030 254
E: 21495.808035 0003 002f 1
E: 21495.808035 0003 0035 938
E: 21495.808035 0003 003a 79
E: 21495.808035 0003 0030 338
E: 21495.808035 0003 0001 223
E: 21495.808035 0003 0018 58
E: 21495.808035 0000 0000 0
E: 21495.814814 0003 002f 0
E: 21495.814814 0003 0035 823
E: 21495.814814 0003 0036 226
E: 21495.814814 0003 002f 1
E: 21495.814814 0003 0035 937
E: 21495.814814 0003 0036 1161
E: 21495.814814 0003 0000 823
E: 21495.814814 0003 0001 226
E: 21495.814814 0000 0000 0
E: 21495.821407 0003 002f 0
E: 21495.821407 0003 0036 228
E: 21495.821407 0003 003a 63
E: 21495.821407 0003 002f 1
E: 21495.821407 0003 0036 1160
E: 21495.821407 0003 003a 77
E: 21495.821407 0003 0030 312
E: 21495.821407 0003 0001 228
E: 21495.821407 0003 0018 63
E: 21495.821407 0000 0000 0
E: 21495.828090 0003 002f 0
E: 21495.828090 0003 0036 229
E: 21495.828090 0003 003a 61
E: 21495.828090 0003 002f 1
E: 21495.828090 0003 003a 78
E: 21495.828090 0003 0001 229
E: 21495.828090 0003 0018 61
E: 21495.828090 0000 0000 0
E: 21495.834724 0003 002f 0
E: 21495.834724 0003 0036 231
E: 21495.834724 0003 003a 60
E: 21495.834724 0003 002f 1
E: 21495.834724 0003 003a 77
E: 21495.834724 0003 0001 231
E: 21495.834724 0003 0018 60
E: 21495.834724 0000 0000 0
E: 21495.841275 0003 002f 0
E: 21495.841275 0003 0036 233
E: 21495.841275 0003 003a 59
E: 21495.841275 0003 002f 1
E: 21495.841275 0003 003a 78
E: 21495.841275 0003 0001 233
E: 21495.841275 0003 0018 59
E: 21495.841275 0000 0000 0
E: 21495.848018 0003 002f 0
E: 21495.848018 0003 0036 235
E: 21495.848018 0003 002f 1
E: 21495.848018 0003 0036 1159
E: 21495.848018 0003 003a 76
E: 21495.848018 0003 0030 338
E: 21495.848018 0003 0001 235
E: 21495.848018 0000 0000 0
E: 21495.854699 0003 002f 0
E: 21495.854699 0003 0035 824
E: 21495.854699 0003 0036 237
E: 21495.854699 0003 003a 61
E: 21495.854699 0003 002f 1
E: 21495.854699 0003 0035 936
E: 21495.854699 0003 003a 77
E: 21495.854699 0003 0030 312
E: 21495.854699 0003 0000 824
E: 21495.854699 0003 0001 237
E: 21495.854699 0003 0018 61
E: 21495.854699 0000 0000 0
E: 21495.861176 0003 002f 0
E: 21495.861176 0003 0036 239
E: 21495.861176 0003 002f 1
E: 21495.861176 0003 0035 937
E: 21495.861176 0003 0036 1158
E: 21495.861176 0003 003a 78
E: 21495.861176 0003 0001 239
E: 21495.861176 0000 0000 0
E: 21495.867812 0003 002f 0
E: 21495.867812 0003 0036 241
E: 21495.867812 0003 003a 60
E: 21495.867812 0003 002f 1
E: 21495.867812 0003 0035 936
E: 21495.867812 0003 003a 79
E: 21495.867812 0003 0030 360
E: 21495.867812 0003 0001 241
E: 21495.867812 0003 0018 60
E: 21495.867812 0000 0000 0
E: 21495.875972 0003 002f 0
E: 21495.875972 0003 0035 825
E: 21495.875972 0003 0036 243
E: 21495.875972 0003 002f 1
E: 21495.875972 0003 003a 78
E: 21495.875972 0003 0030 338
E: 21495.875972 0003 0000 825
E: 21495.875972 0003 0001 243
E: 21495.875972 0000 0000 0
E: 21495.882517 0003 002f 0
E: 21495.882517 0003 0035 824
E: 21495.882517 0003 0036 245
E: 21495.882517 0003 0030 220
E: 21495.882517 0003 002f 1
E: 21495.882517 0003 003a 76
E: 21495.882517 0003 0030 286
E: 21495.882517 0003 0000 824
E: 21495.882517 0003 0001 245
E: 21495.882517 0000 0000 0
E: 21495.889271 0003 002f 0
E: 21495.889271 0003 0036 248
E: 21495.889271 0003 003a 59
E: 21495.889271 0003 002f 1
E: 21495.889271 0003 0035 935
E: 21495.889271 0003 003a 77
E: 21495.889271 0003 0030 338
E: 21495.889271 0003 0001 248
E: 21495.889271 0003 0018 59
E: 21495.889271 0000 0000 0
E: 21495.895680 0003 002f 0
E: 21495.895680 0003 0035 825
E: 21495.895680 0003 0036 251
E: 21495.895680 0003 003a 60
E: 21495.895680 0003 0030 254
E: 21495.895680 0003 0000 825
E: 21495.895680 0003 0001 251
E: 21495.895680 0003 0018 60
E: 21495.895680 0000 0000 0
E: 21495.902773 0003 0036 254
E: 21495.902773 0003 003a 58
E: 21495.902773 0003 0030 220
E: 21495.902773 0003 002f 1
E: 21495.902773 0003 0036 1157
E: 21495.902773 0003 003a 79
E: 21495.902773 0003 0001 254
E: 21495.902773 0003 0018 58
E: 21495.902773 0000 0000 0
E: 21495.909571 0003 002f 0
E: 21495.909571 0003 0036 256
E: 21495.909571 0003 003a 59
E: 21495.909571 0003 0030 254
E: 21495.909571 0003 002f 1
E: 21495.909571 0003 003a 76
E: 21495.909571 0003 0001 256
E: 21495.909571 0003 0018 59
E: 21495.909571 0000 0000 0
E: 21495.916188 0003 002f 0
E: 21495.916188 0003 0036 259
E: 21495.916188 0003 003a 57
E: 21495.916188 0003 0030 220
E: 21495.916188 0003 002f 1
E: 21495.916188 0003 003a 78
E: 21495.916188 0003 0030 360
E: 21495.916188 0003 0001 259
E: 21495.916188 0003 0018 57
E: 21495.916188 0000 0000 0
E: 21495.923064 0003 002f 0
E: 21495.923064 0003 0035 826
E: 21495.923064 0003 0036 261
E: 21495.923064 0003 003a 60
E: 21495.923064 0003 002f 1
E: 21495.923064 0003 0035 934
E: 21495.923064 0003 003a 76
E: 21495.923064 0003 0030 338
E: 21495.923064 0003 0000 826
E: 21495.923064 0003 0001 261
E: 21495.923064 0003 0018 60
E: 21495.923064 0000 0000 0
E: 21495.929647 0003 002f 0
E: 21495.929647 0003 0036 264
E: 21495.929647 0003 003a 61
E: 21495.929647 0003 0030 254
E: 21495.929647 0003 002f 1
E: 21495.929647 0003 003a 77
E: 21495.929647 0003 0030 360
E: 21495.929647 0003 0001 264
E: 21495.929647 0003 0018 61
E: 21495.929647 0000 0000 0
E: 21495.936424 0003 002f 0
E: 21495.936424 0003 0036 266
E: 21495.936424 0003 003a 60
E: 21495.936424 0003 002f 1
E: 21495.936424 0003 003a 76
E: 21495.936424 0003 0001 266
E: 21495.936424 0003 0018 60
E: 21495.936424 0000 0000 0
E: 21495.943151 0003 002f 0
E: 21495.943151 0003 0035 827
E: 21495.943151 0003 0036 269
E: 21495.943151 0003 003a 57
E: 21495.943151 0003 002f 1
E: 21495.943151 0003 003a 75
E: 21495.943151 0003 0000 827
E: 21495.943151 0003 0001 269
E: 21495.943151 0003 0018 57
E: 21495.943151 0000 0000 0
E: 21495.949913 0003 002f 0
E: 21495.949913 0003 0036 272
E: 21495.949913 0003 003a 59
E: 21495.949913 0003 002f 1
E: 21495.949913 0003 0036 1156
E: 21495.949913 0003 003a 77
E: 21495.949913 0003 0001 272
E: 21495.949913 0003 0018 59
E: 21495.949913 0000 0000 0
E: 21495.956591 0003 002f 0
E: 21495.956591 0003 0036 275
E: 21495.956591 0003 003a 58
E: 21495.956591 0003 002f 1
E: 21495.956591 0003 003a 79
E: 21495.956591 0003 0001 275
E: 21495.956591 0003 0018 58
E: 21495.956591 0000 0000 0
E: 21495.963331 0003 002f 0
E: 21495.963331 0003 0035 828
E: 21495.963331 0003 0036 279
E: 21495.963331 0003 003a 62
E: 21495.963331 0003 0030 286
E: 21495.963331 0003 002f 1
E: 21495.963331 0003 003a 76
E: 21495.963331 0003 0030 338
E: 21495.963331 0003 0000 828
E: 21495.963331 0003 0001 279
E: 21495.963331 0003 0018 62
E: 21495.963331 0000 0000 0
E: 21495.970011 0003 002f 0
E: 21495.970011 0003 0035 829
E: 21495.970011 0003 0036 283
E: 21495.970011 0003 003a 63
E: 21495.970011 0003 0030 254
E: 21495.970011 0003 002f 1
E: 21495.970011 0003 0030 360
E: 21495.970011 0003 0000 829
E: 21495.970011 0003 0001 283
E: 21495.970011 0003 0018 63
E: 21495.970011 0000 0000 0
E: 21495.976632 0003 002f 0
E: 21495.976632 0003 0035 831
E: 21495.976632 0003 0036 288
E: 21495.976632 0003 002f 1
E: 21495.976632 0003 003a 75
E: 21495.976632 0003 0030 312
E: 21495.976632 0003 0000 831
E: 21495.976632 0003 0001 288
E: 21495.976632 0000 0000 0
E: 21495.983295 0003 002f 0
E: 21495.983295 0003 0035 832
E: 21495.983295 0003 0036 292
E: 21495.983295 0003 003a 66
E: 21495.983295 0003 002f 1
E: 21495.983295 0003 003a 80
E: 21495.983295 0003 0030 360
E: 21495.983295 0003 0000 832
E: 21495.983295 0003 0001 292
E: 21495.983295 0003 0018 66
E: 21495.983295 0000 0000 0
E: 21495.989968 0003 002f 0
E: 21495.989968 0003 0036 297
E: 21495.989968 0003 003a 59
E: 21495.989968 0003 002f 1
E: 21495.989968 0003 0035 933
E: 21495.989968 0003 003a 76
E: 21495.989968 0003 0001 297
E: 21495.989968 0003 0018 59
E: 21495.989968 0000 0000 0
E: 21495.996626 0003 002f 0
E: 21495.996626 0003 0035 833
E: 21495.996626 0003 0036 301
E: 21495.996626 0003 003a 63
E: 21495.996626 0003 002f 1
E: 21495.996626 0003 003a 79
E: 21495.996626 0003 0000 833
E: 21495.996626 0003 0001 301
E: 21495.996626 0003 0018 63
E: 21495.996626 0000 0000 0
E: 21496.003227 0003 002f 0
E: 21496.003227 0003 0036 305
E: 21496.003227 0003 003a 61
E: 21496.003227 0003 002f 1
E: 21496.003227 0003 003a 78
E: 21496.003227 0003 0001 305
E: 21496.003227 0003 0018 61
E: 21496.003227 0000 0000 0
E: 21496.010017 0003 002f 0
E: 21496.010017 0003 0035 834
E: 21496.010017 0003 0036 309
E: 21496.010017 0003 003a 60
E: 21496.010017 0003 002f 1
E: 21496.010017 0003 003a 77
E: 21496.010017 0003 0030 338
E: 21496.010017 0003 0000 834
E: 21496.010017 0003 0001 309
E: 21496.010017 0003 0018 60
E: 21496.010017 0000 0000 0
E: 21496.016663 0003 002f 0
E: 21496.016663 0003 0036 312
E: 21496.016663 0003 003a 61
E: 21496.016663 0003 002f 1
E: 21496.016663 0003 0036 1155
E: 21496.016663 0003 003a 78
E: 21496.016663 0003 0030 360
E: 21496.016663 0003 0001 312
E: 21496.016663 0003 0018 61
E: 21496.016663 0000 0000 0
E: 21496.023354 0003 002f 0
E: 21496.023354 0003 0035 835
E: 21496.023354 0003 0036 314
E: 21496.023354 0003 003a 62
E: 21496.023354 0003 002f 1
E: 21496.023354 0003 003a 76
E: 21496.023354 0003 0030 338
E: 21496.023354 0003 0000 835
E: 21496.023354 0003 0001 314
E: 21496.023354 0003 0018 62
E: 21496.023354 0000 0000 0
E: 21496.029610 0003 002f 0
E: 21496.029610 0003 0036 316
E: 21496.029610 0003 003a 63
E: 21496.029610 0003 0001 316
E: 21496.029610 0003 0018 63
E: 21496.029610 0000 0000 0
E: 21496.036266 0003 0036 318
E: 21496.036266 0003 003a 59
E: 21496.036266 0003 0001 318
E: 21496.036266 0003 0018 59
E: 21496.036266 0000 0000 0
E: 21496.043283 0003 0036 319
E: 21496.043283 0003 003a 64
E: 21496.043283 0003 002f 1
E: 21496.043283 0003 0035 932
E: 21496.043283 0003 003a 79
E: 21496.043283 0003 0030 360
E: 21496.043283 0003 0001 319
E: 21496.043283 0003 0018 64
E: 21496.043283 0000 0000 0
E: 21496.049924 0003 002f 0
E: 21496.049924 0003 0036 320
E: 21496.049924 0003 003a 59
E: 21496.049924 0003 002f 1
E: 21496.049924 0003 0036 1154
E: 21496.049924 0003 003a 78
E: 21496.049924 0003 0001 320
E: 21496.049924 0003 0018 59
E: 21496.049924 0000 0000 0
E: 21496.056591 0003 002f 0
E: 21496.056591 0003 0035 836
E: 21496.056591 0003 0036 321
E: 21496.056591 0003 003a 61
E: 21496.056591 0003 002f 1
E: 21496.056591 0003 0030 312
E: 21496.056591 0003 0000 836
E: 21496.056591 0003 0001 321
E: 21496.056591 0003 0018 61
E: 21496.056591 0000 0000 0
E: 21496.063295 0003 002f 0
E: 21496.063295 0003 0035 835
E: 21496.063295 0003 0036 322
E: 21496.063295 0003 003a 59
E: 21496.063295 0003 002f 1
E: 21496.063295 0003 003a 77
E: 21496.063295 0003 0030 338
E: 21496.063295 0003 0000 835
E: 21496.063295 0003 0001 322
E: 21496.063295 0003 0018 59
E: 21496.063295 0000 0000 0
E: 21496.071286 0003 002f 0
E: 21496.071286 0003 0035 836
E: 21496.071286 0003 0036 323
E: 21496.071286 0003 002f 1
E: 21496.071286 0003 003a 80
E: 21496.071286 0003 0030 360
E: 21496.071286 0003 0000 836
E: 21496.071286 0003 0001 323
E: 21496.071286 0000 0000 0
E: 21496.077887 0003 002f 0
E: 21496.077887 0003 0035 835
E: 21496.077887 0003 003a 60
E: 21496.077887 0003 002f 1
E: 21496.077887 0003 003a 77
E: 21496.077887 0003 0000 835
E: 21496.077887 0003 0018 60
E: 21496.077887 0000 0000 0
E: 21496.084593 0003 002f 0
E: 21496.084593 0003 0036 324
E: 21496.084593 0003 003a 59
E: 21496.084593 0003 002f 1
E: 21496.084593 0003 003a 79
E: 21496.084593 0003 0001 324
E: 21496.084593 0003 0018 59
E: 21496.084593 0000 0000 0
E: 21496.091237 0003 002f 0
E: 21496.091237 0003 0036 325
E: 21496.091237 0003 003a 60
E: 21496.091237 0003 002f 1
E: 21496.091237 0003 003a 78
E: 21496.091237 0003 0001 325
E: 21496.091237 0003 0018 60
E: 21496.091237 0000 0000 0
E: 21496.097545 0003 003a 79
E: 21496.097545 0000 0000 0
E: 21496.104623 0003 002f 0
E: 21496.104623 0003 0036 326
E: 21496.104623 0003 003a 56
E: 21496.104623 0003 0030 220
E: 21496.104623 0003 002f 1
E: 21496.104623 0003 003a 76
E: 21496.104623 0003 0001 326
E: 21496.104623 0003 0018 56
E: 21496.104623 0000 0000 0
E: 21496.111317 0003 002f 0
E: 21496.111317 0003 0036 327
E: 21496.111317 0003 003a 57
E: 21496.111317 0003 0030 254
E: 21496.111317 0003 002f 1
E: 21496.111317 0003 003a 79
E: 21496.111317 0003 0001 327
E: 21496.111317 0003 0018 57
E: 21496.111317 0000 0000 0
E: 21496.117971 0003 002f 0
E: 21496.117971 0003 003a 55
E: 21496.117971 0003 0030 220
E: 21496.117971 0003 002f 1
E: 21496.117971 0003 003a 77
E: 21496.117971 0003 0030 338
E: 21496.117971 0003 0018 55
E: 21496.117971 0000 0000 0
E: 21496.124757 0003 002f 0
E: 21496.124757 0003 0035 834
E: 21496.124757 0003 0036 328
E: 21496.124757 0003 003a 54
E: 21496.124757 0003 002f 1
E: 21496.124757 0003 003a 75
E: 21496.124757 0003 0000 834
E: 21496.124757 0003 0001 328
E: 21496.124757 0003 0018 54
E: 21496.124757 0000 0000 0
E: 21496.131440 0003 002f 0
E: 21496.131440 0003 0036 329
E: 21496.131440 0003 003a 51
E: 21496.131440 0003 002f 1
E: 21496.131440 0003 003a 77
E: 21496.131440 0003 0030 360
E: 21496.131440 0003 0001 329
E: 21496.131440 0003 0018 51
E: 21496.131440 0000 0000 0
E: 21496.138602 0003 002f 0
E: 21496.138602 0003 0035 833
E: 21496.138602 0003 0036 330
E: 21496.138602 0003 003a 49
E: 21496.138602 0003 002f 1
E: 21496.138602 0003 0030 312
E: 21496.138602 0001 0110 0
E: 21496.138602 0003 0000 833
E: 21496.138602 0003 0001 330
E: 21496.138602 0003 0018 49
E: 21496.138602 0000 0000 0
E: 21496.144963 0003 002f 0
E: 21496.144963 0003 003a 51
E: 21496.144963 0003 002f 1
E: 21496.144963 0003 003a 78
E: 21496.144963 0003 0030 360
E: 21496.144963 0003 0018 51
E: 21496.144963 0000 0000 0
E: 21496.151588 0003 002f 0
E: 21496.151588 0003 0035 832
E: 21496.151588 0003 0036 331
E: 21496.151588 0003 003a 50
E: 21496.151588 0003 002f 1
E: 21496.151588 0003 0035 933
E: 21496.151588 0003 0036 1155
E: 21496.151588 0003 003a 74
E: 21496.151588 0003 0000 832
E: 21496.151588 0003 0001 331
E: 21496.151588 0003 0018 50
E: 21496.151588 0000 0000 0
E: 21496.158366 0003 002f 0
E: 21496.158366 0003 003a 42
E: 21496.158366 0003 002f 1
E: 21496.158366 0003 003a 72
E: 21496.158366 0003 0030 312
E: 21496.158366 0003 0018 42
E: 21496.158366 0000 0000 0
E: 21496.165192 0003 002f 0
E: 21496.165192 0003 0035 831
E: 21496.165192 0003 003a 40
E: 21496.165192 0003 002f 1
E: 21496.165192 0003 0035 934
E: 21496.165192 0003 0030 286
E: 21496.165192 0003 0000 831
E: 21496.165192 0003 0018 40
E: 21496.165192 0000 0000 0
E: 21496.171785 0003 002f 0
E: 21496.171785 0003 003a 34
E: 21496.171785 0003 0030 180
E: 21496.171785 0003 002f 1
E: 21496.171785 0003 0035 935
E: 21496.171785 0003 0036 1156
E: 21496.171785 0003 003a 73
E: 21496.171785 0003 0030 312
E: 21496.171785 0003 0018 34
E: 21496.171785 0000 0000 0
E: 21496.178372 0003 002f 0
E: 21496.178372 0003 003a 33
E: 21496.178372 0003 002f 1
E: 21496.178372 0003 0035 936
E: 21496.178372 0003 0036 1157
E: 21496.178372 0003 003a 69
E: 21496.178372 0003 0030 286
E: 21496.178372 0003 0018 33
E: 21496.178372 0000 0000 0
E: 21496.185181 0003 002f 0
E: 21496.185181 0003 0036 330
E: 21496.185181 0003 003a 29
E: 21496.185181 0003 002f 1
E: 21496.185181 0003 0036 1158
E: 21496.185181 0003 003a 66
E: 21496.185181 0003 0030 220
E: 21496.185181 0003 0001 330
E: 21496.185181 0003 0018 29
E: 21496.185181 0000 0000 0
E: 21496.190948 0003 0035 938
E: 21496.190948 0003 0036 1160
E: 21496.190948 0003 003a 65
E: 21496.190948 0000 0000 0
E: 21496.196246 0003 0035 939
E: 21496.196246 0003 0036 1161
E: 21496.196246 0003 0030 286
E: 21496.196246 0000 0000 0
E: 21496.201937 0003 0036 1162
E: 21496.201937 0003 003a 61
E: 21496.201937 0003 0030 220
E: 21496.201937 0000 0000 0
E: 21496.207396 0003 0035 940
E: 21496.207396 0003 0036 1164
E: 21496.207396 0003 0030 254
E: 21496.207396 0000 0000 0
E: 21496.213251 0003 002f 0
E: 21496.213251 0003 0039 -1
E: 21496.213251 0003 002f 1
E: 21496.213251 0003 0035 941
E: 21496.213251 0003 0036 1166
E: 21496.213251 0003 003a 56
E: 21496.213251 0003 0030 220
E: 21496.213251 0001 0145 1
E: 21496.213251 0001 014d 0
E: 21496.213251 0003 0000 941
E: 21496.213251 0003 0001 1166
E: 21496.213251 0003 0018 56
E: 21496.213251 0000 0000 0
E: 21496.218337 0003 0036 1168
E: 21496.218337 0003 003a 54
E: 21496.218337 0003 0001 1168
E: 21496.218337 0003 0018 54
E: 21496.218337 0000 0000 0
E: 21496.223994 0003 0036 1171
E: 21496.223994 0003 003a 50
E: 21496.223994 0003 0001 1171
E: 21496.223994 0003 0018 50
E: 21496.223994 0000 0000 0
E: 21496.229521 0003 0036 1174
E: 21496.229521 0003 003a 46
E: 21496.229521 0003 0001 1174
E: 21496.229521 0003 0018 46
E: 21496.229521 0000 0000 0
E: 21496.235002 0003 0036 1177
E: 21496.235002 0003 003a 44
E: 21496.235002 0003 0030 180
E: 21496.235002 0003 0001 1177
E: 21496.235002 0003 0018 44
E: 21496.235002 0000 0000 0
E: 21496.240486 0003 0036 1179
E: 21496.240486 0003 003a 43
E: 21496.240486 0003 0001 1179
E: 21496.240486 0003 0018 43
E: 21496.240486 0000 0000 0
E: 21496.245958 0003 0036 1182
E: 21496.245958 0003 0001 1182
E: 21496.245958 0000 0000 0
E: 21496.251474 0003 0036 1185
E: 21496.251474 0003 003a 40
E: 21496.251474 0003 0030 126
E: 21496.251474 0003 0001 1185
E: 21496.251474 0003 0018 40
E: 21496.251474 0000 0000 0
E: 21496.256874 0003 0036 1188
E: 21496.256874 0003 003a 35
E: 21496.256874 0003 0001 1188
E: 21496.256874 0003 0018 35
E: 21496.256874 0000 0000 0
E: 21496.262365 0003 0036 1190
E: 21496.262365 0003 003a 32
E: 21496.262365 0003 0001 1190
E: 21496.262365 0003 0018 32
E: 21496.262365 0000 0000 0
E: 21496.268369 0003 0035 942
E: 21496.268369 0003 0036 1191
E: 21496.268369 0003 003a 27
E: 21496.268369 0003 0000 942
E: 21496.268369 0003 0001 1191
E: 21496.268369 0003 0018 27
E: 21496.268369 0000 0000 0
E: 21496.288955 0003 0039 -1
E: 21496.288955 0001 014a 0
E: 21496.288955 0001 0145 0
E: 21496.288955 0003 0018 0
E: 21496.288955 0000 0000 0
E: 21496.289455 0003 002f 0
E: 21496.289455 0003 0039 -1
E: 21496.289455 0003 002f 1
E: 21496.289455 0003 0039 -1
E: 21496.289455 0003 002f 2
E: 21496.289455 0003 0039 -1
E: 21496.289455 0003 002f 3
E: 21496.289455 0003 0039 -1
E: 21496.289455 0003 002f 4
E: 21496.289455 0003 0039 -1
E: 21496.289455 0003 002f 5
E: 21496.289455 0003 0039 -1
E: 21496.289455 0003 002f 6
E: 21496.289455 0003 0039 -1
E: 21496.289455 0003 002f 7
E: 21496.289455 0003 0039 -1
E: 21496.289455 0003 002f 8
E: 21496.289455 0003 0039 -1
E: 21496.289455 0003 002f 9
E: 21496.289455 0003 0039 -1
