# device: Atmel-maXTouch-Touchpad
# bit: 0B 00 00 00 00 00 00 00
# key: 00 00 00 00 00 00 00 00 00 00 00 00 00 00 00 00 00 00 00 00 00 00 00 00 00 00 00 00 00 00 00 00 00 00 01 00 00 00 00 00 20 E5 00 00 00 00 00 00 00 00 00 00 00 00 00 00 00 00 00 00 00 00 00 00 00 00 00 00 00 00 00 00 00 00 00 00 00 00 00 00 00 00 00 00 00 00 00 00 00 00 00 00 00 00 00 00
# rel: 00 00 00 00 00 00 00 00
# abs: 03 00 00 01 00 80 61 06
# led: 00 00 00 00 00 00 00 00
# prp: 05 00 00 00 00 00 00 00
# absinfo: 0 0 2039 0 0 20
# absinfo: 1 0 1359 0 0 20
# absinfo: 24 0 255 0 0 0
# absinfo: 47 0 9 0 0 0
# absinfo: 48 0 1878 0 0 0
# absinfo: 53 0 2039 0 0 20
# absinfo: 54 0 1359 0 0 20
# absinfo: 57 0 65535 0 0 0
# absinfo: 58 0 255 0 0 0
E: 15174.198414 0003 002f 0
E: 15174.198414 0003 0030 220
E: 15174.198414 0003 0031 0
E: 15174.198414 0003 0032 0
E: 15174.198414 0003 0033 0
E: 15174.198414 0003 0034 0
E: 15174.198414 0003 0035 623
E: 15174.198414 0003 0036 905
E: 15174.198414 0003 0037 0
E: 15174.198414 0003 0038 0
E: 15174.198414 0003 0039 1973
E: 15174.198414 0003 003a 51
E: 15174.198414 0003 003b 0
E: 15174.198414 0003 002f 1
E: 15174.198414 0003 0039 -1
E: 15174.198414 0003 002f 2
E: 15174.198414 0003 0039 -1
E: 15174.198414 0003 002f 3
E: 15174.198414 0003 0039 -1
E: 15174.198414 0003 002f 4
E: 15174.198414 0003 0039 -1
E: 15174.198414 0003 002f 5
E: 15174.198414 0003 0039 -1
E: 15174.198414 0003 002f 6
E: 15174.198414 0003 0039 -1
E: 15174.198414 0003 002f 7
E: 15174.198414 0003 0039 -1
E: 15174.198414 0003 002f 8
E: 15174.198414 0003 0039 -1
E: 15174.198414 0003 002f 9
E: 15174.198414 0003 0039 -1
E: 15174.198414 0003 002f 0
E: 15174.198414 0001 0145 1
E: 15174.198414 0001 014a 1
E: 15174.198414 0000 0000 0
E: 15174.205025 0003 003a 54
E: 15174.205028 0003 0018 54
E: 15174.205029 0000 0000 0
E: 15174.211935 0003 003a 51
E: 15174.211940 0003 0018 51
E: 15174.211941 0000 0000 0
E: 15174.219039 0003 0036 904
E: 15174.219040 0003 003a 52
E: 15174.219042 0003 002f 1
E: 15174.219042 0003 0039 1974
E: 15174.219043 0003 0035 411
E: 15174.219044 0003 0036 1265
E: 15174.219044 0003 003a 43
E: 15174.219045 0003 0030 220
E: 15174.219046 0001 0145 0
E: 15174.219047 0001 014d 1
E: 15174.219048 0003 0001 904
E: 15174.219049 0003 0018 52
E: 15174.219049 0000 0000 0
E: 15174.225881 0003 002f 0
E: 15174.225882 0003 0036 903
E: 15174.225884 0003 002f 1
E: 15174.225884 0003 003a 39
E: 15174.225885 0003 0030 180
E: 15174.225887 0003 0001 903
E: 15174.225888 0000 0000 0
E: 15174.232315 0003 002f 0
E: 15174.232315 0003 0036 902
E: 15174.232316 0003 003a 51
E: 15174.232318 0003 0001 902
E: 15174.232318 0003 0018 51
E: 15174.232319 0000 0000 0
E: 15174.239488 0003 0036 900
E: 15174.239489 0003 003a 52
E: 15174.239490 0003 0030 254
E: 15174.239492 0003 002f 1
E: 15174.239492 0003 0035 412
E: 15174.239493 0003 003a 40
E: 15174.239496 0003 0001 900
E: 15174.239496 0003 0018 52
E: 15174.239497 0000 0000 0
E: 15174.246285 0003 002f 0
E: 15174.246286 0003 0036 898
E: 15174.246287 0003 003a 55
E: 15174.246289 0003 002f 1
E: 15174.246289 0003 0036 1264
E: 15174.246290 0003 003a 44
E: 15174.246293 0003 0001 898
E: 15174.246294 0003 0018 55
E: 15174.246294 0000 0000 0
E: 15174.252738 0003 002f 0
E: 15174.252739 0003 0036 895
E: 15174.252740 0003 003a 53
E: 15174.252740 0003 0030 220
E: 15174.252743 0003 0001 895
E: 15174.252744 0003 0018 53
E: 15174.252744 0000 0000 0
E: 15174.259780 0003 0035 622
E: 15174.259781 0003 0036 891
E: 15174.259782 0003 003a 52
E: 15174.259784 0003 002f 1
E: 15174.259785 0003 0036 1263
E: 15174.259785 0003 003a 46
E: 15174.259789 0003 0000 622
E: 15174.259789 0003 0001 891
E: 15174.259790 0003 0018 52
E: 15174.259790 0000 0000 0
E: 15174.266586 0003 002f 0
E: 15174.266586 0003 0035 623
E: 15174.266587 0003 0036 886
E: 15174.266588 0003 003a 56
E: 15174.266588 0003 0030 254
E: 15174.266590 0003 002f 1
E: 15174.266590 0003 0036 1261
E: 15174.266591 0003 003a 44
E: 15174.266593 0003 0000 623
E: 15174.266594 0003 0001 886
E: 15174.266594 0003 0018 56
E: 15174.266595 0000 0000 0
E: 15174.273400 0003 002f 0
E: 15174.273401 0003 0035 622
E: 15174.273401 0003 0036 880
E: 15174.273402 0003 003a 54
E: 15174.273404 0003 002f 1
E: 15174.273404 0003 0036 1260
E: 15174.273405 0003 003a 51
E: 15174.273405 0003 0030 220
E: 15174.273408 0003 0000 622
E: 15174.273408 0003 0001 880
E: 15174.273409 0003 0018 54
E: 15174.273409 0000 0000 0
E: 15174.280260 0003 002f 0
E: 15174.280261 0003 0036 872
E: 15174.280262 0003 003a 52
E: 15174.280264 0003 002f 1
E: 15174.280265 0003 0036 1258
E: 15174.280265 0003 003a 49
E: 15174.280269 0003 0001 872
E: 15174.280269 0003 0018 52
E: 15174.280270 0000 0000 0
E: 15174.287083 0003 002f 0
E: 15174.287085 0003 0035 623
E: 15174.287085 0003 0036 866
E: 15174.287086 0003 003a 58
E: 15174.287088 0003 002f 1
E: 15174.287088 0003 0036 1255
E: 15174.287089 0003 003a 50
E: 15174.287089 0003 0030 254
E: 15174.287093 0003 0000 623
E: 15174.287093 0003 0001 866
E: 15174.287094 0003 0018 58
E: 15174.287094 0000 0000 0
E: 15174.293879 0003 002f 0
E: 15174.293880 0003 0035 622
E: 15174.293880 0003 0036 859
E: 15174.293881 0003 003a 57
E: 15174.293883 0003 002f 1
E: 15174.293883 0003 0035 414
E: 15174.293884 0003 0036 1252
E: 15174.293884 0003 003a 51
E: 15174.293885 0003 0030 220
E: 15174.293888 0003 0000 622
E: 15174.293888 0003 0001 859
E: 15174.293889 0003 0018 57
E: 15174.293890 0000 0000 0
E: 15174.300573 0003 002f 0
E: 15174.300574 0003 0035 621
E: 15174.300575 0003 0036 851
E: 15174.300577 0003 002f 1
E: 15174.300577 0003 0036 1248
E: 15174.300578 0003 003a 53
E: 15174.300578 0003 0030 254
E: 15174.300581 0003 0000 621
E: 15174.300581 0003 0001 851
E: 15174.300582 0000 0000 0
E: 15174.307374 0003 002f 0
E: 15174.307375 0003 0036 845
E: 15174.307376 0003 003a 55
E: 15174.307376 0003 0030 220
E: 15174.307378 0003 002f 1
E: 15174.307378 0003 0035 415
E: 15174.307378 0003 0036 1244
E: 15174.307381 0003 0001 845
E: 15174.307382 0003 0018 55
E: 15174.307382 0000 0000 0
E: 15174.314219 0003 002f 0
E: 15174.314220 0003 0036 840
E: 15174.314220 0003 003a 53
E: 15174.314221 0003 0030 254
E: 15174.314222 0003 002f 1
E: 15174.314222 0003 0035 416
E: 15174.314223 0003 0036 1239
E: 15174.314223 0003 003a 52
E: 15174.314226 0003 0001 840
E: 15174.314226 0003 0018 53
E: 15174.314227 0000 0000 0
E: 15174.321178 0003 002f 0
E: 15174.321179 0003 0036 835
E: 15174.321180 0003 003a 51
E: 15174.321180 0003 0030 220
E: 15174.321182 0003 002f 1
E: 15174.321183 0003 0036 1235
E: 15174.321183 0003 003a 53
E: 15174.321186 0003 0001 835
E: 15174.321187 0003 0018 51
E: 15174.321188 0000 0000 0
E: 15174.327855 0003 002f 0
E: 15174.327856 0003 0036 831
E: 15174.327857 0003 003a 59
E: 15174.327858 0003 0030 254
E: 15174.327859 0003 002f 1
E: 15174.327860 0003 0035 417
E: 15174.327860 0003 0036 1230
E: 15174.327861 0003 003a 52
E: 15174.327864 0003 0001 831
E: 15174.327864 0003 0018 59
E: 15174.327865 0000 0000 0
E: 15174.334702 0003 002f 0
E: 15174.334703 0003 0036 826
E: 15174.334703 0003 003a 54
E: 15174.334704 0003 0030 220
E: 15174.334706 0003 002f 1
E: 15174.334706 0003 0036 1226
E: 15174.334707 0003 003a 50
E: 15174.334709 0003 0001 826
E: 15174.334710 0003 0018 54
E: 15174.334711 0000 0000 0
E: 15174.341496 0003 002f 0
E: 15174.341498 0003 0036 822
E: 15174.341500 0003 002f 1
E: 15174.341501 0003 0035 416
E: 15174.341501 0003 0036 1222
E: 15174.341502 0003 003a 55
E: 15174.341505 0003 0001 822
E: 15174.341506 0000 0000 0
E: 15174.348330 0003 002f 0
E: 15174.348332 0003 0035 620
E: 15174.348332 0003 0036 818
E: 15174.348333 0003 003a 59
E: 15174.348335 0003 002f 1
E: 15174.348335 0003 0035 417
E: 15174.348335 0003 0036 1218
E: 15174.348338 0003 0000 620
E: 15174.348339 0003 0001 818
E: 15174.348339 0003 0018 59
E: 15174.348340 0000 0000 0
E: 15174.355248 0003 002f 0
E: 15174.355249 0003 0036 814
E: 15174.355250 0003 003a 53
E: 15174.355252 0003 002f 1
E: 15174.355252 0003 0036 1215
E: 15174.355253 0003 003a 51
E: 15174.355256 0003 0001 814
E: 15174.355257 0003 0018 53
E: 15174.355258 0000 0000 0
E: 15174.362031 0003 002f 0
E: 15174.362033 0003 0036 811
E: 15174.362033 0003 003a 57
E: 15174.362035 0003 002f 1
E: 15174.362036 0003 0035 418
E: 15174.362036 0003 0036 1212
E: 15174.362037 0003 003a 55
E: 15174.362040 0003 0001 811
E: 15174.362041 0003 0018 57
E: 15174.362041 0000 0000 0
E: 15174.368831 0003 002f 0
E: 15174.368832 0003 0036 807
E: 15174.368833 0003 003a 59
E: 15174.368835 0003 002f 1
E: 15174.368835 0003 0035 419
E: 15174.368836 0003 0036 1208
E: 15174.368836 0003 003a 58
E: 15174.368840 0003 0001 807
E: 15174.368840 0003 0018 59
E: 15174.368841 0000 0000 0
E: 15174.375621 0003 002f 0
E: 15174.375622 0003 0036 804
E: 15174.375623 0003 003a 55
E: 15174.375625 0003 002f 1
E: 15174.375625 0003 0036 1204
E: 15174.375626 0003 003a 53
E: 15174.375629 0003 0001 804
E: 15174.375630 0003 0018 55
E: 15174.375631 0000 0000 0
E: 15174.382410 0003 002f 0
E: 15174.382412 0003 0036 800
E: 15174.382412 0003 003a 56
E: 15174.382414 0003 002f 1
E: 15174.382415 0003 0036 1201
E: 15174.382415 0003 003a 58
E: 15174.382419 0003 0001 800
E: 15174.382419 0003 0018 56
E: 15174.382420 0000 0000 0
E: 15174.389214 0003 002f 0
E: 15174.389215 0003 0036 798
E: 15174.389216 0003 003a 60
E: 15174.389218 0003 002f 1
E: 15174.389219 0003 0036 1197
E: 15174.389219 0003 003a 56
E: 15174.389223 0003 0001 798
E: 15174.389223 0003 0018 60
E: 15174.389224 0000 0000 0
E: 15174.396832 0003 002f 0
E: 15174.396834 0003 0036 794
E: 15174.396834 0003 003a 56
E: 15174.396836 0003 002f 1
E: 15174.396837 0003 0036 1195
E: 15174.396837 0003 003a 53
E: 15174.396841 0003 0001 794
E: 15174.396842 0003 0018 56
E: 15174.396842 0000 0000 0
E: 15174.403558 0003 002f 0
E: 15174.403559 0003 0035 621
E: 15174.403560 0003 0036 790
E: 15174.403560 0003 003a 58
E: 15174.403562 0003 002f 1
E: 15174.403563 0003 0035 420
E: 15174.403563 0003 0036 1193
E: 15174.403564 0003 003a 56
E: 15174.403567 0003 0000 621
E: 15174.403567 0003 0001 790
E: 15174.403568 0003 0018 58
E: 15174.403568 0000 0000 0
E: 15174.410296 0003 002f 0
E: 15174.410297 0003 0035 620
E: 15174.410297 0003 0036 787
E: 15174.410298 0003 003a 57
E: 15174.410298 0003 0030 254
E: 15174.410300 0003 002f 1
E: 15174.410301 0003 0036 1190
E: 15174.410303 0003 0000 620
E: 15174.410304 0003 0001 787
E: 15174.410304 0003 0018 57
E: 15174.410305 0000 0000 0
E: 15174.417107 0003 002f 0
E: 15174.417108 0003 0035 621
E: 15174.417109 0003 0036 783
E: 15174.417109 0003 003a 56
E: 15174.417111 0003 002f 1
E: 15174.417112 0003 0035 419
E: 15174.417112 0003 0036 1187
E: 15174.417113 0003 003a 59
E: 15174.417116 0003 0000 621
E: 15174.417117 0003 0001 783
E: 15174.417117 0003 0018 56
E: 15174.417118 0000 0000 0
E: 15174.423857 0003 002f 0
E: 15174.423858 0003 0035 620
E: 15174.423859 0003 0036 780
E: 15174.423860 0003 003a 55
E: 15174.423864 0003 002f 1
E: 15174.423864 0003 0035 420
E: 15174.423865 0003 0036 1185
E: 15174.423865 0003 003a 53
E: 15174.423868 0003 0000 620
E: 15174.423869 0003 0001 780
E: 15174.423869 0003 0018 55
E: 15174.423870 0000 0000 0
E: 15174.430554 0003 002f 0
E: 15174.430556 0003 0035 621
E: 15174.430557 0003 0036 776
E: 15174.430560 0003 002f 1
E: 15174.430561 0003 0036 1183
E: 15174.430561 0003 003a 54
E: 15174.430566 0003 0000 621
E: 15174.430567 0003 0001 776
E: 15174.430568 0000 0000 0
E: 15174.437271 0003 002f 0
E: 15174.437272 0003 0036 773
E: 15174.437274 0003 003a 59
E: 15174.437276 0003 002f 1
E: 15174.437277 0003 0035 419
E: 15174.437278 0003 0036 1180
E: 15174.437279 0003 003a 57
E: 15174.437283 0003 0001 773
E: 15174.437284 0003 0018 59
E: 15174.437285 0000 0000 0
E: 15174.444040 0003 002f 0
E: 15174.444041 0003 0036 770
E: 15174.444042 0003 003a 57
E: 15174.444045 0003 002f 1
E: 15174.444045 0003 0035 420
E: 15174.444046 0003 0036 1178
E: 15174.444047 0003 003a 55
E: 15174.444051 0003 0001 770
E: 15174.444052 0003 0018 57
E: 15174.444053 0000 0000 0
E: 15174.450835 0003 002f 0
E: 15174.450836 0003 0035 622
E: 15174.450837 0003 0036 766
E: 15174.450839 0003 002f 1
E: 15174.450839 0003 0036 1177
E: 15174.450842 0003 0000 622
E: 15174.450843 0003 0001 766
E: 15174.450844 0000 0000 0
E: 15174.457543 0003 002f 0
E: 15174.457544 0003 0036 763
E: 15174.457544 0003 003a 59
E: 15174.457545 0003 0030 286
E: 15174.457547 0003 002f 1
E: 15174.457547 0003 0036 1175
E: 15174.457548 0003 003a 58
E: 15174.457550 0003 0001 763
E: 15174.457551 0003 0018 59
E: 15174.457552 0000 0000 0
E: 15174.464436 0003 002f 0
E: 15174.464437 0003 0036 759
E: 15174.464438 0003 003a 58
E: 15174.464438 0003 0030 220
E: 15174.464440 0003 002f 1
E: 15174.464440 0003 0036 1173
E: 15174.464441 0003 003a 59
E: 15174.464444 0003 0001 759
E: 15174.464445 0003 0018 58
E: 15174.464446 0000 0000 0
E: 15174.471215 0003 002f 0
E: 15174.471217 0003 0035 623
E: 15174.471217 0003 0036 755
E: 15174.471218 0003 003a 55
E: 15174.471220 0003 002f 1
E: 15174.471220 0003 0036 1171
E: 15174.471221 0003 003a 51
E: 15174.471224 0003 0000 623
E: 15174.471225 0003 0001 755
E: 15174.471225 0003 0018 55
E: 15174.471226 0000 0000 0
E: 15174.477893 0003 002f 0
E: 15174.477894 0003 0036 751
E: 15174.477895 0003 003a 60
E: 15174.477895 0003 0030 254
E: 15174.477897 0003 002f 1
E: 15174.477898 0003 0036 1170
E: 15174.477898 0003 003a 57
E: 15174.477901 0003 0001 751
E: 15174.477902 0003 0018 60
E: 15174.477902 0000 0000 0
E: 15174.484752 0003 002f 0
E: 15174.484753 0003 0036 748
E: 15174.484753 0003 003a 58
E: 15174.484755 0003 002f 1
E: 15174.484755 0003 0036 1168
E: 15174.484756 0003 003a 56
E: 15174.484759 0003 0001 748
E: 15174.484759 0003 0018 58
E: 15174.484760 0000 0000 0
E: 15174.491623 0003 002f 0
E: 15174.491625 0003 0036 745
E: 15174.491625 0003 003a 55
E: 15174.491626 0003 0030 220
E: 15174.491628 0003 002f 1
E: 15174.491628 0003 0036 1166
E: 15174.491631 0003 0001 745
E: 15174.491632 0003 0018 55
E: 15174.491633 0000 0000 0
E: 15174.498319 0003 002f 0
E: 15174.498320 0003 0035 624
E: 15174.498320 0003 0036 743
E: 15174.498321 0003 003a 56
E: 15174.498321 0003 0030 254
E: 15174.498323 0003 002f 1
E: 15174.498324 0003 0036 1164
E: 15174.498324 0003 003a 54
E: 15174.498327 0003 0000 624
E: 15174.498327 0003 0001 743
E: 15174.498328 0003 0018 56
E: 15174.498328 0000 0000 0
E: 15174.505178 0003 002f 0
E: 15174.505179 0003 0035 623
E: 15174.505179 0003 0036 740
E: 15174.505180 0003 003a 58
E: 15174.505182 0003 002f 1
E: 15174.505182 0003 0036 1163
E: 15174.505182 0003 003a 56
E: 15174.505184 0003 0000 623
E: 15174.505185 0003 0001 740
E: 15174.505185 0003 0018 58
E: 15174.505186 0000 0000 0
E: 15174.511938 0003 002f 0
E: 15174.511939 0003 0035 624
E: 15174.511940 0003 0036 737
E: 15174.511940 0003 003a 56
E: 15174.511942 0003 002f 1
E: 15174.511942 0003 0035 421
E: 15174.511942 0003 0036 1161
E: 15174.511943 0003 003a 58
E: 15174.511945 0003 0000 624
E: 15174.511946 0003 0001 737
E: 15174.511946 0003 0018 56
E: 15174.511947 0000 0000 0
E: 15174.518783 0003 002f 0
E: 15174.518784 0003 0035 623
E: 15174.518784 0003 0036 735
E: 15174.518785 0003 003a 60
E: 15174.518786 0003 002f 1
E: 15174.518787 0003 0036 1160
E: 15174.518789 0003 0000 623
E: 15174.518790 0003 0001 735
E: 15174.518790 0003 0018 60
E: 15174.518791 0000 0000 0
E: 15174.525609 0003 002f 0
E: 15174.525610 0003 0036 732
E: 15174.525610 0003 003a 58
E: 15174.525612 0003 002f 1
E: 15174.525613 0003 0036 1158
E: 15174.525613 0003 003a 56
E: 15174.525616 0003 0001 732
E: 15174.525617 0003 0018 58
E: 15174.525617 0000 0000 0
E: 15174.532624 0003 002f 0
E: 15174.532625 0003 0035 624
E: 15174.532626 0003 0036 730
E: 15174.532627 0003 003a 56
E: 15174.532629 0003 002f 1
E: 15174.532629 0003 0036 1157
E: 15174.532629 0003 003a 55
E: 15174.532633 0003 0000 624
E: 15174.532633 0003 0001 730
E: 15174.532634 0003 0018 56
E: 15174.532635 0000 0000 0
E: 15174.539298 0003 002f 0
E: 15174.539299 0003 0036 728
E: 15174.539300 0003 003a 59
E: 15174.539302 0003 002f 1
E: 15174.539302 0003 0035 422
E: 15174.539303 0003 0036 1154
E: 15174.539303 0003 003a 61
E: 15174.539304 0003 0030 286
E: 15174.539306 0003 0001 728
E: 15174.539307 0003 0018 59
E: 15174.539308 0000 0000 0
E: 15174.546149 0003 002f 0
E: 15174.546151 0003 0036 725
E: 15174.546151 0003 003a 57
E: 15174.546154 0003 002f 1
E: 15174.546154 0003 0036 1153
E: 15174.546154 0003 003a 56
E: 15174.546155 0003 0030 254
E: 15174.546158 0003 0001 725
E: 15174.546158 0003 0018 57
E: 15174.546159 0000 0000 0
E: 15174.552882 0003 002f 0
E: 15174.552883 0003 0036 723
E: 15174.552884 0003 003a 53
E: 15174.552886 0003 002f 1
E: 15174.552886 0003 0036 1151
E: 15174.552887 0003 003a 54
E: 15174.552887 0003 0030 220
E: 15174.552891 0003 0001 723
E: 15174.552892 0003 0018 53
E: 15174.552892 0000 0000 0
E: 15174.559658 0003 002f 0
E: 15174.559659 0003 0036 721
E: 15174.559660 0003 003a 57
E: 15174.559662 0003 002f 1
E: 15174.559662 0003 0035 423
E: 15174.559663 0003 0036 1148
E: 15174.559663 0003 003a 55
E: 15174.559664 0003 0030 254
E: 15174.559667 0003 0001 721
E: 15174.559668 0003 0018 57
E: 15174.559668 0000 0000 0
E: 15174.566392 0003 002f 0
E: 15174.566393 0003 0036 720
E: 15174.566394 0003 003a 55
E: 15174.566396 0003 002f 1
E: 15174.566396 0003 0036 1146
E: 15174.566397 0003 003a 57
E: 15174.566400 0003 0001 720
E: 15174.566400 0003 0018 55
E: 15174.566401 0000 0000 0
E: 15174.573130 0003 002f 0
E: 15174.573132 0003 0036 718
E: 15174.573133 0003 003a 60
E: 15174.573135 0003 002f 1
E: 15174.573135 0003 0036 1143
E: 15174.573136 0003 003a 60
E: 15174.573136 0003 0030 286
E: 15174.573140 0003 0001 718
E: 15174.573140 0003 0018 60
E: 15174.573141 0000 0000 0
E: 15174.579859 0003 002f 0
E: 15174.579860 0003 0036 716
E: 15174.579861 0003 003a 61
E: 15174.579863 0003 002f 1
E: 15174.579863 0003 0035 424
E: 15174.579864 0003 0036 1140
E: 15174.579864 0003 003a 57
E: 15174.579865 0003 0030 254
E: 15174.579868 0003 0001 716
E: 15174.579868 0003 0018 61
E: 15174.579869 0000 0000 0
E: 15174.587439 0003 002f 0
E: 15174.587440 0003 0036 714
E: 15174.587440 0003 003a 53
E: 15174.587442 0003 002f 1
E: 15174.587442 0003 0036 1138
E: 15174.587443 0003 003a 54
E: 15174.587443 0003 0030 220
E: 15174.587446 0003 0001 714
E: 15174.587446 0003 0018 53
E: 15174.587447 0000 0000 0
E: 15174.594260 0003 002f 0
E: 15174.594261 0003 0036 712
E: 15174.594261 0003 003a 56
E: 15174.594263 0003 002f 1
E: 15174.594264 0003 0036 1135
E: 15174.594264 0003 003a 56
E: 15174.594265 0003 0030 254
E: 15174.594268 0003 0001 712
E: 15174.594269 0003 0018 56
E: 15174.594270 0000 0000 0
E: 15174.601045 0003 002f 0
E: 15174.601045 0003 0036 710
E: 15174.601046 0003 003a 59
E: 15174.601048 0003 002f 1
E: 15174.601048 0003 0035 425
E: 15174.601049 0003 0036 1133
E: 15174.601049 0003 003a 57
E: 15174.601050 0003 0030 220
E: 15174.601052 0003 0001 710
E: 15174.601052 0003 0018 59
E: 15174.601053 0000 0000 0
E: 15174.607929 0003 002f 0
E: 15174.607931 0003 0036 708
E: 15174.607931 0003 003a 57
E: 15174.607934 0003 002f 1
E: 15174.607934 0003 0036 1131
E: 15174.607934 0003 003a 59
E: 15174.607935 0003 0030 254
E: 15174.607938 0003 0001 708
E: 15174.607938 0003 0018 57
E: 15174.607939 0000 0000 0
E: 15174.614616 0003 002f 0
E: 15174.614617 0003 0035 625
E: 15174.614618 0003 0036 706
E: 15174.614618 0003 003a 53
E: 15174.614620 0003 002f 1
E: 15174.614621 0003 0036 1129
E: 15174.614621 0003 003a 52
E: 15174.614622 0003 0030 220
E: 15174.614624 0003 0000 625
E: 15174.614625 0003 0001 706
E: 15174.614625 0003 0018 53
E: 15174.614626 0000 0000 0
E: 15174.621489 0003 002f 0
E: 15174.621490 0003 0036 704
E: 15174.621490 0003 003a 57
E: 15174.621492 0003 002f 1
E: 15174.621492 0003 0036 1127
E: 15174.621493 0003 003a 56
E: 15174.621494 0003 0030 254
E: 15174.621496 0003 0001 704
E: 15174.621497 0003 0018 57
E: 15174.621497 0000 0000 0
E: 15174.628376 0003 002f 0
E: 15174.628377 0003 0036 701
E: 15174.628378 0003 003a 55
E: 15174.628379 0003 002f 1
E: 15174.628380 0003 0036 1125
E: 15174.628380 0003 003a 55
E: 15174.628381 0003 0030 220
E: 15174.628384 0003 0001 701
E: 15174.628385 0003 0018 55
E: 15174.628385 0000 0000 0
E: 15174.635175 0003 002f 0
E: 15174.635176 0003 0036 698
E: 15174.635177 0003 003a 54
E: 15174.635179 0003 002f 1
E: 15174.635180 0003 0036 1122
E: 15174.635183 0003 0001 698
E: 15174.635184 0003 0018 54
E: 15174.635184 0000 0000 0
E: 15174.641953 0003 002f 0
E: 15174.641954 0003 0035 626
E: 15174.641955 0003 0036 697
E: 15174.641955 0003 003a 56
E: 15174.641958 0003 002f 1
E: 15174.641958 0003 0036 1120
E: 15174.641959 0003 003a 60
E: 15174.641959 0003 0030 254
E: 15174.641962 0003 0000 626
E: 15174.641963 0003 0001 697
E: 15174.641963 0003 0018 56
E: 15174.641964 0000 0000 0
E: 15174.648702 0003 002f 0
E: 15174.648703 0003 0036 695
E: 15174.648704 0003 003a 58
E: 15174.648705 0003 002f 1
E: 15174.648706 0003 0036 1118
E: 15174.648706 0003 003a 57
E: 15174.648709 0003 0001 695
E: 15174.648709 0003 0018 58
E: 15174.648710 0000 0000 0
E: 15174.655503 0003 002f 0
E: 15174.655504 0003 0035 627
E: 15174.655504 0003 0036 693
E: 15174.655506 0003 002f 1
E: 15174.655506 0003 0036 1116
E: 15174.655509 0003 0000 627
E: 15174.655509 0003 0001 693
E: 15174.655510 0000 0000 0
E: 15174.662349 0003 002f 0
E: 15174.662349 0003 0036 691
E: 15174.662350 0003 003a 57
E: 15174.662351 0003 002f 1
E: 15174.662352 0003 0036 1114
E: 15174.662352 0003 003a 58
E: 15174.662355 0003 0001 691
E: 15174.662355 0003 0018 57
E: 15174.662356 0000 0000 0
E: 15174.669210 0003 002f 0
E: 15174.669212 0003 0036 689
E: 15174.669214 0003 002f 1
E: 15174.669215 0003 0036 1112
E: 15174.669215 0003 003a 60
E: 15174.669218 0003 0001 689
E: 15174.669219 0000 0000 0
E: 15174.676018 0003 002f 0
E: 15174.676020 0003 0036 688
E: 15174.676021 0003 003a 60
E: 15174.676023 0003 002f 1
E: 15174.676023 0003 0036 1110
E: 15174.676023 0003 003a 56
E: 15174.676027 0003 0001 688
E: 15174.676028 0003 0018 60
E: 15174.676028 0000 0000 0
E: 15174.682730 0003 002f 0
E: 15174.682731 0003 0035 628
E: 15174.682732 0003 0036 686
E: 15174.682732 0003 003a 58
E: 15174.682733 0003 0030 220
E: 15174.682735 0003 002f 1
E: 15174.682735 0003 0036 1108
E: 15174.682736 0003 003a 57
E: 15174.682739 0003 0000 628
E: 15174.682739 0003 0001 686
E: 15174.682740 0003 0018 58
E: 15174.682740 0000 0000 0
E: 15174.689473 0003 002f 0
E: 15174.689474 0003 0036 684
E: 15174.689475 0003 003a 59
E: 15174.689476 0003 002f 1
E: 15174.689477 0003 0035 426
E: 15174.689477 0003 0036 1105
E: 15174.689480 0003 0001 684
E: 15174.689480 0003 0018 59
E: 15174.689481 0000 0000 0
E: 15174.696340 0003 002f 0
E: 15174.696341 0003 0035 629
E: 15174.696342 0003 0036 681
E: 15174.696342 0003 003a 55
E: 15174.696344 0003 002f 1
E: 15174.696344 0003 0036 1102
E: 15174.696347 0003 0000 629
E: 15174.696347 0003 0001 681
E: 15174.696348 0003 0018 55
E: 15174.696348 0000 0000 0
E: 15174.703146 0003 002f 0
E: 15174.703147 0003 0036 679
E: 15174.703147 0003 003a 58
E: 15174.703149 0003 002f 1
E: 15174.703149 0003 0036 1099
E: 15174.703150 0003 003a 58
E: 15174.703152 0003 0001 679
E: 15174.703153 0003 0018 58
E: 15174.703153 0000 0000 0
E: 15174.710093 0003 002f 0
E: 15174.710095 0003 0036 677
E: 15174.710095 0003 003a 57
E: 15174.710098 0003 002f 1
E: 15174.710098 0003 0036 1096
E: 15174.710099 0003 003a 56
E: 15174.710102 0003 0001 677
E: 15174.710103 0003 0018 57
E: 15174.710103 0000 0000 0
E: 15174.716847 0003 002f 0
E: 15174.716848 0003 0036 675
E: 15174.716848 0003 003a 59
E: 15174.716850 0003 002f 1
E: 15174.716851 0003 0036 1094
E: 15174.716851 0003 003a 60
E: 15174.716855 0003 0001 675
E: 15174.716855 0003 0018 59
E: 15174.716856 0000 0000 0
E: 15174.723649 0003 002f 0
E: 15174.723650 0003 0035 630
E: 15174.723650 0003 0036 672
E: 15174.723653 0003 002f 1
E: 15174.723653 0003 0035 427
E: 15174.723653 0003 0036 1089
E: 15174.723654 0003 003a 58
E: 15174.723657 0003 0000 630
E: 15174.723657 0003 0001 672
E: 15174.723658 0000 0000 0
E: 15174.730503 0003 002f 0
E: 15174.730505 0003 0036 669
E: 15174.730505 0003 003a 58
E: 15174.730507 0003 002f 1
E: 15174.730508 0003 0036 1086
E: 15174.730508 0003 003a 59
E: 15174.730512 0003 0001 669
E: 15174.730512 0003 0018 58
E: 15174.730513 0000 0000 0
E: 15174.737254 0003 002f 0
E: 15174.737256 0003 0035 631
E: 15174.737256 0003 0036 665
E: 15174.737257 0003 003a 64
E: 15174.737257 0003 0030 286
E: 15174.737260 0003 002f 1
E: 15174.737260 0003 0036 1082
E: 15174.737263 0003 0000 631
E: 15174.737264 0003 0001 665
E: 15174.737264 0003 0018 64
E: 15174.737265 0000 0000 0
E: 15174.744029 0003 002f 0
E: 15174.744030 0003 0036 661
E: 15174.744031 0003 003a 56
E: 15174.744031 0003 0030 254
E: 15174.744033 0003 002f 1
E: 15174.744034 0003 0036 1078
E: 15174.744034 0003 003a 54
E: 15174.744037 0003 0001 661
E: 15174.744038 0003 0018 56
E: 15174.744039 0000 0000 0
E: 15174.750695 0003 002f 0
E: 15174.750696 0003 0035 632
E: 15174.750697 0003 0036 658
E: 15174.750697 0003 003a 55
E: 15174.750699 0003 002f 1
E: 15174.750699 0003 0035 426
E: 15174.750700 0003 0036 1074
E: 15174.750700 0003 003a 58
E: 15174.750703 0003 0000 632
E: 15174.750704 0003 0001 658
E: 15174.750704 0003 0018 55
E: 15174.750705 0000 0000 0
E: 15174.757434 0003 002f 0
E: 15174.757434 0003 0036 654
E: 15174.757435 0003 003a 58
E: 15174.757435 0003 0030 286
E: 15174.757437 0003 002f 1
E: 15174.757437 0003 0035 427
E: 15174.757438 0003 0036 1070
E: 15174.757440 0003 0001 654
E: 15174.757441 0003 0018 58
E: 15174.757442 0000 0000 0
E: 15174.764282 0003 002f 0
E: 15174.764283 0003 0035 633
E: 15174.764283 0003 0036 650
E: 15174.764284 0003 003a 60
E: 15174.764286 0003 002f 1
E: 15174.764286 0003 0035 426
E: 15174.764287 0003 0036 1066
E: 15174.764287 0003 003a 59
E: 15174.764290 0003 0000 633
E: 15174.764291 0003 0001 650
E: 15174.764291 0003 0018 60
E: 15174.764292 0000 0000 0
E: 15174.770975 0003 002f 0
E: 15174.770976 0003 0035 634
E: 15174.770976 0003 0036 645
E: 15174.770977 0003 003a 56
E: 15174.770979 0003 002f 1
E: 15174.770979 0003 0036 1061
E: 15174.770980 0003 003a 55
E: 15174.770983 0003 0000 634
E: 15174.770983 0003 0001 645
E: 15174.770984 0003 0018 56
E: 15174.770984 0000 0000 0
E: 15174.777780 0003 002f 0
E: 15174.777781 0003 0035 635
E: 15174.777781 0003 0036 639
E: 15174.777782 0003 003a 59
E: 15174.777782 0003 0030 254
E: 15174.777784 0003 002f 1
E: 15174.777784 0003 0036 1057
E: 15174.777785 0003 003a 59
E: 15174.777787 0003 0000 635
E: 15174.777787 0003 0001 639
E: 15174.777788 0003 0018 59
E: 15174.777788 0000 0000 0
E: 15174.785568 0003 002f 0
E: 15174.785569 0003 0035 636
E: 15174.785569 0003 0036 633
E: 15174.785570 0003 003a 58
E: 15174.785571 0003 002f 1
E: 15174.785572 0003 0035 425
E: 15174.785572 0003 0036 1051
E: 15174.785573 0003 003a 62
E: 15174.785575 0003 0000 636
E: 15174.785575 0003 0001 633
E: 15174.785576 0003 0018 58
E: 15174.785576 0000 0000 0
E: 15174.792375 0003 002f 0
E: 15174.792376 0003 0035 637
E: 15174.792377 0003 0036 627
E: 15174.792377 0003 003a 59
E: 15174.792379 0003 002f 1
E: 15174.792379 0003 0036 1045
E: 15174.792380 0003 003a 56
E: 15174.792382 0003 0000 637
E: 15174.792382 0003 0001 627
E: 15174.792383 0003 0018 59
E: 15174.792383 0000 0000 0
E: 15174.799141 0003 002f 0
E: 15174.799142 0003 0035 638
E: 15174.799143 0003 0036 621
E: 15174.799143 0003 003a 55
E: 15174.799145 0003 002f 1
E: 15174.799145 0003 0035 424
E: 15174.799146 0003 0036 1039
E: 15174.799146 0003 003a 60
E: 15174.799147 0003 0030 286
E: 15174.799149 0003 0000 638
E: 15174.799149 0003 0001 621
E: 15174.799149 0003 0018 55
E: 15174.799150 0000 0000 0
E: 15174.805853 0003 002f 0
E: 15174.805853 0003 0036 615
E: 15174.805854 0003 003a 58
E: 15174.805856 0003 002f 1
E: 15174.805856 0003 0035 423
E: 15174.805856 0003 0036 1031
E: 15174.805857 0003 003a 61
E: 15174.805857 0003 0030 254
E: 15174.805859 0003 0001 615
E: 15174.805860 0003 0018 58
E: 15174.805860 0000 0000 0
E: 15174.812841 0003 002f 0
E: 15174.812843 0003 0035 640
E: 15174.812844 0003 0036 608
E: 15174.812844 0003 003a 57
E: 15174.812846 0003 002f 1
E: 15174.812847 0003 0035 424
E: 15174.812847 0003 0036 1024
E: 15174.812848 0003 003a 56
E: 15174.812848 0003 0030 220
E: 15174.812851 0003 0000 640
E: 15174.812852 0003 0001 608
E: 15174.812852 0003 0018 57
E: 15174.812853 0000 0000 0
E: 15174.819656 0003 002f 0
E: 15174.819658 0003 0036 603
E: 15174.819658 0003 003a 61
E: 15174.819660 0003 002f 1
E: 15174.819661 0003 0035 425
E: 15174.819661 0003 0036 1016
E: 15174.819662 0003 003a 61
E: 15174.819665 0003 0001 603
E: 15174.819666 0003 0018 61
E: 15174.819666 0000 0000 0
E: 15174.826459 0003 002f 0
E: 15174.826461 0003 0036 598
E: 15174.826461 0003 003a 60
E: 15174.826463 0003 002f 1
E: 15174.826464 0003 0035 426
E: 15174.826464 0003 0036 1009
E: 15174.826468 0003 0001 598
E: 15174.826469 0003 0018 60
E: 15174.826469 0000 0000 0
E: 15174.833284 0003 002f 0
E: 15174.833285 0003 0035 641
E: 15174.833286 0003 0036 593
E: 15174.833286 0003 003a 56
E: 15174.833288 0003 002f 1
E: 15174.833288 0003 0035 427
E: 15174.833289 0003 0036 1003
E: 15174.833289 0003 003a 57
E: 15174.833290 0003 0030 254
E: 15174.833293 0003 0000 641
E: 15174.833294 0003 0001 593
E: 15174.833294 0003 0018 56
E: 15174.833295 0000 0000 0
E: 15174.840134 0003 002f 0
E: 15174.840135 0003 0036 588
E: 15174.840136 0003 003a 62
E: 15174.840138 0003 002f 1
E: 15174.840138 0003 0036 998
E: 15174.840139 0003 003a 59
E: 15174.840142 0003 0001 588
E: 15174.840143 0003 0018 62
E: 15174.840144 0000 0000 0
E: 15174.846922 0003 002f 0
E: 15174.846924 0003 0036 584
E: 15174.846924 0003 003a 60
E: 15174.846926 0003 002f 1
E: 15174.846927 0003 0035 428
E: 15174.846927 0003 0036 992
E: 15174.846928 0003 003a 60
E: 15174.846931 0003 0001 584
E: 15174.846932 0003 0018 60
E: 15174.846933 0000 0000 0
E: 15174.853738 0003 002f 0
E: 15174.853739 0003 0035 642
E: 15174.853740 0003 0036 580
E: 15174.853740 0003 003a 54
E: 15174.853742 0003 002f 1
E: 15174.853742 0003 0035 427
E: 15174.853743 0003 0036 987
E: 15174.853746 0003 0000 642
E: 15174.853747 0003 0001 580
E: 15174.853747 0003 0018 54
E: 15174.853748 0000 0000 0
E: 15174.860485 0003 002f 0
E: 15174.860486 0003 0035 643
E: 15174.860486 0003 0036 575
E: 15174.860487 0003 003a 62
E: 15174.860489 0003 002f 1
E: 15174.860489 0003 0036 981
E: 15174.860490 0003 003a 56
E: 15174.860493 0003 0000 643
E: 15174.860493 0003 0001 575
E: 15174.860494 0003 0018 62
E: 15174.860494 0000 0000 0
E: 15174.867289 0003 002f 0
E: 15174.867290 0003 0035 644
E: 15174.867291 0003 0036 571
E: 15174.867291 0003 003a 57
E: 15174.867293 0003 002f 1
E: 15174.867293 0003 0035 426
E: 15174.867293 0003 0036 976
E: 15174.867294 0003 003a 59
E: 15174.867296 0003 0000 644
E: 15174.867297 0003 0001 571
E: 15174.867297 0003 0018 57
E: 15174.867298 0000 0000 0
E: 15174.874080 0003 002f 0
E: 15174.874081 0003 0035 645
E: 15174.874082 0003 0036 567
E: 15174.874082 0003 003a 59
E: 15174.874084 0003 002f 1
E: 15174.874084 0003 0036 970
E: 15174.874085 0003 003a 58
E: 15174.874087 0003 0000 645
E: 15174.874088 0003 0001 567
E: 15174.874088 0003 0018 59
E: 15174.874089 0000 0000 0
E: 15174.881065 0003 002f 0
E: 15174.881066 0003 0035 646
E: 15174.881067 0003 0036 561
E: 15174.881067 0003 003a 60
E: 15174.881070 0003 002f 1
E: 15174.881070 0003 0036 963
E: 15174.881071 0003 003a 61
E: 15174.881074 0003 0000 646
E: 15174.881074 0003 0001 561
E: 15174.881075 0003 0018 60
E: 15174.881075 0000 0000 0
E: 15174.887872 0003 002f 0
E: 15174.887874 0003 0035 647
E: 15174.887874 0003 0036 557
E: 15174.887875 0003 003a 64
E: 15174.887877 0003 002f 1
E: 15174.887877 0003 0035 427
E: 15174.887877 0003 0036 955
E: 15174.887878 0003 003a 60
E: 15174.887881 0003 0000 647
E: 15174.887882 0003 0001 557
E: 15174.887882 0003 0018 64
E: 15174.887883 0000 0000 0
E: 15174.894698 0003 002f 0
E: 15174.894699 0003 0036 553
E: 15174.894700 0003 003a 61
E: 15174.894700 0003 0030 220
E: 15174.894702 0003 002f 1
E: 15174.894703 0003 0036 947
E: 15174.894703 0003 003a 58
E: 15174.894707 0003 0001 553
E: 15174.894707 0003 0018 61
E: 15174.894708 0000 0000 0
E: 15174.901474 0003 002f 0
E: 15174.901475 0003 0035 649
E: 15174.901476 0003 0036 546
E: 15174.901476 0003 003a 62
E: 15174.901477 0003 0030 286
E: 15174.901479 0003 002f 1
E: 15174.901479 0003 0036 939
E: 15174.901480 0003 003a 62
E: 15174.901483 0003 0000 649
E: 15174.901484 0003 0001 546
E: 15174.901484 0003 0018 62
E: 15174.901485 0000 0000 0
E: 15174.908184 0003 002f 0
E: 15174.908185 0003 0035 650
E: 15174.908186 0003 0036 540
E: 15174.908186 0003 003a 57
E: 15174.908187 0003 0030 254
E: 15174.908189 0003 002f 1
E: 15174.908189 0003 0035 425
E: 15174.908190 0003 0036 931
E: 15174.908190 0003 003a 56
E: 15174.908193 0003 0000 650
E: 15174.908193 0003 0001 540
E: 15174.908194 0003 0018 57
E: 15174.908195 0000 0000 0
E: 15174.914931 0003 002f 0
E: 15174.914932 0003 0035 652
E: 15174.914932 0003 0036 532
E: 15174.914933 0003 003a 58
E: 15174.914935 0003 002f 1
E: 15174.914935 0003 0035 426
E: 15174.914936 0003 0036 922
E: 15174.914936 0003 003a 57
E: 15174.914940 0003 0000 652
E: 15174.914940 0003 0001 532
E: 15174.914941 0003 0018 58
E: 15174.914941 0000 0000 0
E: 15174.921684 0003 002f 0
E: 15174.921685 0003 0035 653
E: 15174.921686 0003 0036 522
E: 15174.921686 0003 003a 57
E: 15174.921688 0003 002f 1
E: 15174.921688 0003 0035 424
E: 15174.921688 0003 0036 911
E: 15174.921689 0003 003a 59
E: 15174.921691 0003 0000 653
E: 15174.921692 0003 0001 522
E: 15174.921692 0003 0018 57
E: 15174.921693 0000 0000 0
E: 15174.928662 0003 002f 0
E: 15174.928664 0003 0035 654
E: 15174.928664 0003 0036 513
E: 15174.928665 0003 003a 58
E: 15174.928667 0003 002f 1
E: 15174.928667 0003 0035 425
E: 15174.928668 0003 0036 900
E: 15174.928668 0003 003a 55
E: 15174.928669 0003 0030 220
E: 15174.928672 0003 0000 654
E: 15174.928673 0003 0001 513
E: 15174.928673 0003 0018 58
E: 15174.928674 0000 0000 0
E: 15174.935421 0003 002f 0
E: 15174.935422 0003 0035 655
E: 15174.935422 0003 0036 503
E: 15174.935423 0003 003a 60
E: 15174.935425 0003 002f 1
E: 15174.935425 0003 0036 886
E: 15174.935426 0003 003a 58
E: 15174.935426 0003 0030 254
E: 15174.935429 0003 0000 655
E: 15174.935430 0003 0001 503
E: 15174.935430 0003 0018 60
E: 15174.935431 0000 0000 0
E: 15174.942243 0003 002f 0
E: 15174.942243 0003 0035 657
E: 15174.942244 0003 0036 494
E: 15174.942244 0003 003a 56
E: 15174.942246 0003 002f 1
E: 15174.942246 0003 0035 424
E: 15174.942247 0003 0036 874
E: 15174.942247 0003 003a 56
E: 15174.942249 0003 0000 657
E: 15174.942250 0003 0001 494
E: 15174.942250 0003 0018 56
E: 15174.942251 0000 0000 0
E: 15174.949054 0003 002f 0
E: 15174.949055 0003 0036 488
E: 15174.949056 0003 003a 58
E: 15174.949057 0003 002f 1
E: 15174.949057 0003 0036 864
E: 15174.949058 0003 003a 57
E: 15174.949061 0003 0001 488
E: 15174.949061 0003 0018 58
E: 15174.949062 0000 0000 0
E: 15174.955971 0003 002f 0
E: 15174.955972 0003 0035 658
E: 15174.955972 0003 0036 483
E: 15174.955973 0003 003a 56
E: 15174.955974 0003 002f 1
E: 15174.955975 0003 0035 425
E: 15174.955975 0003 0036 855
E: 15174.955976 0003 003a 55
E: 15174.955978 0003 0000 658
E: 15174.955978 0003 0001 483
E: 15174.955979 0003 0018 56
E: 15174.955979 0000 0000 0
E: 15174.962787 0003 002f 0
E: 15174.962787 0003 0035 660
E: 15174.962788 0003 0036 475
E: 15174.962788 0003 003a 55
E: 15174.962790 0003 002f 1
E: 15174.962790 0003 0035 427
E: 15174.962791 0003 0036 847
E: 15174.962791 0003 003a 56
E: 15174.962793 0003 0000 660
E: 15174.962794 0003 0001 475
E: 15174.962794 0003 0018 55
E: 15174.962795 0000 0000 0
E: 15174.969590 0003 002f 0
E: 15174.969591 0003 0035 661
E: 15174.969592 0003 0036 468
E: 15174.969593 0003 002f 1
E: 15174.969593 0003 0035 429
E: 15174.969594 0003 0036 839
E: 15174.969594 0003 003a 53
E: 15174.969597 0003 0000 661
E: 15174.969597 0003 0001 468
E: 15174.969598 0000 0000 0
E: 15174.976471 0003 002f 0
E: 15174.976472 0003 0035 662
E: 15174.976472 0003 0036 462
E: 15174.976474 0003 002f 1
E: 15174.976474 0003 0035 431
E: 15174.976475 0003 0036 833
E: 15174.976475 0003 003a 56
E: 15174.976478 0003 0000 662
E: 15174.976478 0003 0001 462
E: 15174.976479 0000 0000 0
E: 15174.984589 0003 002f 0
E: 15174.984590 0003 0035 663
E: 15174.984590 0003 0036 457
E: 15174.984592 0003 002f 1
E: 15174.984593 0003 0036 826
E: 15174.984593 0003 003a 53
E: 15174.984596 0003 0000 663
E: 15174.984596 0003 0001 457
E: 15174.984597 0000 0000 0
E: 15174.991155 0003 002f 0
E: 15174.991156 0003 0035 664
E: 15174.991156 0003 0036 452
E: 15174.991157 0003 003a 58
E: 15174.991159 0003 002f 1
E: 15174.991159 0003 0036 821
E: 15174.991159 0003 003a 59
E: 15174.991162 0003 0000 664
E: 15174.991162 0003 0001 452
E: 15174.991163 0003 0018 58
E: 15174.991164 0000 0000 0
E: 15174.998031 0003 002f 0
E: 15174.998031 0003 0036 448
E: 15174.998032 0003 003a 53
E: 15174.998033 0003 002f 1
E: 15174.998034 0003 0035 432
E: 15174.998034 0003 0036 817
E: 15174.998035 0003 003a 57
E: 15174.998037 0003 0001 448
E: 15174.998038 0003 0018 53
E: 15174.998038 0000 0000 0
E: 15175.005034 0003 002f 0
E: 15175.005035 0003 0035 665
E: 15175.005036 0003 0036 444
E: 15175.005037 0003 003a 52
E: 15175.005039 0003 002f 1
E: 15175.005039 0003 0036 813
E: 15175.005039 0003 003a 55
E: 15175.005043 0003 0000 665
E: 15175.005043 0003 0001 444
E: 15175.005044 0003 0018 52
E: 15175.005045 0000 0000 0
E: 15175.011865 0003 002f 0
E: 15175.011867 0003 0035 666
E: 15175.011867 0003 0036 441
E: 15175.011868 0003 003a 51
E: 15175.011870 0003 002f 1
E: 15175.011870 0003 0035 433
E: 15175.011871 0003 0036 809
E: 15175.011871 0003 003a 53
E: 15175.011874 0003 0000 666
E: 15175.011875 0003 0001 441
E: 15175.011875 0003 0018 51
E: 15175.011876 0000 0000 0
E: 15175.018734 0003 002f 0
E: 15175.018735 0003 0035 667
E: 15175.018736 0003 0036 439
E: 15175.018737 0003 003a 46
E: 15175.018739 0003 002f 1
E: 15175.018739 0003 0036 807
E: 15175.018740 0003 003a 47
E: 15175.018743 0003 0000 667
E: 15175.018743 0003 0001 439
E: 15175.018744 0003 0018 46
E: 15175.018745 0000 0000 0
E: 15175.025612 0003 002f 0
E: 15175.025614 0003 0036 437
E: 15175.025614 0003 003a 43
E: 15175.025616 0003 002f 1
E: 15175.025617 0003 0035 434
E: 15175.025617 0003 0036 804
E: 15175.025618 0003 003a 48
E: 15175.025622 0003 0001 437
E: 15175.025622 0003 0018 43
E: 15175.025623 0000 0000 0
E: 15175.032514 0003 002f 0
E: 15175.032516 0003 0036 436
E: 15175.032516 0003 003a 40
E: 15175.032518 0003 002f 1
E: 15175.032519 0003 0036 802
E: 15175.032519 0003 003a 46
E: 15175.032522 0003 0001 436
E: 15175.032523 0003 0018 40
E: 15175.032524 0000 0000 0
E: 15175.039392 0003 002f 0
E: 15175.039392 0003 0036 435
E: 15175.039393 0003 003a 33
E: 15175.039393 0003 0030 220
E: 15175.039395 0003 002f 1
E: 15175.039395 0003 0035 435
E: 15175.039396 0003 0036 801
E: 15175.039396 0003 003a 38
E: 15175.039397 0003 0030 220
E: 15175.039399 0003 0001 435
E: 15175.039400 0003 0018 33
E: 15175.039400 0000 0000 0
E: 15175.046319 0003 002f 0
E: 15175.046320 0003 0036 434
E: 15175.046321 0003 003a 25
E: 15175.046322 0003 0030 180
E: 15175.046323 0003 002f 1
E: 15175.046324 0003 0036 800
E: 15175.046324 0003 003a 33
E: 15175.046325 0003 0030 180
E: 15175.046328 0003 0001 434
E: 15175.046328 0003 0018 25
E: 15175.046329 0000 0000 0
E: 15175.067037 0003 002f 0
E: 15175.067039 0003 0039 -1
E: 15175.067040 0003 002f 1
E: 15175.067040 0003 0039 -1
E: 15175.067042 0001 014a 0
E: 15175.067043 0001 014d 0
E: 15175.067045 0003 0018 0
E: 15175.067045 0000 0000 0
E: 15175.067545 0003 002f 0
E: 15175.067545 0003 0039 -1
E: 15175.067545 0003 002f 1
E: 15175.067545 0003 0039 -1
E: 15175.067545 0003 002f 2
E: 15175.067545 0003 0039 -1
E: 15175.067545 0003 002f 3
E: 15175.067545 0003 0039 -1
E: 15175.067545 0003 002f 4
E: 15175.067545 0003 0039 -1
E: 15175.067545 0003 002f 5
E: 15175.067545 0003 0039 -1
E: 15175.067545 0003 002f 6
E: 15175.067545 0003 0039 -1
E: 15175.067545 0003 002f 7
E: 15175.067545 0003 0039 -1
E: 15175.067545 0003 002f 8
E: 15175.067545 0003 0039 -1
E: 15175.067545 0003 002f 9
E: 15175.067545 0003 0039 -1
