#sessionInfo releaseName unknown
#sessionInfo releaseId 0xcafebabe
#sessionInfo targetName "Surfaceless"
#beginSession

#beginTestCaseResult dEQP-GLES2.info.vendor
<?xml version="1.0" encoding="UTF-8"?>
<TestCaseResult Version="0.3.4" CasePath="dEQP-GLES2.info.vendor" CaseType="SelfValidate">
 <Text>Intel Open Source Technology Center</Text>
 <Number Name="TestDuration" Description="Test case duration in microseconds" Tag="Time" Unit="us">29021853</Number>
 <Result StatusCode="Pass">Pass</Result>
</TestCaseResult>

#endTestCaseResult

#beginTestCaseResult dEQP-GLES2.functional.prerequisite.clear_color
<?xml version="1.0" encoding="UTF-8"?>
<TestCaseResult Version="0.3.4" CasePath="dEQP-GLES2.functional.prerequisite.clear_color" CaseType="SelfValidate