E: 4442.082064 0003 002f 0
E: 4442.082064 0003 0039 -1
E: 4442.082064 0003 002f 1
E: 4442.082064 0003 0039 -1
E: 4442.082064 0003 002f 2
E: 4442.082064 0003 0039 -1
E: 4442.082064 0003 002f 3
E: 4442.082064 0003 0039 -1
E: 4442.082064 0003 002f 4
E: 4442.082064 0003 0039 -1
E: 4442.082064 0003 002f 5
E: 4442.082064 0003 0039 -1
E: 4442.082064 0003 002f 6
E: 4442.082064 0003 0039 -1
E: 4442.082064 0003 002f 7
E: 4442.082064 0003 0039 -1
E: 4442.082064 0003 002f 8
E: 4442.082064 0003 0039 -1
E: 4442.082064 0003 002f 9
E: 4442.082064 0003 0039 -1
E: 4442.082064 0003 002f 10
E: 4442.082064 0003 0039 -1
E: 4442.082064 0003 002f 11
E: 4442.082064 0003 0039 -1
E: 4442.082064 0003 002f 12
E: 4442.082064 0003 0039 -1
E: 4442.082064 0003 002f 13
E: 4442.082064 0003 0039 -1
E: 4442.082064 0003 002f 14
E: 4442.082064 0003 0039 -1
E: 4442.082064 0003 002f 1
E: 4442.082064 0000 0000 0
E: 4442.228041 0003 002f 0
E: 4442.228051 0003 0039 165
E: 4442.228072 0003 0035 851
E: 4442.228086 0003 0036 326
E: 4442.228098 0003 003a 51
E: 4442.228274 0001 014a 1
E: 4442.228284 0001 0145 1
E: 4442.228310 0003 0000 851
E: 4442.228322 0003 0001 326
E: 4442.228335 0003 0018 51
E: 4442.228351 0000 0000 0
E: 4442.239285 0003 0035 852
E: 4442.239288 0003 0036 320
E: 4442.239291 0003 003a 54
E: 4442.239294 0003 002f 1
E: 4442.239295 0003 0039 166
E: 4442.239298 0003 0035 897
E: 4442.239300 0003 0036 433
E: 4442.239302 0003 003a 60
E: 4442.239323 0001 0145 0
E: 4442.239325 0001 014d 1
E: 4442.239328 0003 0000 852
E: 4442.239330 0003 0001 320
E: 4442.239332 0003 0018 54
E: 4442.239335 0000 0000 0
E: 4442.251288 0003 002f 0
E: 4442.251289 0003 0035 858
E: 4442.251291 0003 0036 324
E: 4442.251293 0003 003a 52
E: 4442.251298 0003 002f 1
E: 4442.251299 0003 0035 916
E: 4442.251301 0003 0036 492
E: 4442.251303 0003 003a 53
E: 4442.251326 0003 0000 858
E: 4442.251328 0003 0001 324
E: 4442.251330 0003 0018 52
E: 4442.251333 0000 0000 0
E: 4442.263387 0003 002f 0
E: 4442.263388 0003 0035 863
E: 4442.263391 0003 0036 327
E: 4442.263393 0003 003a 50
E: 4442.263397 0003 002f 1
E: 4442.263398 0003 0035 920
E: 4442.263400 0003 0036 498
E: 4442.263402 0003 003a 60
E: 4442.263425 0003 0000 863
E: 4442.263427 0003 0001 327
E: 4442.263429 0003 0018 50
E: 4442.263431 0001 0110 1
E: 4442.263433 0000 0000 0
E: 4442.275544 0003 002f 0
E: 4442.275547 0003 0035 866
E: 4442.275549 0003 0036 330
E: 4442.275551 0003 003a 47
E: 4442.275555 0003 002f 1
E: 4442.275557 0003 0035 921
E: 4442.275559 0003 0036 500
E: 4442.275561 0003 003a 63
E: 4442.275585 0003 0000 866
E: 4442.275587 0003 0001 330
E: 4442.275589 0003 0018 47
E: 4442.275592 0000 0000 0
E: 4442.287729 0003 002f 0
E: 4442.287734 0003 003a 46
E: 4442.287740 0003 002f 1
E: 4442.287741 0003 0036 502
E: 4442.287787 0003 0018 46
E: 4442.287791 0000 0000 0
E: 4442.299762 0003 002f 0
E: 4442.299765 0003 0035 864
E: 4442.299767 0003 0036 328
E: 4442.299769 0003 003a 48
E: 4442.299774 0003 002f 1
E: 4442.299775 0003 0035 919
E: 4442.299777 0003 0036 501
E: 4442.299802 0003 0000 864
E: 4442.299804 0003 0001 328
E: 4442.299806 0003 0018 48
E: 4442.299809 0000 0000 0
E: 4442.311815 0003 002f 0
E: 4442.311817 0003 0035 859
E: 4442.311819 0003 0036 325
E: 4442.311821 0003 003a 51
E: 4442.311826 0003 002f 1
E: 4442.311827 0003 0035 897
E: 4442.311829 0003 0036 440
E: 4442.311854 0003 0000 859
E: 4442.311856 0003 0001 325
E: 4442.311858 0003 0018 51
E: 4442.311861 0000 0000 0
E: 4442.323700 0003 002f 0
E: 4442.323702 0003 0035 852
E: 4442.323704 0003 0036 322
E: 4442.323710 0003 002f 1
E: 4442.323711 0003 0035 894
E: 4442.323713 0003 0036 439
E: 4442.323738 0003 0000 852
E: 4442.323741 0003 0001 322
E: 4442.323744 0000 0000 0
E: 4442.335593 0003 002f 0
E: 4442.335596 0003 0035 845
E: 4442.335598 0003 0036 320
E: 4442.335601 0003 003a 52
E: 4442.335607 0003 002f 1
E: 4442.335609 0003 0035 887
E: 4442.335612 0003 0036 431
E: 4442.335615 0003 003a 56
E: 4442.335652 0003 0000 845
E: 4442.335655 0003 0001 320
E: 4442.335659 0003 0018 52
E: 4442.335662 0000 0000 0
E: 4442.345527 0003 002f 0
E: 4442.345529 0003 0035 855
E: 4442.345532 0003 0036 352
E: 4442.345536 0003 002f 1
E: 4442.345537 0003 0039 -1
E: 4442.345559 0001 0145 1
E: 4442.345561 0001 014d 0
E: 4442.345564 0003 0000 855
E: 4442.345566 0003 0001 352
E: 4442.345569 0000 0000 0
E: 4442.355274 0003 002f 0
E: 4442.355276 0003 0035 853
E: 4442.355278 0003 0036 350
E: 4442.355305 0003 0000 853
E: 4442.355307 0003 0001 350
E: 4442.355311 0000 0000 0
E: 4442.364920 0003 0036 349
E: 4442.364923 0003 003a 53
E: 4442.364957 0003 0001 349
E: 4442.364959 0003 0018 53
E: 4442.364962 0000 0000 0
E: 4442.374608 0003 0036 348
E: 4442.374611 0003 003a 52
E: 4442.374637 0003 0001 348
E: 4442.374639 0003 0018 52
E: 4442.374641 0001 0110 0
E: 4442.374643 0000 0000 0
E: 4442.384318 0003 0035 857
E: 4442.384322 0003 0036 349
E: 4442.384324 0003 003a 45
E: 4442.384349 0003 0000 857
E: 4442.384351 0003 0001 349
E: 4442.384353 0003 0018 45
E: 4442.384356 0000 0000 0
E: 4442.392597 0003 0039 -1
E: 4442.392620 0001 014a 0
E: 4442.392622 0001 0145 0
E: 4442.392625 0003 0018 0
E: 4442.392627 0000 0000 0
E: 4442.393127 0003 002f 0
E: 4442.393127 0003 0039 -1
E: 4442.393127 0003 002f 1
E: 4442.393127 0003 0039 -1
E: 4442.393127 0003 002f 2
E: 4442.393127 0003 0039 -1
E: 4442.393127 0003 002f 3
E: 4442.393127 0003 0039 -1
E: 4442.393127 0003 002f 4
E: 4442.393127 0003 0039 -1
E: 4442.393127 0003 002f 5
E: 4442.393127 0003 0039 -1
E: 4442.393127 0003 002f 6
E: 4442.393127 0003 0039 -1
E: 4442.393127 0003 002f 7
E: 4442.393127 0003 0039 -1
E: 4442.393127 0003 002f 8
E: 4442.393127 0003 0039 -1
E: 4442.393127 0003 002f 9
E: 4442.393127 0003 0039 -1
E: 4442.393127 0003 002f 10
E: 4442.393127 0003 0039 -1
E: 4442.393127 0003 002f 11
E: 4442.393127 0003 0039 -1
E: 4442.393127 0003 002f 12
E: 4442.393127 0003 0039 -1
E: 4442.393127 0003 002f 13
E: 4442.393127 0003 0039 -1
E: 4442.393127 0003 002f 14
E: 4442.393127 0003 0039 -1
