# device: Elan Touchpad
# bit: 0B 00 00 00 00 00 00 00
# key: 00 00 00 00 00 00 00 00 00 00 00 00 00 00 00 00 00 00 00 00 00 00 00 00 00 00 00 00 00 00 00 00 00 00 01 00 00 00 00 00 20 E5 00 00 00 00 00 00 00 00 00 00 00 00 00 00 00 00 00 00 00 00 00 00 00 00 00 00 00 00 00 00 00 00 00 00 00 00 00 00 00 00 00 00 00 00 00 00 00 00 00 00 00 00 00 00
# rel: 00 00 00 00 00 00 00 00
# abs: 03 00 00 11 00 80 63 06
# led: 00 00 00 00 00 00 00 00
# prp: 05 00 00 00 00 00 00 00
# absinfo: 0 0 3207 0 0 31
# absinfo: 1 0 1840 0 0 31
# absinfo: 24 0 255 0 0 0
# absinfo: 28 0 15 0 0 0
# absinfo: 47 0 4 0 0 0
# absinfo: 48 0 2505 0 0 0
# absinfo: 49 0 2400 0 0 0
# absinfo: 53 0 3207 0 0 31
# absinfo: 54 0 1840 0 0 31
# absinfo: 57 0 65535 0 0 0
# absinfo: 58 0 255 0 0 0
E: 6796.388394 0003 002f 0
E: 6796.388394 0003 0030 308
E: 6796.388394 0003 0031 280
E: 6796.388394 0003 0032 0
E: 6796.388394 0003 0033 0
E: 6796.388394 0003 0034 0
E: 6796.388394 0003 0035 1248
E: 6796.388394 0003 0036 418
E: 6796.388394 0003 0037 0
E: 6796.388394 0003 0038 0
E: 6796.388394 0003 0039 60
E: 6796.388394 0003 003a 59
E: 6796.388394 0003 003b 0
E: 6796.388394 0003 002f 1
E: 6796.388394 0003 0030 231
E: 6796.388394 0003 0031 210
E: 6796.388394 0003 0032 0
E: 6796.388394 0003 0033 0
E: 6796.388394 0003 0034 0
E: 6796.388394 0003 0035 1840
E: 6796.388394 0003 0036 353
E: 6796.388394 0003 0037 0
E: 6796.388394 0003 0038 0
E: 6796.388394 0003 0039 61
E: 6796.388394 0003 003a 54
E: 6796.388394 0003 003b 0
E: 6796.388394 0003 002f 2
E: 6796.388394 0003 0039 -1
E: 6796.388394 0003 002f 3
E: 6796.388394 0003 0039 -1
E: 6796.388394 0003 002f 4
E: 6796.388394 0003 0039 -1
E: 6796.388394 0003 002f 1
E: 6796.388394 0001 014a 1
E: 6796.388394 0001 014d 1
E: 6796.388394 0000 0000 0
E: 6796.392442 0003 002f 0
E: 6796.392442 0003 0035 1245
E: 6796.392442 0003 0036 428
E: 6796.392442 0003 001c 4
E: 6796.392442 0003 002f 1
E: 6796.392442 0003 0036 357
E: 6796.392442 0003 003a 53
E: 6796.392442 0003 001c 3
E: 6796.392442 0003 0000 1245
E: 6796.392442 0003 0001 428
E: 6796.392442 0000 0000 0
E: 6796.400798 0003 002f 0
E: 6796.400798 0003 0035 1239
E: 6796.400798 0003 0036 451
E: 6796.400798 0003 003a 57
E: 6796.400798 0003 0031 210
E: 6796.400798 0003 002f 1
E: 6796.400798 0003 0035 1839
E: 6796.400798 0003 0036 366
E: 6796.400798 0003 003a 52
E: 6796.400798 0003 0000 1239
E: 6796.400798 0003 0001 451
E: 6796.400798 0003 0018 57
E: 6796.400798 0000 0000 0
E: 6796.410689 0003 002f 0
E: 6796.410689 0003 0035 1233
E: 6796.410689 0003 0036 480
E: 6796.410689 0003 003a 56
E: 6796.410689 0003 0030 231
E: 6796.410689 0003 002f 1
E: 6796.410689 0003 0035 1837
E: 6796.410689 0003 0036 382
E: 6796.410689 0003 003a 51
E: 6796.410689 0003 0000 1233
E: 6796.410689 0003 0001 480
E: 6796.410689 0003 0018 56
E: 6796.410689 0000 0000 0
E: 6796.420548 0003 002f 0
E: 6796.420548 0003 0035 1226
E: 6796.420548 0003 0036 526
E: 6796.420548 0003 003a 54
E: 6796.420548 0003 001c 2
E: 6796.420548 0003 0031 140
E: 6796.420548 0003 002f 1
E: 6796.420548 0003 0035 1834
E: 6796.420548 0003 0036 420
E: 6796.420548 0003 003a 50
E: 6796.420548 0003 001c 3
E: 6796.420548 0003 0000 1226
E: 6796.420548 0003 0001 526
E: 6796.420548 0003 0018 54
E: 6796.420548 0000 0000 0
E: 6796.430478 0003 002f 0
E: 6796.430478 0003 0035 1217
E: 6796.430478 0003 0036 638
E: 6796.430478 0003 003a 53
E: 6796.430478 0003 001c 2
E: 6796.430478 0003 002f 1
E: 6796.430478 0003 0035 1826
E: 6796.430478 0003 0036 520
E: 6796.430478 0003 003a 49
E: 6796.430478 0003 001c 3
E: 6796.430478 0003 0000 1217
E: 6796.430478 0003 0001 638
E: 6796.430478 0003 0018 53
E: 6796.430478 0000 0000 0
E: 6796.440371 0003 002f 0
E: 6796.440371 0003 0035 1211
E: 6796.440371 0003 0036 757
E: 6796.440371 0003 001c 2
E: 6796.440371 0003 002f 1
E: 6796.440371 0003 0035 1809
E: 6796.440371 0003 0036 665
E: 6796.440371 0003 001c 3
E: 6796.440371 0003 0000 1211
E: 6796.440371 0003 0001 757
E: 6796.440371 0000 0000 0
E: 6796.450259 0003 002f 0
E: 6796.450259 0003 0035 1207
E: 6796.450259 0003 0036 870
E: 6796.450259 0003 003a 52
E: 6796.450259 0003 001c 2
E: 6796.450259 0003 0030 154
E: 6796.450259 0003 002f 1
E: 6796.450259 0003 0035 1794
E: 6796.450259 0003 0036 779
E: 6796.450259 0003 003a 48
E: 6796.450259 0003 001c 3
E: 6796.450259 0003 0000 1207
E: 6796.450259 0003 0001 870
E: 6796.450259 0003 0018 52
E: 6796.450259 0000 0000 0
E: 6796.460185 0003 002f 0
E: 6796.460185 0003 0035 1205
E: 6796.460185 0003 0036 983
E: 6796.460185 0003 003a 50
E: 6796.460185 0003 001c 2
E: 6796.460185 0003 0030 231
E: 6796.460185 0003 002f 1
E: 6796.460185 0003 0035 1786
E: 6796.460185 0003 0036 908
E: 6796.460185 0003 003a 47
E: 6796.460185 0003 001c 3
E: 6796.460185 0003 0030 210
E: 6796.460185 0003 0031 154
E: 6796.460185 0003 0000 1205
E: 6796.460185 0003 0001 983
E: 6796.460185 0003 0018 50
E: 6796.460185 0000 0000 0
E: 6796.470070 0003 002f 0
E: 6796.470070 0003 0035 1202
E: 6796.470070 0003 0036 1088
E: 6796.470070 0003 003a 49
E: 6796.470070 0003 001c 2
E: 6796.470070 0003 002f 1
E: 6796.470070 0003 0035 1788
E: 6796.470070 0003 0036 1038
E: 6796.470070 0003 001c 3
E: 6796.470070 0003 0000 1202
E: 6796.470070 0003 0001 1088
E: 6796.470070 0003 0018 49
E: 6796.470070 0000 0000 0
E: 6796.479916 0003 002f 0
E: 6796.479916 0003 0035 1201
E: 6796.479916 0003 0036 1210
E: 6796.479916 0003 001c 2
E: 6796.479916 0003 002f 1
E: 6796.479916 0003 0035 1790
E: 6796.479916 0003 0036 1195
E: 6796.479916 0003 001c 3
E: 6796.479916 0003 0000 1201
E: 6796.479916 0003 0001 1210
E: 6796.479916 0000 0000 0
E: 6796.489798 0003 002f 0
E: 6796.489798 0003 0035 1200
E: 6796.489798 0003 0036 1330
E: 6796.489798 0003 003a 48
E: 6796.489798 0003 001c 2
E: 6796.489798 0003 0030 154
E: 6796.489798 0003 002f 1
E: 6796.489798 0003 0035 1791
E: 6796.489798 0003 0036 1333
E: 6796.489798 0003 001c 3
E: 6796.489798 0003 0000 1200
E: 6796.489798 0003 0001 1330
E: 6796.489798 0003 0018 48
E: 6796.489798 0000 0000 0
E: 6796.499689 0003 002f 0
E: 6796.499689 0003 0036 1471
E: 6796.499689 0003 003a 47
E: 6796.499689 0003 001c 2
E: 6796.499689 0003 002f 1
E: 6796.499689 0003 0035 1787
E: 6796.499689 0003 0036 1474
E: 6796.499689 0003 003a 46
E: 6796.499689 0003 001c 3
E: 6796.499689 0003 0001 1471
E: 6796.499689 0003 0018 47
E: 6796.499689 0000 0000 0
E: 6796.509580 0003 002f 0
E: 6796.509580 0003 0035 1203
E: 6796.509580 0003 0036 1609
E: 6796.509580 0003 001c 2
E: 6796.509580 0003 0030 231
E: 6796.509580 0003 002f 1
E: 6796.509580 0003 0035 1777
E: 6796.509580 0003 0036 1594
E: 6796.509580 0003 003a 44
E: 6796.509580 0003 001c 3
E: 6796.509580 0003 0030 231
E: 6796.509580 0003 0031 210
E: 6796.509580 0003 0000 1203
E: 6796.509580 0003 0001 1609
E: 6796.509580 0000 0000 0
E: 6796.519464 0003 001c 1
E: 6796.519464 0003 002f 0
E: 6796.519464 0003 0030 77
E: 6796.519464 0003 0031 70
E: 6796.519464 0003 002f 1
E: 6796.519464 0003 003a 43
E: 6796.519464 0003 001c 2
E: 6796.519464 0003 0030 154
E: 6796.519464 0003 0031 140
E: 6796.519464 0000 0000 0
E: 6796.529333 0003 001c 1
E: 6796.529333 0003 0030 77
E: 6796.529333 0003 0031 70
E: 6796.529333 0000 0000 0
E: 6796.539170 0003 002f 0
E: 6796.539170 0003 0039 -1
E: 6796.539170 0003 002f 1
E: 6796.539170 0003 0039 -1
E: 6796.539170 0001 014a 0
E: 6796.539170 0001 014d 0
E: 6796.539170 0003 0018 0
E: 6796.539170 0000 0000 0
E: 6796.796799 0003 002f 0
E: 6796.796799 0003 0039 62
E: 6796.796799 0003 0035 1265
E: 6796.796799 0003 0036 493
E: 6796.796799 0003 003a 56
E: 6796.796799 0003 001c 4
E: 6796.796799 0003 0030 280
E: 6796.796799 0003 0031 231
E: 6796.796799 0003 002f 1
E: 6796.796799 0003 0039 63
E: 6796.796799 0003 0035 1842
E: 6796.796799 0003 0036 482
E: 6796.796799 0003 003a 55
E: 6796.796799 0003 0030 280
E: 6796.796799 0003 0031 231
E: 6796.796799 0001 014a 1
E: 6796.796799 0001 014d 1
E: 6796.796799 0003 0000 1265
E: 6796.796799 0003 0001 493
E: 6796.796799 0003 0018 56
E: 6796.796799 0000 0000 0
E: 6796.816082 0003 003a 54
E: 6796.816082 0000 0000 0
E: 6796.825975 0003 002f 0
E: 6796.825975 0003 003a 57
E: 6796.825975 0003 002f 1
E: 6796.825975 0003 003a 53
E: 6796.825975 0003 0018 57
E: 6796.825975 0000 0000 0
E: 6796.835852 0003 002f 0
E: 6796.835852 0003 003a 58
E: 6796.835852 0003 002f 1
E: 6796.835852 0003 003a 54
E: 6796.835852 0003 0018 58
E: 6796.835852 0000 0000 0
E: 6796.845760 0003 003a 53
E: 6796.845760 0000 0000 0
E: 6796.855672 0003 003a 54
E: 6796.855672 0000 0000 0
E: 6796.865523 0003 003a 53
E: 6796.865523 0000 0000 0
E: 6796.875404 0003 003a 54
E: 6796.875404 0000 0000 0
E: 6796.885311 0003 003a 53
E: 6796.885311 0000 0000 0
E: 6796.895178 0003 002f 0
E: 6796.895178 0003 003a 59
E: 6796.895178 0003 002f 1
E: 6796.895178 0003 003a 54
E: 6796.895178 0003 0018 59
E: 6796.895178 0000 0000 0
E: 6796.905080 0003 002f 0
E: 6796.905080 0003 003a 60
E: 6796.905080 0003 0018 60
E: 6796.905080 0000 0000 0
E: 6797.162175 0003 002f 1
E: 6797.162175 0003 0035 1843
E: 6797.162175 0003 0036 483
E: 6797.162175 0000 0000 0
E: 6797.172049 0003 0035 1844
E: 6797.172049 0003 0036 484
E: 6797.172049 0000 0000 0
E: 6797.201718 0003 0036 485
E: 6797.201718 0000 0000 0
E: 6797.231387 0003 0035 1845
E: 6797.231387 0003 0036 486
E: 6797.231387 0000 0000 0
E: 6797.468690 0003 002f 0
E: 6797.468690 0003 0035 1266
E: 6797.468690 0003 0036 496
E: 6797.468690 0003 0000 1266
E: 6797.468690 0003 0001 496
E: 6797.468690 0000 0000 0
E: 6797.478586 0003 0035 1267
E: 6797.478586 0003 0036 499
E: 6797.478586 0003 0000 1267
E: 6797.478586 0003 0001 499
E: 6797.478586 0000 0000 0
E: 6797.488458 0003 0036 501
E: 6797.488458 0003 0001 501
E: 6797.488458 0000 0000 0
E: 6797.498360 0003 0035 1268
E: 6797.498360 0003 0036 503
E: 6797.498360 0003 0000 1268
E: 6797.498360 0003 0001 503
E: 6797.498360 0000 0000 0
E: 6797.508256 0003 0036 504
E: 6797.508256 0003 0001 504
E: 6797.508256 0000 0000 0
E: 6797.518145 0003 0036 505
E: 6797.518145 0003 0001 505
E: 6797.518145 0000 0000 0
E: 6797.528049 0003 0036 506
E: 6797.528049 0003 0001 506
E: 6797.528049 0000 0000 0
E: 6797.557440 0003 0036 507
E: 6797.557440 0003 0001 507
E: 6797.557440 0000 0000 0
E: 6797.567579 0003 0036 508
E: 6797.567579 0003 002f 1
E: 6797.567579 0003 0036 487
E: 6797.567579 0003 0001 508
E: 6797.567579 0000 0000 0
E: 6797.587339 0003 0036 488
E: 6797.587339 0000 0000 0
E: 6797.607118 0003 002f 0
E: 6797.607118 0003 0036 509
E: 6797.607118 0003 0001 509
E: 6797.607118 0000 0000 0
E: 6797.696108 0003 002f 1
E: 6797.696108 0003 0036 489
E: 6797.696108 0000 0000 0
E: 6797.706053 0003 002f 0
E: 6797.706053 0003 0036 510
E: 6797.706053 0003 002f 1
E: 6797.706053 0003 0036 490
E: 6797.706053 0003 0001 510
E: 6797.706053 0000 0000 0
E: 6797.715886 0003 002f 0
E: 6797.715886 0003 0036 511
E: 6797.715886 0003 0001 511
E: 6797.715886 0000 0000 0
E: 6797.725786 0003 0035 1269
E: 6797.725786 0003 002f 1
E: 6797.725786 0003 0036 491
E: 6797.725786 0003 0000 1269
E: 6797.725786 0000 0000 0
E: 6797.735669 0003 002f 0
E: 6797.735669 0003 0036 512
E: 6797.735669 0003 0001 512
E: 6797.735669 0000 0000 0
E: 6797.745583 0003 002f 1
E: 6797.745583 0003 0036 492
E: 6797.745583 0000 0000 0
E: 6797.755432 0003 002f 0
E: 6797.755432 0003 0036 513
E: 6797.755432 0003 003a 59
E: 6797.755432 0003 0001 513
E: 6797.755432 0003 0018 59
E: 6797.755432 0000 0000 0
E: 6797.765329 0003 0036 514
E: 6797.765329 0003 002f 1
E: 6797.765329 0003 0036 493
E: 6797.765329 0003 0001 514
E: 6797.765329 0000 0000 0
E: 6797.775223 0003 0036 494
E: 6797.775223 0000 0000 0
E: 6797.785113 0003 002f 0
E: 6797.785113 0003 0036 515
E: 6797.785113 0003 002f 1
E: 6797.785113 0003 0036 495
E: 6797.785113 0003 0001 515
E: 6797.785113 0000 0000 0
E: 6797.795050 0003 002f 0
E: 6797.795050 0003 0036 516
E: 6797.795050 0003 002f 1
E: 6797.795050 0003 0036 496
E: 6797.795050 0003 0001 516
E: 6797.795050 0000 0000 0
E: 6797.804881 0003 002f 0
E: 6797.804881 0003 0036 517
E: 6797.804881 0003 002f 1
E: 6797.804881 0003 0036 497
E: 6797.804881 0003 0001 517
E: 6797.804881 0000 0000 0
E: 6797.814767 0003 002f 0
E: 6797.814767 0003 0036 518
E: 6797.814767 0003 002f 1
E: 6797.814767 0003 0036 498
E: 6797.814767 0003 003a 53
E: 6797.814767 0003 0001 518
E: 6797.814767 0000 0000 0
E: 6797.824678 0003 002f 0
E: 6797.824678 0003 0036 520
E: 6797.824678 0003 002f 1
E: 6797.824678 0003 0035 1846
E: 6797.824678 0003 0036 500
E: 6797.824678 0003 0001 520
E: 6797.824678 0000 0000 0
E: 6797.834558 0003 002f 0
E: 6797.834558 0003 0036 522
E: 6797.834558 0003 003a 58
E: 6797.834558 0003 002f 1
E: 6797.834558 0003 0035 1847
E: 6797.834558 0003 0036 502
E: 6797.834558 0003 0001 522
E: 6797.834558 0003 0018 58
E: 6797.834558 0000 0000 0
E: 6797.844448 0003 002f 0
E: 6797.844448 0003 0035 1270
E: 6797.844448 0003 0036 524
E: 6797.844448 0003 003a 56
E: 6797.844448 0003 001c 3
E: 6797.844448 0003 0030 231
E: 6797.844448 0003 0031 210
E: 6797.844448 0003 002f 1
E: 6797.844448 0003 0035 1848
E: 6797.844448 0003 0036 504
E: 6797.844448 0003 003a 52
E: 6797.844448 0003 0030 231
E: 6797.844448 0003 0031 210
E: 6797.844448 0003 0000 1270
E: 6797.844448 0003 0001 524
E: 6797.844448 0003 0018 56
E: 6797.844448 0000 0000 0
E: 6797.854326 0003 002f 0
E: 6797.854326 0003 0035 1271
E: 6797.854326 0003 0036 527
E: 6797.854326 0003 003a 55
E: 6797.854326 0003 002f 1
E: 6797.854326 0003 0035 1849
E: 6797.854326 0003 0036 506
E: 6797.854326 0003 003a 51
E: 6797.854326 0003 0000 1271
E: 6797.854326 0003 0001 527
E: 6797.854326 0003 0018 55
E: 6797.854326 0000 0000 0
E: 6797.864209 0003 002f 0
E: 6797.864209 0003 0035 1270
E: 6797.864209 0003 0036 532
E: 6797.864209 0003 002f 1
E: 6797.864209 0003 0035 1850
E: 6797.864209 0003 0036 509
E: 6797.864209 0003 003a 50
E: 6797.864209 0003 0000 1270
E: 6797.864209 0003 0001 532
E: 6797.864209 0000 0000 0
E: 6797.874095 0003 002f 0
E: 6797.874095 0003 0036 539
E: 6797.874095 0003 003a 54
E: 6797.874095 0003 002f 1
E: 6797.874095 0003 0036 515
E: 6797.874095 0003 003a 49
E: 6797.874095 0003 001c 2
E: 6797.874095 0003 0031 140
E: 6797.874095 0003 0001 539
E: 6797.874095 0003 0018 54
E: 6797.874095 0000 0000 0
E: 6797.883995 0003 002f 0
E: 6797.883995 0003 0036 550
E: 6797.883995 0003 003a 53
E: 6797.883995 0003 001c 3
E: 6797.883995 0003 002f 1
E: 6797.883995 0003 0035 1849
E: 6797.883995 0003 0036 525
E: 6797.883995 0003 001c 2
E: 6797.883995 0003 0001 550
E: 6797.883995 0003 0018 53
E: 6797.883995 0000 0000 0
E: 6797.893875 0003 002f 0
E: 6797.893875 0003 0035 1269
E: 6797.893875 0003 0036 564
E: 6797.893875 0003 001c 3
E: 6797.893875 0003 002f 1
E: 6797.893875 0003 0036 545
E: 6797.893875 0003 001c 2
E: 6797.893875 0003 0000 1269
E: 6797.893875 0003 0001 564
E: 6797.893875 0000 0000 0
E: 6797.903784 0003 002f 0
E: 6797.903784 0003 0035 1268
E: 6797.903784 0003 0036 583
E: 6797.903784 0003 001c 3
E: 6797.903784 0003 002f 1
E: 6797.903784 0003 0035 1847
E: 6797.903784 0003 0036 570
E: 6797.903784 0003 003a 48
E: 6797.903784 0003 001c 2
E: 6797.903784 0003 0030 154
E: 6797.903784 0003 0000 1268
E: 6797.903784 0003 0001 583
E: 6797.903784 0000 0000 0
E: 6797.913666 0003 002f 0
E: 6797.913666 0003 0035 1266
E: 6797.913666 0003 0036 612
E: 6797.913666 0003 001c 3
E: 6797.913666 0003 002f 1
E: 6797.913666 0003 0036 605
E: 6797.913666 0003 003a 47
E: 6797.913666 0003 001c 2
E: 6797.913666 0003 0030 231
E: 6797.913666 0003 0000 1266
E: 6797.913666 0003 0001 612
E: 6797.913666 0000 0000 0
E: 6797.923554 0003 002f 0
E: 6797.923554 0003 0035 1265
E: 6797.923554 0003 0036 647
E: 6797.923554 0003 001c 3
E: 6797.923554 0003 002f 1
E: 6797.923554 0003 0035 1845
E: 6797.923554 0003 0036 643
E: 6797.923554 0003 003a 48
E: 6797.923554 0003 001c 2
E: 6797.923554 0003 0000 1265
E: 6797.923554 0003 0001 647
E: 6797.923554 0000 0000 0
E: 6797.933468 0003 002f 0
E: 6797.933468 0003 0035 1264
E: 6797.933468 0003 0036 684
E: 6797.933468 0003 001c 3
E: 6797.933468 0003 002f 1
E: 6797.933468 0003 0035 1843
E: 6797.933468 0003 0036 687
E: 6797.933468 0003 001c 2
E: 6797.933468 0003 0000 1264
E: 6797.933468 0003 0001 684
E: 6797.933468 0000 0000 0
E: 6797.943381 0003 002f 0
E: 6797.943381 0003 0035 1260
E: 6797.943381 0003 0036 719
E: 6797.943381 0003 003a 52
E: 6797.943381 0003 001c 3
E: 6797.943381 0003 0030 210
E: 6797.943381 0003 0031 154
E: 6797.943381 0003 002f 1
E: 6797.943381 0003 0035 1840
E: 6797.943381 0003 0036 724
E: 6797.943381 0003 003a 47
E: 6797.943381 0003 001c 2
E: 6797.943381 0003 0030 154
E: 6797.943381 0003 0000 1260
E: 6797.943381 0003 0001 719
E: 6797.943381 0003 0018 52
E: 6797.943381 0000 0000 0
E: 6797.953227 0003 002f 0
E: 6797.953227 0003 0035 1257
E: 6797.953227 0003 0036 753
E: 6797.953227 0003 003a 51
E: 6797.953227 0003 001c 3
E: 6797.953227 0003 0030 231
E: 6797.953227 0003 0031 210
E: 6797.953227 0003 002f 1
E: 6797.953227 0003 0036 759
E: 6797.953227 0003 001c 2
E: 6797.953227 0003 0030 231
E: 6797.953227 0003 0000 1257
E: 6797.953227 0003 0001 753
E: 6797.953227 0003 0018 51
E: 6797.953227 0000 0000 0
E: 6797.963116 0003 002f 0
E: 6797.963116 0003 0035 1254
E: 6797.963116 0003 0036 788
E: 6797.963116 0003 003a 52
E: 6797.963116 0003 001c 3
E: 6797.963116 0003 002f 1
E: 6797.963116 0003 0035 1841
E: 6797.963116 0003 0036 801
E: 6797.963116 0003 001c 2
E: 6797.963116 0003 0000 1254
E: 6797.963116 0003 0001 788
E: 6797.963116 0003 0018 52
E: 6797.963116 0000 0000 0
E: 6797.973032 0003 002f 0
E: 6797.973032 0003 0035 1256
E: 6797.973032 0003 0036 821
E: 6797.973032 0003 001c 3
E: 6797.973032 0003 002f 1
E: 6797.973032 0003 0035 1840
E: 6797.973032 0003 0036 842
E: 6797.973032 0003 001c 2
E: 6797.973032 0003 0000 1256
E: 6797.973032 0003 0001 821
E: 6797.973032 0000 0000 0
E: 6797.982906 0003 002f 0
E: 6797.982906 0003 0035 1254
E: 6797.982906 0003 0036 854
E: 6797.982906 0003 003a 51
E: 6797.982906 0003 001c 3
E: 6797.982906 0003 002f 1
E: 6797.982906 0003 0035 1838
E: 6797.982906 0003 0036 877
E: 6797.982906 0003 001c 2
E: 6797.982906 0003 0030 154
E: 6797.982906 0003 0000 1254
E: 6797.982906 0003 0001 854
E: 6797.982906 0003 0018 51
E: 6797.982906 0000 0000 0
E: 6797.992801 0003 002f 0
E: 6797.992801 0003 0035 1248
E: 6797.992801 0003 0036 884
E: 6797.992801 0003 001c 4
E: 6797.992801 0003 0030 280
E: 6797.992801 0003 0031 154
E: 6797.992801 0003 002f 1
E: 6797.992801 0003 0035 1834
E: 6797.992801 0003 0036 906
E: 6797.992801 0003 001c 3
E: 6797.992801 0003 0030 210
E: 6797.992801 0003 0031 154
E: 6797.992801 0003 0000 1248
E: 6797.992801 0003 0001 884
E: 6797.992801 0000 0000 0
E: 6798.002455 0003 002f 0
E: 6798.002455 0003 0035 1245
E: 6798.002455 0003 0036 914
E: 6798.002455 0003 001c 4
E: 6798.002455 0003 0031 231
E: 6798.002455 0003 002f 1
E: 6798.002455 0003 0035 1833
E: 6798.002455 0003 0036 947
E: 6798.002455 0003 001c 3
E: 6798.002455 0003 0030 231
E: 6798.002455 0003 0031 210
E: 6798.002455 0003 0000 1245
E: 6798.002455 0003 0001 914
E: 6798.002455 0000 0000 0
E: 6798.012567 0003 002f 0
E: 6798.012567 0003 0035 1246
E: 6798.012567 0003 0036 956
E: 6798.012567 0003 0030 231
E: 6798.012567 0003 0031 210
E: 6798.012567 0003 002f 1
E: 6798.012567 0003 0035 1837
E: 6798.012567 0003 0036 1006
E: 6798.012567 0003 001c 2
E: 6798.012567 0003 0031 140
E: 6798.012567 0003 0000 1246
E: 6798.012567 0003 0001 956
E: 6798.012567 0000 0000 0
E: 6798.022470 0003 002f 0
E: 6798.022470 0003 0035 1242
E: 6798.022470 0003 0036 1010
E: 6798.022470 0003 001c 3
E: 6798.022470 0003 002f 1
E: 6798.022470 0003 0035 1838
E: 6798.022470 0003 0036 1066
E: 6798.022470 0003 001c 2
E: 6798.022470 0003 0030 154
E: 6798.022470 0003 0000 1242
E: 6798.022470 0003 0001 1010
E: 6798.022470 0000 0000 0
E: 6798.032358 0003 002f 0
E: 6798.032358 0003 0035 1239
E: 6798.032358 0003 0036 1064
E: 6798.032358 0003 001c 3
E: 6798.032358 0003 002f 1
E: 6798.032358 0003 0035 1837
E: 6798.032358 0003 0036 1153
E: 6798.032358 0003 003a 46
E: 6798.032358 0003 001c 2
E: 6798.032358 0003 0000 1239
E: 6798.032358 0003 0001 1064
E: 6798.032358 0000 0000 0
E: 6798.042243 0003 002f 0
E: 6798.042243 0003 0035 1238
E: 6798.042243 0003 0036 1133
E: 6798.042243 0003 003a 50
E: 6798.042243 0003 001c 3
E: 6798.042243 0003 002f 1
E: 6798.042243 0003 0035 1844
E: 6798.042243 0003 0036 1237
E: 6798.042243 0003 003a 45
E: 6798.042243 0003 001c 2
E: 6798.042243 0003 0000 1238
E: 6798.042243 0003 0001 1133
E: 6798.042243 0003 0018 50
E: 6798.042243 0000 0000 0
E: 6798.052147 0003 002f 0
E: 6798.052147 0003 0035 1231
E: 6798.052147 0003 0036 1208
E: 6798.052147 0003 003a 49
E: 6798.052147 0003 0030 154
E: 6798.052147 0003 0031 140
E: 6798.052147 0003 002f 1
E: 6798.052147 0003 0035 1849
E: 6798.052147 0003 0036 1333
E: 6798.052147 0003 0000 1231
E: 6798.052147 0003 0001 1208
E: 6798.052147 0003 0018 49
E: 6798.052147 0000 0000 0
E: 6798.061884 0003 002f 0
E: 6798.061884 0003 0035 1234
E: 6798.061884 0003 0036 1314
E: 6798.061884 0003 003a 48
E: 6798.061884 0003 001c 3
E: 6798.061884 0003 0030 210
E: 6798.061884 0003 0031 154
E: 6798.061884 0003 002f 1
E: 6798.061884 0003 0035 1852
E: 6798.061884 0003 0036 1443
E: 6798.061884 0003 003a 44
E: 6798.061884 0003 001c 2
E: 6798.061884 0003 0000 1234
E: 6798.061884 0003 0001 1314
E: 6798.061884 0003 0018 48
E: 6798.061884 0000 0000 0
E: 6798.071781 0003 002f 0
E: 6798.071781 0003 0035 1239
E: 6798.071781 0003 0036 1428
E: 6798.071781 0003 003a 47
E: 6798.071781 0003 001c 3
E: 6798.071781 0003 0030 231
E: 6798.071781 0003 0031 210
E: 6798.071781 0003 002f 1
E: 6798.071781 0003 0035 1854
E: 6798.071781 0003 0036 1557
E: 6798.071781 0003 003a 43
E: 6798.071781 0003 001c 1
E: 6798.071781 0003 0030 77
E: 6798.071781 0003 0031 70
E: 6798.071781 0003 0000 1239
E: 6798.071781 0003 0001 1428
E: 6798.071781 0003 0018 47
E: 6798.071781 0000 0000 0
E: 6798.081802 0003 002f 0
E: 6798.081802 0003 0035 1249
E: 6798.081802 0003 0036 1523
E: 6798.081802 0003 001c 3
E: 6798.081802 0003 0030 210
E: 6798.081802 0003 0031 154
E: 6798.081802 0003 002f 1
E: 6798.081802 0003 0035 1856
E: 6798.081802 0003 0036 1671
E: 6798.081802 0003 001c 1
E: 6798.081802 0003 0000 1249
E: 6798.081802 0003 0001 1523
E: 6798.081802 0000 0000 0
E: 6798.091665 0003 002f 0
E: 6798.091665 0003 0035 1258
E: 6798.091665 0003 0036 1623
E: 6798.091665 0003 003a 45
E: 6798.091665 0003 001c 3
E: 6798.091665 0003 002f 1
E: 6798.091665 0003 0039 -1
E: 6798.091665 0001 0145 1
E: 6798.091665 0001 014d 0
E: 6798.091665 0003 0000 1258
E: 6798.091665 0003 0001 1623
E: 6798.091665 0003 0018 45
E: 6798.091665 0000 0000 0
E: 6798.101555 0003 002f 0
E: 6798.101555 0003 003a 44
E: 6798.101555 0003 001c 1
E: 6798.101555 0003 0030 77
E: 6798.101555 0003 0031 70
E: 6798.101555 0003 0018 44
E: 6798.101555 0000 0000 0
E: 6798.111426 0003 0039 -1
E: 6798.111426 0001 014a 0
E: 6798.111426 0001 0145 0
E: 6798.111426 0003 0018 0
E: 6798.111426 0000 0000 0
E: 6798.111926 0003 002f 0
E: 6798.111926 0003 0039 -1
E: 6798.111926 0003 002f 1
E: 6798.111926 0003 0039 -1
E: 6798.111926 0003 002f 2
E: 6798.111926 0003 0039 -1
E: 6798.111926 0003 002f 3
E: 6798.111926 0003 0039 -1
E: 6798.111926 0003 002f 4
E: 6798.111926 0003 0039 -1
