# device: cyapa
# bit: 0B 00 00 00 00 00 00 00
# key: 00 00 00 00 00 00 00 00 00 00 00 00 00 00 00 00 00 00 00 00 00 00 00 00 00 00 00 00 00 00 00 00 00 00 01 00 00 00 00 00 20 E5 00 00 00 00 00 00 00 00 00 00 00 00 00 00 00 00 00 00 00 00 00 00 00 00 00 00 00 00 00 00 00 00 00 00 00 00 00 00 00 00 00 00 00 00 00 00 00 00 00 00 00 00 00 00
# rel: 00 00 00 00 00 00 00 00
# abs: 03 00 00 01 00 80 60 06
# led: 00 00 00 00 00 00 00 00
# prp: 05 00 00 00 00 00 00 00
# absinfo: 0 0 1280 0 0 12
# absinfo: 1 0 680 0 0 10
# absinfo: 24 0 255 0 0 0
# absinfo: 47 0 14 0 0 0
# absinfo: 53 0 1280 0 0 12
# absinfo: 54 0 680 0 0 10
# absinfo: 57 0 65535 0 0 0
# absinfo: 58 0 255 0 0 0
E: 6053.775769 0003 002f 0
E: 6053.775769 0003 0039 -1
E: 6053.775769 0003 002f 1
E: 6053.775769 0003 0039 -1
E: 6053.775769 0003 002f 2
E: 6053.775769 0003 0039 -1
E: 6053.775769 0003 002f 3
E: 6053.775769 0003 0039 -1
E: 6053.775769 0003 002f 4
E: 6053.775769 0003 0039 -1
E: 6053.775769 0003 002f 5
E: 6053.775769 0003 0039 -1
E: 6053.775769 0003 002f 6
E: 6053.775769 0003 0039 -1
E: 6053.775769 0003 002f 7
E: 6053.775769 0003 0039 -1
E: 6053.775769 0003 002f 8
E: 6053.775769 0003 0039 -1
E: 6053.775769 0003 002f 9
E: 6053.775769 0003 0039 -1
E: 6053.775769 0003 002f 10
E: 6053.775769 0003 0039 -1
E: 6053.775769 0003 002f 11
E: 6053.775769 0003 0039 -1
E: 6053.775769 0003 002f 12
E: 6053.775769 0003 0039 -1
E: 6053.775769 0003 002f 13
E: 6053.775769 0003 0039 -1
E: 6053.775769 0003 002f 14
E: 6053.775769 0003 0039 -1
E: 6053.775769 0003 002f 0
E: 6053.775769 0000 0000 0
E: 6053.977142 0003 0039 3161
E: 6053.977145 0003 0035 428
E: 6053.977146 0003 0036 491
E: 6053.977148 0003 003a 29
E: 6053.977150 0003 002f 1
E: 6053.977150 0003 0039 3162
E: 6053.977152 0003 0035 869
E: 6053.977153 0003 0036 217
E: 6053.977154 0003 003a 28
E: 6053.977178 0001 014a 1
E: 6053.977180 0001 014d 1
E: 6053.977183 0003 0000 428
E: 6053.977184 0003 0001 491
E: 6053.977185 0003 0018 29
E: 6053.977187 0000 0000 0
E: 6053.987419 0003 002f 0
E: 6053.987421 0003 003a 39
E: 6053.987425 0003 002f 1
E: 6053.987426 0003 0036 215
E: 6053.987427 0003 003a 31
E: 6053.987456 0003 0018 39
E: 6053.987458 0000 0000 0
E: 6053.997665 0003 002f 0
E: 6053.997667 0003 003a 42
E: 6053.997671 0003 002f 1
E: 6053.997672 0003 0035 870
E: 6053.997674 0003 003a 33
E: 6053.997712 0003 0018 42
E: 6053.997714 0000 0000 0
E: 6054.007865 0003 002f 0
E: 6054.007866 0003 003a 44
E: 6054.007872 0003 002f 1
E: 6054.007872 0003 003a 36
E: 6054.007900 0003 0018 44
E: 6054.007902 0000 0000 0
E: 6054.018140 0003 002f 0
E: 6054.018141 0003 003a 46
E: 6054.018174 0003 0018 46
E: 6054.018176 0000 0000 0
E: 6054.028426 0003 003a 48
E: 6054.028432 0003 002f 1
E: 6054.028433 0003 003a 37
E: 6054.028461 0003 0018 48
E: 6054.028462 0000 0000 0
E: 6054.038703 0003 002f 0
E: 6054.038704 0003 003a 47
E: 6054.038737 0003 0018 47
E: 6054.038739 0000 0000 0
E: 6054.048973 0003 003a 48
E: 6054.048979 0003 002f 1
E: 6054.048980 0003 003a 38
E: 6054.049038 0003 0018 48
E: 6054.049041 0000 0000 0
E: 6054.059298 0001 0110 1
E: 6054.059300 0000 0000 0
E: 6054.069649 0003 002f 0
E: 6054.069650 0003 0035 427
E: 6054.069652 0003 0036 492
E: 6054.069656 0003 002f 1
E: 6054.069657 0003 0035 869
E: 6054.069659 0003 003a 39
E: 6054.069685 0003 0000 427
E: 6054.069686 0003 0001 492
E: 6054.069689 0000 0000 0
E: 6054.090277 0003 002f 0
E: 6054.090278 0003 0035 426
E: 6054.090279 0003 0036 493
E: 6054.090280 0003 003a 49
E: 6054.090312 0003 0000 426
E: 6054.090313 0003 0001 493
E: 6054.090314 0003 0018 49
E: 6054.090316 0000 0000 0
E: 6054.100626 0003 003a 48
E: 6054.100660 0003 0018 48
E: 6054.100662 0000 0000 0
E: 6054.110980 0003 003a 49
E: 6054.111042 0003 0018 49
E: 6054.111045 0000 0000 0
E: 6054.121366 0003 003a 48
E: 6054.121372 0003 002f 1
E: 6054.121373 0003 003a 40
E: 6054.121401 0003 0018 48
E: 6054.121403 0000 0000 0
E: 6054.142087 0003 002f 0
E: 6054.142088 0003 003a 49
E: 6054.142121 0003 0018 49
E: 6054.142123 0000 0000 0
E: 6054.152314 0003 0035 427
E: 6054.152317 0003 003a 48
E: 6054.152321 0003 002f 1
E: 6054.152321 0003 0035 867
E: 6054.152349 0003 0000 427
E: 6054.152351 0003 0018 48
E: 6054.152353 0000 0000 0
E: 6054.162622 0003 0035 866
E: 6054.162623 0003 0036 216
E: 6054.162654 0000 0000 0
E: 6054.172869 0003 002f 0
E: 6054.172871 0003 0035 428
E: 6054.172873 0003 003a 47
E: 6054.172878 0003 002f 1
E: 6054.172878 0003 003a 39
E: 6054.172905 0003 0000 428
E: 6054.172907 0003 0018 47
E: 6054.172909 0000 0000 0
E: 6054.183133 0003 002f 0
E: 6054.183135 0003 0035 430
E: 6054.183136 0003 0036 492
E: 6054.183137 0003 003a 46
E: 6054.183168 0003 0000 430
E: 6054.183169 0003 0001 492
E: 6054.183171 0003 0018 46
E: 6054.183173 0000 0000 0
E: 6054.193421 0003 0035 434
E: 6054.193424 0003 003a 43
E: 6054.193455 0003 0000 434
E: 6054.193457 0003 0018 43
E: 6054.193459 0001 0110 0
E: 6054.193460 0000 0000 0
E: 6054.203621 0003 0035 440
E: 6054.203624 0003 0036 490
E: 6054.203626 0003 003a 38
E: 6054.203631 0003 002f 1
E: 6054.203632 0003 0035 865
E: 6054.203633 0003 0036 218
E: 6054.203635 0003 003a 37
E: 6054.203674 0003 0000 440
E: 6054.203676 0003 0001 490
E: 6054.203677 0003 0018 38
E: 6054.203680 0000 0000 0
E: 6054.213912 0003 002f 0
E: 6054.213914 0003 0035 443
E: 6054.213916 0003 003a 30
E: 6054.213922 0003 002f 1
E: 6054.213922 0003 0035 861
E: 6054.213924 0003 0036 225
E: 6054.213926 0003 003a 34
E: 6054.213964 0003 0000 443
E: 6054.213967 0003 0018 30
E: 6054.213969 0000 0000 0
E: 6054.223939 0003 002f 0
E: 6054.223940 0003 0036 489
E: 6054.223940 0003 003a 15
E: 6054.223943 0003 002f 1
E: 6054.223943 0003 0035 856
E: 6054.223943 0003 0036 230
E: 6054.223944 0003 003a 30
E: 6054.223959 0003 0001 489
E: 6054.223959 0003 0018 15
E: 6054.223960 0000 0000 0
E: 6054.234196 0003 002f 0
E: 6054.234198 0003 003a 7
E: 6054.234203 0003 002f 1
E: 6054.234203 0003 0035 851
E: 6054.234205 0003 0036 240
E: 6054.234207 0003 003a 18
E: 6054.234247 0003 0018 7
E: 6054.234250 0000 0000 0
E: 6054.241904 0003 002f 0
E: 6054.241905 0003 0039 -1
E: 6054.241908 0003 002f 1
E: 6054.241908 0003 0039 -1
E: 6054.241931 0001 014a 0
E: 6054.241932 0001 014d 0
E: 6054.241933 0003 0018 0
E: 6054.241934 0000 0000 0
E: 6054.242434 0003 002f 0
E: 6054.242434 0003 0039 -1
E: 6054.242434 0003 002f 1
E: 6054.242434 0003 0039 -1
E: 6054.242434 0003 002f 2
E: 6054.242434 0003 0039 -1
E: 6054.242434 0003 002f 3
E: 6054.242434 0003 0039 -1
E: 6054.242434 0003 002f 4
E: 6054.242434 0003 0039 -1
E: 6054.242434 0003 002f 5
E: 6054.242434 0003 0039 -1
E: 6054.242434 0003 002f 6
E: 6054.242434 0003 0039 -1
E: 6054.242434 0003 002f 7
E: 6054.242434 0003 0039 -1
E: 6054.242434 0003 002f 8
E: 6054.242434 0003 0039 -1
E: 6054.242434 0003 002f 9
E: 6054.242434 0003 0039 -1
E: 6054.242434 0003 002f 10
E: 6054.242434 0003 0039 -1
E: 6054.242434 0003 002f 11
E: 6054.242434 0003 0039 -1
E: 6054.242434 0003 002f 12
E: 6054.242434 0003 0039 -1
E: 6054.242434 0003 002f 13
E: 6054.242434 0003 0039 -1
E: 6054.242434 0003 002f 14
E: 6054.242434 0003 0039 -1
