# device: Elan Touchpad
# bit: 0B 00 00 00 00 00 00 00
# key: 00 00 00 00 00 00 00 00 00 00 00 00 00 00 00 00 00 00 00 00 00 00 00 00 00 00 00 00 00 00 00 00 00 00 01 00 00 00 00 00 20 E5 00 00 00 00 00 00 00 00 00 00 00 00 00 00 00 00 00 00 00 00 00 00 00 00 00 00 00 00 00 00 00 00 00 00 00 00 00 00 00 00 00 00 00 00 00 00 00 00 00 00 00 00 00 00
# rel: 00 00 00 00 00 00 00 00
# abs: 03 00 00 11 00 80 63 06
# led: 00 00 00 00 00 00 00 00
# prp: 05 00 00 00 00 00 00 00
# absinfo: 0 0 3207 0 0 31
# absinfo: 1 0 1791 0 0 31
# absinfo: 24 0 255 0 0 0
# absinfo: 28 0 15 0 0 0
# absinfo: 47 0 4 0 0 0
# absinfo: 48 0 2430 0 0 0
# absinfo: 49 0 2400 0 0 0
# absinfo: 53 0 3207 0 0 31
# absinfo: 54 0 1791 0 0 31
# absinfo: 57 0 65535 0 0 0
# absinfo: 58 0 255 0 0 0
E: 731.424920 0003 002f 0
E: 731.424920 0003 0030 144
E: 731.424920 0003 0031 140
E: 731.424920 0003 0032 0
E: 731.424920 0003 0033 0
E: 731.424920 0003 0034 0
E: 731.424920 0003 0035 1216
E: 731.424920 0003 0036 1298
E: 731.424920 0003 0037 0
E: 731.424920 0003 0038 0
E: 731.424920 0003 0039 29
E: 731.424920 0003 003a 46
E: 731.424920 0003 003b 0
E: 731.424920 0003 002f 1
E: 731.424920 0003 0039 -1
E: 731.424920 0003 002f 2
E: 731.424920 0003 0039 -1
E: 731.424920 0003 002f 3
E: 731.424920 0003 0039 -1
E: 731.424920 0003 002f 4
E: 731.424920 0003 0039 -1
E: 731.424920 0003 002f 0
E: 731.424920 0001 0145 1
E: 731.424920 0001 014a 1
E: 731.424920 0000 0000 0
E: 731.428830 0003 003a 47
E: 731.428830 0003 0030 216
E: 731.428830 0003 0018 47
E: 731.428830 0000 0000 0
E: 731.444871 0003 003a 49
E: 731.444871 0003 0018 49
E: 731.444871 0000 0000 0
E: 731.450645 0003 003a 50
E: 731.450645 0003 0018 50
E: 731.450645 0000 0000 0
E: 731.456445 0003 003a 51
E: 731.456445 0003 0018 51
E: 731.456445 0000 0000 0
E: 731.462343 0003 003a 52
E: 731.462343 0003 0018 52
E: 731.462343 0000 0000 0
E: 731.468091 0003 003a 53
E: 731.468091 0003 0018 53
E: 731.468091 0000 0000 0
E: 731.485950 0003 003a 54
E: 731.485950 0003 0018 54
E: 731.485950 0000 0000 0
E: 731.496643 0003 003a 55
E: 731.496643 0003 0018 55
E: 731.496643 0000 0000 0
E: 731.525582 0003 003a 56
E: 731.525582 0003 0018 56
E: 731.525582 0000 0000 0
E: 731.538123 0003 003a 57
E: 731.538123 0003 0018 57
E: 731.538123 0000 0000 0
E: 731.548992 0003 003a 58
E: 731.548992 0003 0018 58
E: 731.548992 0000 0000 0
E: 731.560565 0003 003a 59
E: 731.560565 0003 001c 3
E: 731.560565 0003 0031 210
E: 731.560565 0003 0018 59
E: 731.560565 0000 0000 0
E: 731.572140 0003 003a 60
E: 731.572140 0003 0018 60
E: 731.572140 0000 0000 0
E: 731.584612 0003 003a 61
E: 731.584612 0003 0018 61
E: 731.584612 0000 0000 0
E: 731.595328 0003 0035 1219
E: 731.595328 0003 0036 1304
E: 731.595328 0003 003a 63
E: 731.595328 0003 0030 288
E: 731.595328 0003 0000 1219
E: 731.595328 0003 0001 1304
E: 731.595328 0003 0018 63
E: 731.595328 0000 0000 0
E: 731.601334 0003 0035 1222
E: 731.601334 0003 0036 1309
E: 731.601334 0003 0000 1222
E: 731.601334 0003 0001 1309
E: 731.601334 0000 0000 0
E: 731.606864 0003 0035 1224
E: 731.606864 0003 0036 1313
E: 731.606864 0003 0000 1224
E: 731.606864 0003 0001 1313
E: 731.606864 0000 0000 0
E: 731.613512 0003 0035 1225
E: 731.613512 0003 0036 1315
E: 731.613512 0003 0000 1225
E: 731.613512 0003 0001 1315
E: 731.613512 0000 0000 0
E: 731.618495 0003 0035 1226
E: 731.618495 0003 0036 1317
E: 731.618495 0003 0000 1226
E: 731.618495 0003 0001 1317
E: 731.618495 0000 0000 0
E: 731.624471 0003 0036 1318
E: 731.624471 0003 0001 1318
E: 731.624471 0000 0000 0
E: 731.631743 0003 0036 1319
E: 731.631743 0003 003a 64
E: 731.631743 0001 0110 1
E: 731.631743 0003 0001 1319
E: 731.631743 0003 0018 64
E: 731.631743 0000 0000 0
E: 731.653243 0003 003a 65
E: 731.653243 0003 0018 65
E: 731.653243 0000 0000 0
E: 731.682195 0003 0036 1318
E: 731.682195 0003 0001 1318
E: 731.682195 0000 0000 0
E: 731.687999 0003 003a 64
E: 731.687999 0003 0018 64
E: 731.687999 0000 0000 0
E: 731.694098 0003 0036 1317
E: 731.694098 0003 003a 65
E: 731.694098 0003 0001 1317
E: 731.694098 0003 0018 65
E: 731.694098 0000 0000 0
E: 731.699650 0003 0035 1225
E: 731.699650 0003 0036 1316
E: 731.699650 0003 003a 64
E: 731.699650 0003 0000 1225
E: 731.699650 0003 0001 1316
E: 731.699650 0003 0018 64
E: 731.699650 0000 0000 0
E: 731.705483 0003 0036 1315
E: 731.705483 0003 0001 1315
E: 731.705483 0000 0000 0
E: 731.722617 0003 0036 1314
E: 731.722617 0003 0001 1314
E: 731.722617 0000 0000 0
E: 731.729303 0003 0035 1224
E: 731.729303 0003 0036 1313
E: 731.729303 0003 0000 1224
E: 731.729303 0003 0001 1313
E: 731.729303 0000 0000 0
E: 731.735022 0003 0035 1223
E: 731.735022 0003 0036 1312
E: 731.735022 0003 0000 1223
E: 731.735022 0003 0001 1312
E: 731.735022 0000 0000 0
E: 731.775583 0003 003a 65
E: 731.775583 0003 0018 65
E: 731.775583 0000 0000 0
E: 731.781324 0003 003a 64
E: 731.781324 0003 0018 64
E: 731.781324 0000 0000 0
E: 731.786352 0003 0035 1224
E: 731.786352 0003 0000 1224
E: 731.786352 0000 0000 0
E: 731.792284 0003 003a 63
E: 731.792284 0001 0110 0
E: 731.792284 0003 0018 63
E: 731.792284 0000 0000 0
E: 731.797986 0003 003a 62
E: 731.797986 0003 0018 62
E: 731.797986 0000 0000 0
E: 731.805328 0003 003a 60
E: 731.805328 0003 0030 216
E: 731.805328 0003 0018 60
E: 731.805328 0000 0000 0
E: 731.809682 0003 0035 1223
E: 731.809682 0003 0036 1313
E: 731.809682 0003 003a 55
E: 731.809682 0003 001c 2
E: 731.809682 0003 0031 140
E: 731.809682 0003 0000 1223
E: 731.809682 0003 0001 1313
E: 731.809682 0003 0018 55
E: 731.809682 0000 0000 0
E: 731.815504 0003 0035 1222
E: 731.815504 0003 0036 1315
E: 731.815504 0003 003a 50
E: 731.815504 0003 0000 1222
E: 731.815504 0003 0001 1315
E: 731.815504 0003 0018 50
E: 731.815504 0000 0000 0
E: 731.822886 0003 0036 1319
E: 731.822886 0003 003a 45
E: 731.822886 0003 0030 144
E: 731.822886 0003 0001 1319
E: 731.822886 0003 0018 45
E: 731.822886 0000 0000 0
E: 731.826582 0003 001c 1
E: 731.826582 0003 0030 72
E: 731.826582 0003 0031 70
E: 731.826582 0000 0000 0
E: 731.832348 0003 0039 -1
E: 731.832348 0001 014a 0
E: 731.832348 0001 0145 0
E: 731.832348 0003 0018 0
E: 731.832348 0000 0000 0
E: 732.174704 0003 0039 30
E: 732.174704 0003 0035 2157
E: 732.174704 0003 0036 1127
E: 732.174704 0003 003a 51
E: 732.174704 0003 001c 2
E: 732.174704 0003 0030 216
E: 732.174704 0003 0031 140
E: 732.174704 0001 014a 1
E: 732.174704 0001 0145 1
E: 732.174704 0003 0000 2157
E: 732.174704 0003 0001 1127
E: 732.174704 0003 0018 51
E: 732.174704 0000 0000 0
E: 732.179155 0003 003a 53
E: 732.179155 0003 001c 3
E: 732.179155 0003 0031 210
E: 732.179155 0003 002f 1
E: 732.179155 0003 0039 31
E: 732.179155 0003 0035 1428
E: 732.179155 0003 0036 1350
E: 732.179155 0003 003a 46
E: 732.179155 0003 001c 2
E: 732.179155 0003 0030 144
E: 732.179155 0003 0031 140
E: 732.179155 0001 0145 0
E: 732.179155 0001 014d 1
E: 732.179155 0003 0018 53
E: 732.179155 0000 0000 0
E: 732.183440 0003 002f 0
E: 732.183440 0003 003a 55
E: 732.183440 0003 001c 3
E: 732.183440 0003 002f 1
E: 732.183440 0003 003a 49
E: 732.183440 0003 0030 216
E: 732.183440 0003 0031 210
E: 732.183440 0003 0018 55
E: 732.183440 0000 0000 0
E: 732.188438 0003 002f 0
E: 732.188438 0003 003a 56
E: 732.188438 0003 002f 1
E: 732.188438 0003 003a 51
E: 732.188438 0003 0018 56
E: 732.188438 0000 0000 0
E: 732.193514 0003 002f 0
E: 732.193514 0003 003a 57
E: 732.193514 0003 002f 1
E: 732.193514 0003 003a 53
E: 732.193514 0003 0018 57
E: 732.193514 0000 0000 0
E: 732.198657 0003 002f 0
E: 732.198657 0003 003a 58
E: 732.198657 0003 002f 1
E: 732.198657 0003 003a 54
E: 732.198657 0003 0018 58
E: 732.198657 0000 0000 0
E: 732.203408 0003 002f 0
E: 732.203408 0003 003a 59
E: 732.203408 0003 002f 1
E: 732.203408 0003 003a 55
E: 732.203408 0003 0018 59
E: 732.203408 0000 0000 0
E: 732.210290 0003 003a 56
E: 732.210290 0000 0000 0
E: 732.215611 0003 002f 0
E: 732.215611 0003 003a 61
E: 732.215611 0003 002f 1
E: 732.215611 0003 003a 58
E: 732.215611 0003 0018 61
E: 732.215611 0000 0000 0
E: 732.226199 0003 002f 0
E: 732.226199 0003 003a 62
E: 732.226199 0003 0018 62
E: 732.226199 0000 0000 0
E: 732.237788 0003 003a 63
E: 732.237788 0003 002f 1
E: 732.237788 0003 003a 59
E: 732.237788 0003 0018 63
E: 732.237788 0000 0000 0
E: 732.249473 0003 003a 60
E: 732.249473 0000 0000 0
E: 732.261363 0001 0110 1
E: 732.261363 0000 0000 0
E: 732.273012 0003 002f 0
E: 732.273012 0003 003a 64
E: 732.273012 0003 002f 1
E: 732.273012 0003 003a 61
E: 732.273012 0003 0018 64
E: 732.273012 0000 0000 0
E: 732.278348 0003 002f 0
E: 732.278348 0003 003a 65
E: 732.278348 0003 0018 65
E: 732.278348 0000 0000 0
E: 732.289910 0003 002f 1
E: 732.289910 0003 0030 288
E: 732.289910 0000 0000 0
E: 732.330623 0003 003a 62
E: 732.330623 0000 0000 0
E: 732.342147 0003 002f 0
E: 732.342147 0003 003a 66
E: 732.342147 0003 0018 66
E: 732.342147 0000 0000 0
E: 732.406217 0003 003a 65
E: 732.406217 0003 0018 65
E: 732.406217 0000 0000 0
E: 732.411515 0003 002f 1
E: 732.411515 0003 003a 61
E: 732.411515 0000 0000 0
E: 732.423220 0003 002f 0
E: 732.423220 0003 003a 64
E: 732.423220 0003 0018 64
E: 732.423220 0000 0000 0
E: 732.428880 0003 003a 63
E: 732.428880 0003 002f 1
E: 732.428880 0003 003a 60
E: 732.428880 0001 0110 0
E: 732.428880 0003 0018 63
E: 732.428880 0000 0000 0
E: 732.434727 0003 002f 0
E: 732.434727 0003 003a 61
E: 732.434727 0003 002f 1
E: 732.434727 0003 003a 58
E: 732.434727 0003 0018 61
E: 732.434727 0000 0000 0
E: 732.440547 0003 002f 0
E: 732.440547 0003 003a 57
E: 732.440547 0003 002f 1
E: 732.440547 0003 003a 53
E: 732.440547 0003 0030 216
E: 732.440547 0003 0018 57
E: 732.440547 0000 0000 0
E: 732.446401 0003 002f 0
E: 732.446401 0003 003a 49
E: 732.446401 0003 002f 1
E: 732.446401 0003 003a 46
E: 732.446401 0003 0030 210
E: 732.446401 0003 0031 144
E: 732.446401 0003 0018 49
E: 732.446401 0000 0000 0
E: 732.452192 0003 001c 2
E: 732.452192 0003 002f 0
E: 732.452192 0003 0031 140
E: 732.452192 0003 001c 1
E: 732.452192 0003 002f 1
E: 732.452192 0003 0030 72
E: 732.452192 0003 0031 70
E: 732.452192 0000 0000 0
E: 732.457821 0003 002f 0
E: 732.457821 0003 0030 72
E: 732.457821 0003 0031 70
E: 732.457821 0000 0000 0
E: 732.463526 0003 0039 -1
E: 732.463526 0003 002f 1
E: 732.463526 0003 0039 -1
E: 732.463526 0001 014a 0
E: 732.463526 0001 014d 0
E: 732.463526 0003 0018 0
E: 732.463526 0000 0000 0
E: 732.464026 0003 002f 0
E: 732.464026 0003 0039 -1
E: 732.464026 0003 002f 1
E: 732.464026 0003 0039 -1
E: 732.464026 0003 002f 2
E: 732.464026 0003 0039 -1
E: 732.464026 0003 002f 3
E: 732.464026 0003 0039 -1
E: 732.464026 0003 002f 4
E: 732.464026 0003 0039 -1
