# device: ACPI0C50:01 04F3:30C5 Touchpad
# bit: 1B 00 00 00 00 00 00 00
# key: 00 00 00 00 00 00 00 00 00 00 00 00 00 00 00 00 00 00 00 00 00 00 00 00 00 00 00 00 00 00 00 00 00 00 01 00 00 00 00 00 20 E5 00 00 00 00 00 00 00 00 00 00 00 00 00 00 00 00 00 00 00 00 00 00 00 00 00 00 00 00 00 00 00 00 00 00 00 00 00 00 00 00 00 00 00 00 00 00 00 00 00 00 00 00 00 00
# rel: 00 00 00 00 00 00 00 00
# abs: 03 00 00 01 00 80 F3 06
# led: 00 00 00 00 00 00 00 00
# prp: 05 00 00 00 00 00 00 00
# absinfo: 0 0 3602 0 0 32
# absinfo: 1 0 1987 0 0 32
# absinfo: 24 0 255 0 0 0
# absinfo: 47 0 4 0 0 0
# absinfo: 48 0 4095 0 0 65
# absinfo: 49 0 4095 0 0 65
# absinfo: 52 0 1 0 0 0
# absinfo: 53 0 3602 0 0 32
# absinfo: 54 0 1987 0 0 32
# absinfo: 55 0 2 0 0 0
# absinfo: 57 0 65535 0 0 0
# absinfo: 58 0 255 0 0 0
E: 9851.941084 0003 002f 0
E: 9851.941084 0003 0030 432
E: 9851.941084 0003 0031 252
E: 9851.941084 0003 0032 0
E: 9851.941084 0003 0033 0
E: 9851.941084 0003 0034 1
E: 9851.941084 0003 0035 1886
E: 9851.941084 0003 0036 691
E: 9851.941084 0003 0037 0
E: 9851.941084 0003 0038 0
E: 9851.941084 0003 0039 351
E: 9851.941084 0003 003a 70
E: 9851.941084 0003 003b 0
E: 9851.941084 0003 002f 1
E: 9851.941084 0003 0039 -1
E: 9851.941084 0003 002f 2
E: 9851.941084 0003 0039 -1
E: 9851.941084 0003 002f 3
E: 9851.941084 0003 0039 -1
E: 9851.941084 0003 002f 4
E: 9851.941084 0003 0039 -1
E: 9851.941084 0003 002f 0
E: 9851.941084 0001 0145 1
E: 9851.941084 0001 014a 1
E: 9851.941084 0000 0000 0
E: 9851.948926 0003 0035 1888
E: 9851.948926 0003 0036 678
E: 9851.948926 0003 0000 1888
E: 9851.948926 0003 0001 678
E: 9851.948926 0004 0005 266900
E: 9851.948926 0000 0000 0
E: 9851.956771 0003 0036 668
E: 9851.956771 0003 0001 668
E: 9851.956771 0004 0005 274900
E: 9851.956771 0000 0000 0
E: 9851.964634 0003 0036 660
E: 9851.964634 0003 003a 69
E: 9851.964634 0003 0001 660
E: 9851.964634 0003 0018 69
E: 9851.964634 0004 0005 282900
E: 9851.964634 0000 0000 0
E: 9851.972493 0003 0036 654
E: 9851.972493 0003 003a 68
E: 9851.972493 0003 0001 654
E: 9851.972493 0003 0018 68
E: 9851.972493 0004 0005 290900
E: 9851.972493 0000 0000 0
E: 9851.980375 0003 0035 1886
E: 9851.980375 0003 0036 648
E: 9851.980375 0003 003a 67
E: 9851.980375 0003 0000 1886
E: 9851.980375 0003 0001 648
E: 9851.980375 0003 0018 67
E: 9851.980375 0004 0005 298900
E: 9851.980375 0000 0000 0
E: 9851.988230 0003 0035 1885
E: 9851.988230 0003 0036 643
E: 9851.988230 0003 003a 66
E: 9851.988230 0003 0000 1885
E: 9851.988230 0003 0001 643
E: 9851.988230 0003 0018 66
E: 9851.988230 0004 0005 306900
E: 9851.988230 0000 0000 0
E: 9851.996135 0003 0035 1884
E: 9851.996135 0003 0036 640
E: 9851.996135 0003 0000 1884
E: 9851.996135 0003 0001 640
E: 9851.996135 0004 0005 314900
E: 9851.996135 0000 0000 0
E: 9852.003994 0003 0035 1883
E: 9852.003994 0003 0036 638
E: 9852.003994 0003 003a 65
E: 9852.003994 0003 0000 1883
E: 9852.003994 0003 0001 638
E: 9852.003994 0003 0018 65
E: 9852.003994 0004 0005 322900
E: 9852.003994 0000 0000 0
E: 9852.012852 0003 0036 637
E: 9852.012852 0003 003a 66
E: 9852.012852 0003 0001 637
E: 9852.012852 0003 0018 66
E: 9852.012852 0004 0005 331900
E: 9852.012852 0000 0000 0
E: 9852.020710 0003 0036 636
E: 9852.020710 0003 0001 636
E: 9852.020710 0004 0005 339900
E: 9852.020710 0000 0000 0
E: 9852.028598 0003 0036 635
E: 9852.028598 0003 0001 635
E: 9852.028598 0004 0005 347900
E: 9852.028598 0000 0000 0
E: 9852.036450 0004 0005 355900
E: 9852.036450 0000 0000 0
E: 9852.044302 0003 003a 67
E: 9852.044302 0003 0018 67
E: 9852.044302 0004 0005 363900
E: 9852.044302 0000 0000 0
E: 9852.052182 0003 0036 636
E: 9852.052182 0003 003a 69
E: 9852.052182 0003 0001 636
E: 9852.052182 0003 0018 69
E: 9852.052182 0004 0005 371900
E: 9852.052182 0000 0000 0
E: 9852.060053 0003 0035 1884
E: 9852.060053 0003 0036 639
E: 9852.060053 0003 003a 70
E: 9852.060053 0003 0000 1884
E: 9852.060053 0003 0001 639
E: 9852.060053 0003 0018 70
E: 9852.060053 0004 0005 379900
E: 9852.060053 0000 0000 0
E: 9852.067921 0003 0035 1885
E: 9852.067921 0003 0036 647
E: 9852.067921 0003 003a 72
E: 9852.067921 0003 0031 294
E: 9852.067921 0003 0000 1885
E: 9852.067921 0003 0001 647
E: 9852.067921 0003 0018 72
E: 9852.067921 0004 0005 387900
E: 9852.067921 0000 0000 0
E: 9852.075831 0003 0035 1887
E: 9852.075831 0003 0036 659
E: 9852.075831 0003 003a 74
E: 9852.075831 0003 0000 1887
E: 9852.075831 0003 0001 659
E: 9852.075831 0003 0018 74
E: 9852.075831 0004 0005 395900
E: 9852.075831 0000 0000 0
E: 9852.083659 0003 0035 1886
E: 9852.083659 0003 0036 678
E: 9852.083659 0003 003a 75
E: 9852.083659 0003 0031 252
E: 9852.083659 0003 0000 1886
E: 9852.083659 0003 0001 678
E: 9852.083659 0003 0018 75
E: 9852.083659 0004 0005 403900
E: 9852.083659 0000 0000 0
E: 9852.091767 0003 0035 1882
E: 9852.091767 0003 0036 705
E: 9852.091767 0003 0000 1882
E: 9852.091767 0003 0001 705
E: 9852.091767 0004 0005 411900
E: 9852.091767 0000 0000 0
E: 9852.099426 0003 0035 1873
E: 9852.099426 0003 0036 740
E: 9852.099426 0003 0000 1873
E: 9852.099426 0003 0001 740
E: 9852.099426 0004 0005 419900
E: 9852.099426 0000 0000 0
E: 9852.108326 0003 0035 1861
E: 9852.108326 0003 0036 779
E: 9852.108326 0003 003a 74
E: 9852.108326 0003 0000 1861
E: 9852.108326 0003 0001 779
E: 9852.108326 0003 0018 74
E: 9852.108326 0004 0005 428900
E: 9852.108326 0000 0000 0
E: 9852.116369 0003 0035 1851
E: 9852.116369 0003 0036 817
E: 9852.116369 0003 003a 75
E: 9852.116369 0003 0031 294
E: 9852.116369 0003 0000 1851
E: 9852.116369 0003 0001 817
E: 9852.116369 0003 0018 75
E: 9852.116369 0004 0005 436900
E: 9852.116369 0000 0000 0
E: 9852.124100 0003 0035 1845
E: 9852.124100 0003 0036 847
E: 9852.124100 0003 0000 1845
E: 9852.124100 0003 0001 847
E: 9852.124100 0004 0005 444900
E: 9852.124100 0000 0000 0
E: 9852.131907 0003 0035 1839
E: 9852.131907 0003 0036 873
E: 9852.131907 0003 003a 72
E: 9852.131907 0003 0030 480
E: 9852.131907 0003 0031 252
E: 9852.131907 0003 0000 1839
E: 9852.131907 0003 0001 873
E: 9852.131907 0003 0018 72
E: 9852.131907 0004 0005 452900
E: 9852.131907 0000 0000 0
E: 9852.139855 0003 0035 1832
E: 9852.139855 0003 0036 894
E: 9852.139855 0003 003a 71
E: 9852.139855 0003 0030 432
E: 9852.139855 0003 0000 1832
E: 9852.139855 0003 0001 894
E: 9852.139855 0003 0018 71
E: 9852.139855 0004 0005 460900
E: 9852.139855 0000 0000 0
E: 9852.147620 0003 0035 1825
E: 9852.147620 0003 0036 914
E: 9852.147620 0003 003a 72
E: 9852.147620 0003 0000 1825
E: 9852.147620 0003 0001 914
E: 9852.147620 0003 0018 72
E: 9852.147620 0004 0005 468900
E: 9852.147620 0000 0000 0
E: 9852.155472 0003 0035 1824
E: 9852.155472 0003 0036 935
E: 9852.155472 0003 003a 74
E: 9852.155472 0003 0030 384
E: 9852.155472 0003 0031 294
E: 9852.155472 0003 0000 1824
E: 9852.155472 0003 0001 935
E: 9852.155472 0003 0018 74
E: 9852.155472 0004 0005 476900
E: 9852.155472 0000 0000 0
E: 9852.164349 0003 0035 1819
E: 9852.164349 0003 0036 957
E: 9852.164349 0003 003a 75
E: 9852.164349 0003 0030 480
E: 9852.164349 0003 0000 1819
E: 9852.164349 0003 0001 957
E: 9852.164349 0003 0018 75
E: 9852.164349 0004 0005 485900
E: 9852.164349 0000 0000 0
E: 9852.172206 0003 0035 1812
E: 9852.172206 0003 0036 978
E: 9852.172206 0003 003a 77
E: 9852.172206 0003 0031 252
E: 9852.172206 0003 0000 1812
E: 9852.172206 0003 0001 978
E: 9852.172206 0003 0018 77
E: 9852.172206 0004 0005 493900
E: 9852.172206 0000 0000 0
E: 9852.180083 0003 0035 1808
E: 9852.180083 0003 0036 1005
E: 9852.180083 0003 003a 75
E: 9852.180083 0003 0000 1808
E: 9852.180083 0003 0001 1005
E: 9852.180083 0003 0018 75
E: 9852.180083 0004 0005 501900
E: 9852.180083 0000 0000 0
E: 9852.187943 0003 0035 1799
E: 9852.187943 0003 0036 1032
E: 9852.187943 0003 0030 432
E: 9852.187943 0003 0000 1799
E: 9852.187943 0003 0001 1032
E: 9852.187943 0004 0005 509900
E: 9852.187943 0000 0000 0
E: 9852.196805 0003 0035 1789
E: 9852.196805 0003 0036 1055
E: 9852.196805 0003 0000 1789
E: 9852.196805 0003 0001 1055
E: 9852.196805 0004 0005 517900
E: 9852.196805 0000 0000 0
E: 9852.204687 0003 0035 1784
E: 9852.204687 0003 0036 1078
E: 9852.204687 0003 003a 78
E: 9852.204687 0003 0000 1784
E: 9852.204687 0003 0001 1078
E: 9852.204687 0003 0018 78
E: 9852.204687 0004 0005 525900
E: 9852.204687 0000 0000 0
E: 9852.213539 0003 0035 1775
E: 9852.213539 0003 0036 1100
E: 9852.213539 0003 003a 75
E: 9852.213539 0003 0000 1775
E: 9852.213539 0003 0001 1100
E: 9852.213539 0003 0018 75
E: 9852.213539 0004 0005 534900
E: 9852.213539 0000 0000 0
E: 9852.221383 0003 0035 1769
E: 9852.221383 0003 0036 1120
E: 9852.221383 0003 0000 1769
E: 9852.221383 0003 0001 1120
E: 9852.221383 0004 0005 542900
E: 9852.221383 0000 0000 0
E: 9852.229244 0003 0035 1764
E: 9852.229244 0003 0036 1138
E: 9852.229244 0003 0000 1764
E: 9852.229244 0003 0001 1138
E: 9852.229244 0004 0005 550900
E: 9852.229244 0000 0000 0
E: 9852.237112 0003 0035 1760
E: 9852.237112 0003 0036 1156
E: 9852.237112 0003 003a 74
E: 9852.237112 0003 0000 1760
E: 9852.237112 0003 0001 1156
E: 9852.237112 0003 0018 74
E: 9852.237112 0004 0005 558900
E: 9852.237112 0000 0000 0
E: 9852.244990 0003 0035 1754
E: 9852.244990 0003 0036 1173
E: 9852.244990 0003 003a 72
E: 9852.244990 0003 0000 1754
E: 9852.244990 0003 0001 1173
E: 9852.244990 0003 0018 72
E: 9852.244990 0004 0005 566900
E: 9852.244990 0000 0000 0
E: 9852.252861 0003 0035 1749
E: 9852.252861 0003 0036 1186
E: 9852.252861 0003 003a 73
E: 9852.252861 0003 0000 1749
E: 9852.252861 0003 0001 1186
E: 9852.252861 0003 0018 73
E: 9852.252861 0004 0005 574900
E: 9852.252861 0000 0000 0
E: 9852.260729 0003 0035 1744
E: 9852.260729 0003 0036 1200
E: 9852.260729 0003 003a 75
E: 9852.260729 0003 0000 1744
E: 9852.260729 0003 0001 1200
E: 9852.260729 0003 0018 75
E: 9852.260729 0004 0005 582900
E: 9852.260729 0000 0000 0
E: 9852.269590 0003 0035 1740
E: 9852.269590 0003 0036 1215
E: 9852.269590 0003 0000 1740
E: 9852.269590 0003 0001 1215
E: 9852.269590 0004 0005 591900
E: 9852.269590 0000 0000 0
E: 9852.277452 0003 0035 1736
E: 9852.277452 0003 0036 1230
E: 9852.277452 0003 0000 1736
E: 9852.277452 0003 0001 1230
E: 9852.277452 0004 0005 599900
E: 9852.277452 0000 0000 0
E: 9852.285328 0003 0035 1733
E: 9852.285328 0003 0036 1248
E: 9852.285328 0003 0031 210
E: 9852.285328 0003 0000 1733
E: 9852.285328 0003 0001 1248
E: 9852.285328 0004 0005 607900
E: 9852.285328 0000 0000 0
E: 9852.293186 0003 0035 1730
E: 9852.293186 0003 0036 1267
E: 9852.293186 0003 0031 252
E: 9852.293186 0003 0000 1730
E: 9852.293186 0003 0001 1267
E: 9852.293186 0004 0005 615900
E: 9852.293186 0000 0000 0
E: 9852.301080 0003 0035 1725
E: 9852.301080 0003 0036 1285
E: 9852.301080 0003 003a 73
E: 9852.301080 0003 0000 1725
E: 9852.301080 0003 0001 1285
E: 9852.301080 0003 0018 73
E: 9852.301080 0004 0005 623900
E: 9852.301080 0000 0000 0
E: 9852.309944 0003 0035 1720
E: 9852.309944 0003 0036 1303
E: 9852.309944 0003 0000 1720
E: 9852.309944 0003 0001 1303
E: 9852.309944 0004 0005 632900
E: 9852.309944 0000 0000 0
E: 9852.317823 0003 0035 1713
E: 9852.317823 0003 0036 1319
E: 9852.317823 0003 003a 74
E: 9852.317823 0003 0000 1713
E: 9852.317823 0003 0001 1319
E: 9852.317823 0003 0018 74
E: 9852.317823 0004 0005 640900
E: 9852.317823 0000 0000 0
E: 9852.325689 0003 0035 1706
E: 9852.325689 0003 0036 1335
E: 9852.325689 0003 003a 75
E: 9852.325689 0003 0030 480
E: 9852.325689 0003 0000 1706
E: 9852.325689 0003 0001 1335
E: 9852.325689 0003 0018 75
E: 9852.325689 0004 0005 648900
E: 9852.325689 0000 0000 0
E: 9852.333591 0003 0035 1699
E: 9852.333591 0003 0036 1350
E: 9852.333591 0003 0000 1699
E: 9852.333591 0003 0001 1350
E: 9852.333591 0004 0005 656900
E: 9852.333591 0000 0000 0
E: 9852.341431 0003 0035 1693
E: 9852.341431 0003 0036 1363
E: 9852.341431 0003 0000 1693
E: 9852.341431 0003 0001 1363
E: 9852.341431 0004 0005 664900
E: 9852.341431 0000 0000 0
E: 9852.349276 0003 0035 1688
E: 9852.349276 0003 0036 1375
E: 9852.349276 0003 0000 1688
E: 9852.349276 0003 0001 1375
E: 9852.349276 0004 0005 672900
E: 9852.349276 0000 0000 0
E: 9852.357157 0003 0035 1682
E: 9852.357157 0003 0036 1388
E: 9852.357157 0003 0000 1682
E: 9852.357157 0003 0001 1388
E: 9852.357157 0004 0005 680900
E: 9852.357157 0000 0000 0
E: 9852.365026 0003 0035 1676
E: 9852.365026 0003 0036 1401
E: 9852.365026 0003 003a 74
E: 9852.365026 0003 0000 1676
E: 9852.365026 0003 0001 1401
E: 9852.365026 0003 0018 74
E: 9852.365026 0004 0005 688900
E: 9852.365026 0000 0000 0
E: 9852.372885 0003 0035 1670
E: 9852.372885 0003 0036 1414
E: 9852.372885 0003 003a 72
E: 9852.372885 0003 0031 210
E: 9852.372885 0003 0000 1670
E: 9852.372885 0003 0001 1414
E: 9852.372885 0003 0018 72
E: 9852.372885 0004 0005 696900
E: 9852.372885 0000 0000 0
E: 9852.380757 0003 0035 1663
E: 9852.380757 0003 0036 1427
E: 9852.380757 0003 0031 252
E: 9852.380757 0003 0000 1663
E: 9852.380757 0003 0001 1427
E: 9852.380757 0004 0005 704900
E: 9852.380757 0000 0000 0
E: 9852.388644 0003 0035 1655
E: 9852.388644 0003 0036 1441
E: 9852.388644 0003 003a 71
E: 9852.388644 0003 0000 1655
E: 9852.388644 0003 0001 1441
E: 9852.388644 0003 0018 71
E: 9852.388644 0004 0005 712900
E: 9852.388644 0000 0000 0
E: 9852.396506 0003 0035 1648
E: 9852.396506 0003 0036 1454
E: 9852.396506 0003 003a 72
E: 9852.396506 0003 0000 1648
E: 9852.396506 0003 0001 1454
E: 9852.396506 0003 0018 72
E: 9852.396506 0004 0005 720900
E: 9852.396506 0000 0000 0
E: 9852.405376 0003 0035 1642
E: 9852.405376 0003 0036 1466
E: 9852.405376 0003 0000 1642
E: 9852.405376 0003 0001 1466
E: 9852.405376 0004 0005 729900
E: 9852.405376 0000 0000 0
E: 9852.413234 0003 0035 1636
E: 9852.413234 0003 0036 1476
E: 9852.413234 0003 003a 73
E: 9852.413234 0003 0000 1636
E: 9852.413234 0003 0001 1476
E: 9852.413234 0003 0018 73
E: 9852.413234 0004 0005 737900
E: 9852.413234 0000 0000 0
E: 9852.421096 0003 0035 1630
E: 9852.421096 0003 0036 1486
E: 9852.421096 0003 003a 75
E: 9852.421096 0003 0030 432
E: 9852.421096 0003 0000 1630
E: 9852.421096 0003 0001 1486
E: 9852.421096 0003 0018 75
E: 9852.421096 0004 0005 745900
E: 9852.421096 0000 0000 0
E: 9852.429962 0003 0035 1624
E: 9852.429962 0003 0036 1496
E: 9852.429962 0003 0000 1624
E: 9852.429962 0003 0001 1496
E: 9852.429962 0004 0005 754900
E: 9852.429962 0000 0000 0
E: 9852.437831 0003 0035 1618
E: 9852.437831 0003 0036 1506
E: 9852.437831 0003 0000 1618
E: 9852.437831 0003 0001 1506
E: 9852.437831 0004 0005 762900
E: 9852.437831 0000 0000 0
E: 9852.445706 0003 0035 1611
E: 9852.445706 0003 0036 1519
E: 9852.445706 0003 0000 1611
E: 9852.445706 0003 0001 1519
E: 9852.445706 0004 0005 770900
E: 9852.445706 0000 0000 0
E: 9852.453584 0003 0035 1601
E: 9852.453584 0003 0036 1533
E: 9852.453584 0003 003a 72
E: 9852.453584 0003 0000 1601
E: 9852.453584 0003 0001 1533
E: 9852.453584 0003 0018 72
E: 9852.453584 0004 0005 778900
E: 9852.453584 0000 0000 0
E: 9852.461449 0003 0035 1592
E: 9852.461449 0003 0036 1550
E: 9852.461449 0003 0031 210
E: 9852.461449 0003 0000 1592
E: 9852.461449 0003 0001 1550
E: 9852.461449 0004 0005 786900
E: 9852.461449 0000 0000 0
E: 9852.469325 0003 0035 1583
E: 9852.469325 0003 0036 1568
E: 9852.469325 0003 003a 70
E: 9852.469325 0003 0000 1583
E: 9852.469325 0003 0001 1568
E: 9852.469325 0003 0018 70
E: 9852.469325 0004 0005 794900
E: 9852.469325 0000 0000 0
E: 9852.477197 0003 0035 1574
E: 9852.477197 0003 0036 1584
E: 9852.477197 0003 0000 1574
E: 9852.477197 0003 0001 1584
E: 9852.477197 0004 0005 802900
E: 9852.477197 0000 0000 0
E: 9852.485067 0003 0035 1567
E: 9852.485067 0003 0036 1599
E: 9852.485067 0003 0031 252
E: 9852.485067 0003 0000 1567
E: 9852.485067 0003 0001 1599
E: 9852.485067 0004 0005 810900
E: 9852.485067 0000 0000 0
E: 9852.492945 0003 0035 1559
E: 9852.492945 0003 0036 1613
E: 9852.492945 0003 003a 72
E: 9852.492945 0003 0000 1559
E: 9852.492945 0003 0001 1613
E: 9852.492945 0003 0018 72
E: 9852.492945 0004 0005 818900
E: 9852.492945 0000 0000 0
E: 9852.500832 0003 0035 1551
E: 9852.500832 0003 0036 1628
E: 9852.500832 0003 003a 74
E: 9852.500832 0003 0000 1551
E: 9852.500832 0003 0001 1628
E: 9852.500832 0003 0018 74
E: 9852.500832 0004 0005 826900
E: 9852.500832 0000 0000 0
E: 9852.509673 0003 0035 1542
E: 9852.509673 0003 0036 1643
E: 9852.509673 0003 003a 77
E: 9852.509673 0003 0000 1542
E: 9852.509673 0003 0001 1643
E: 9852.509673 0003 0018 77
E: 9852.509673 0004 0005 835900
E: 9852.509673 0000 0000 0
E: 9852.517784 0003 0035 1534
E: 9852.517784 0003 0036 1657
E: 9852.517784 0003 003a 75
E: 9852.517784 0003 0031 210
E: 9852.517784 0003 0000 1534
E: 9852.517784 0003 0001 1657
E: 9852.517784 0003 0018 75
E: 9852.517784 0004 0005 843900
E: 9852.517784 0000 0000 0
E: 9852.525414 0003 0035 1526
E: 9852.525414 0003 0036 1672
E: 9852.525414 0003 003a 74
E: 9852.525414 0003 0000 1526
E: 9852.525414 0003 0001 1672
E: 9852.525414 0003 0018 74
E: 9852.525414 0004 0005 851900
E: 9852.525414 0000 0000 0
E: 9852.533288 0003 0035 1517
E: 9852.533288 0003 0036 1687
E: 9852.533288 0003 003a 75
E: 9852.533288 0003 0000 1517
E: 9852.533288 0003 0001 1687
E: 9852.533288 0003 0018 75
E: 9852.533288 0004 0005 859900
E: 9852.533288 0000 0000 0
E: 9852.541157 0003 0035 1509
E: 9852.541157 0003 0036 1702
E: 9852.541157 0003 003a 73
E: 9852.541157 0003 0000 1509
E: 9852.541157 0003 0001 1702
E: 9852.541157 0003 0018 73
E: 9852.541157 0004 0005 867900
E: 9852.541157 0000 0000 0
E: 9852.549042 0003 0035 1500
E: 9852.549042 0003 0036 1717
E: 9852.549042 0003 003a 72
E: 9852.549042 0003 0030 480
E: 9852.549042 0003 0000 1500
E: 9852.549042 0003 0001 1717
E: 9852.549042 0003 0018 72
E: 9852.549042 0004 0005 875900
E: 9852.549042 0000 0000 0
E: 9852.556899 0003 0035 1492
E: 9852.556899 0003 0036 1731
E: 9852.556899 0003 003a 71
E: 9852.556899 0003 0000 1492
E: 9852.556899 0003 0001 1731
E: 9852.556899 0003 0018 71
E: 9852.556899 0004 0005 883900
E: 9852.556899 0000 0000 0
E: 9852.564769 0003 0035 1485
E: 9852.564769 0003 0036 1744
E: 9852.564769 0003 003a 72
E: 9852.564769 0003 0000 1485
E: 9852.564769 0003 0001 1744
E: 9852.564769 0003 0018 72
E: 9852.564769 0004 0005 891900
E: 9852.564769 0000 0000 0
E: 9852.572635 0003 0035 1478
E: 9852.572635 0003 0036 1757
E: 9852.572635 0003 003a 73
E: 9852.572635 0003 0000 1478
E: 9852.572635 0003 0001 1757
E: 9852.572635 0003 0018 73
E: 9852.572635 0004 0005 899900
E: 9852.572635 0000 0000 0
E: 9852.580527 0003 0035 1472
E: 9852.580527 0003 0036 1770
E: 9852.580527 0003 003a 75
E: 9852.580527 0003 0030 432
E: 9852.580527 0003 0000 1472
E: 9852.580527 0003 0001 1770
E: 9852.580527 0003 0018 75
E: 9852.580527 0004 0005 907900
E: 9852.580527 0000 0000 0
E: 9852.588384 0003 0035 1467
E: 9852.588384 0003 0036 1783
E: 9852.588384 0003 003a 77
E: 9852.588384 0003 0000 1467
E: 9852.588384 0003 0001 1783
E: 9852.588384 0003 0018 77
E: 9852.588384 0004 0005 915900
E: 9852.588384 0000 0000 0
E: 9852.596259 0003 0035 1461
E: 9852.596259 0003 0036 1795
E: 9852.596259 0003 0000 1461
E: 9852.596259 0003 0001 1795
E: 9852.596259 0004 0005 923900
E: 9852.596259 0000 0000 0
E: 9852.605111 0003 0035 1454
E: 9852.605111 0003 0036 1807
E: 9852.605111 0003 003a 75
E: 9852.605111 0003 0031 168
E: 9852.605111 0003 0000 1454
E: 9852.605111 0003 0001 1807
E: 9852.605111 0003 0018 75
E: 9852.605111 0004 0005 932900
E: 9852.605111 0000 0000 0
E: 9852.612994 0003 0035 1448
E: 9852.612994 0003 0036 1820
E: 9852.612994 0003 003a 73
E: 9852.612994 0003 0000 1448
E: 9852.612994 0003 0001 1820
E: 9852.612994 0003 0018 73
E: 9852.612994 0004 0005 940900
E: 9852.612994 0000 0000 0
E: 9852.620852 0003 0035 1443
E: 9852.620852 0003 0036 1833
E: 9852.620852 0003 003a 70
E: 9852.620852 0003 0000 1443
E: 9852.620852 0003 0001 1833
E: 9852.620852 0003 0018 70
E: 9852.620852 0004 0005 948900
E: 9852.620852 0000 0000 0
E: 9852.628722 0003 0035 1437
E: 9852.628722 0003 0036 1845
E: 9852.628722 0003 003a 69
E: 9852.628722 0003 0000 1437
E: 9852.628722 0003 0001 1845
E: 9852.628722 0003 0018 69
E: 9852.628722 0004 0005 956900
E: 9852.628722 0000 0000 0
E: 9852.636594 0003 0035 1432
E: 9852.636594 0003 0036 1855
E: 9852.636594 0003 0000 1432
E: 9852.636594 0003 0001 1855
E: 9852.636594 0004 0005 964900
E: 9852.636594 0000 0000 0
E: 9852.644480 0003 0035 1428
E: 9852.644480 0003 0036 1865
E: 9852.644480 0003 003a 67
E: 9852.644480 0003 0000 1428
E: 9852.644480 0003 0001 1865
E: 9852.644480 0003 0018 67
E: 9852.644480 0004 0005 972900
E: 9852.644480 0000 0000 0
E: 9852.652337 0003 0035 1424
E: 9852.652337 0003 0036 1873
E: 9852.652337 0003 0000 1424
E: 9852.652337 0003 0001 1873
E: 9852.652337 0004 0005 980900
E: 9852.652337 0000 0000 0
E: 9852.660207 0003 0035 1421
E: 9852.660207 0003 0036 1880
E: 9852.660207 0003 0000 1421
E: 9852.660207 0003 0001 1880
E: 9852.660207 0004 0005 988900
E: 9852.660207 0000 0000 0
E: 9852.668082 0003 0035 1418
E: 9852.668082 0003 0036 1886
E: 9852.668082 0003 0000 1418
E: 9852.668082 0003 0001 1886
E: 9852.668082 0004 0005 996900
E: 9852.668082 0000 0000 0
E: 9852.675950 0003 0035 1416
E: 9852.675950 0003 0036 1891
E: 9852.675950 0003 0000 1416
E: 9852.675950 0003 0001 1891
E: 9852.675950 0004 0005 1004900
E: 9852.675950 0000 0000 0
E: 9852.683821 0003 0035 1414
E: 9852.683821 0003 0036 1895
E: 9852.683821 0003 0000 1414
E: 9852.683821 0003 0001 1895
E: 9852.683821 0004 0005 1012900
E: 9852.683821 0000 0000 0
E: 9852.691711 0003 0035 1412
E: 9852.691711 0003 0036 1898
E: 9852.691711 0003 0000 1412
E: 9852.691711 0003 0001 1898
E: 9852.691711 0004 0005 1020900
E: 9852.691711 0000 0000 0
E: 9852.700559 0003 0035 1410
E: 9852.700559 0003 0036 1901
E: 9852.700559 0003 0000 1410
E: 9852.700559 0003 0001 1901
E: 9852.700559 0004 0005 1029900
E: 9852.700559 0000 0000 0
E: 9852.708435 0003 0035 1409
E: 9852.708435 0003 0036 1903
E: 9852.708435 0003 0000 1409
E: 9852.708435 0003 0001 1903
E: 9852.708435 0004 0005 1037900
E: 9852.708435 0000 0000 0
E: 9852.716311 0003 0035 1408
E: 9852.716311 0003 0036 1904
E: 9852.716311 0003 003a 68
E: 9852.716311 0003 0000 1408
E: 9852.716311 0003 0001 1904
E: 9852.716311 0003 0018 68
E: 9852.716311 0004 0005 1045900
E: 9852.716311 0000 0000 0
E: 9852.724168 0003 0035 1407
E: 9852.724168 0003 0036 1905
E: 9852.724168 0003 0000 1407
E: 9852.724168 0003 0001 1905
E: 9852.724168 0004 0005 1053900
E: 9852.724168 0000 0000 0
E: 9852.732038 0003 0035 1406
E: 9852.732038 0003 0036 1906
E: 9852.732038 0003 0000 1406
E: 9852.732038 0003 0001 1906
E: 9852.732038 0004 0005 1061900
E: 9852.732038 0000 0000 0
E: 9852.739909 0003 0035 1405
E: 9852.739909 0003 0036 1907
E: 9852.739909 0003 0000 1405
E: 9852.739909 0003 0001 1907
E: 9852.739909 0004 0005 1069900
E: 9852.739909 0000 0000 0
E: 9852.747785 0003 0036 1908
E: 9852.747785 0003 0001 1908
E: 9852.747785 0004 0005 1077900
E: 9852.747785 0000 0000 0
E: 9852.755738 0003 0036 1909
E: 9852.755738 0003 0001 1909
E: 9852.755738 0004 0005 1085900
E: 9852.755738 0000 0000 0
E: 9852.763528 0004 0005 1093900
E: 9852.763528 0000 0000 0
E: 9852.771401 0003 003a 69
E: 9852.771401 0003 0018 69
E: 9852.771401 0004 0005 1101900
E: 9852.771401 0000 0000 0
E: 9852.779269 0004 0005 1109900
E: 9852.779269 0000 0000 0
E: 9852.787142 0003 0035 1406
E: 9852.787142 0003 0036 1908
E: 9852.787142 0003 0000 1406
E: 9852.787142 0003 0001 1908
E: 9852.787142 0004 0005 1117900
E: 9852.787142 0000 0000 0
E: 9852.795048 0003 0035 1407
E: 9852.795048 0003 0036 1906
E: 9852.795048 0003 0000 1407
E: 9852.795048 0003 0001 1906
E: 9852.795048 0004 0005 1125900
E: 9852.795048 0000 0000 0
E: 9852.803872 0003 0035 1409
E: 9852.803872 0003 0036 1901
E: 9852.803872 0003 003a 70
E: 9852.803872 0003 0000 1409
E: 9852.803872 0003 0001 1901
E: 9852.803872 0003 0018 70
E: 9852.803872 0004 0005 1134900
E: 9852.803872 0000 0000 0
E: 9852.811747 0003 0035 1412
E: 9852.811747 0003 0036 1892
E: 9852.811747 0003 0000 1412
E: 9852.811747 0003 0001 1892
E: 9852.811747 0004 0005 1142900
E: 9852.811747 0000 0000 0
E: 9852.819621 0003 0035 1417
E: 9852.819621 0003 0036 1879
E: 9852.819621 0003 0000 1417
E: 9852.819621 0003 0001 1879
E: 9852.819621 0004 0005 1150900
E: 9852.819621 0000 0000 0
E: 9852.827488 0003 0035 1422
E: 9852.827488 0003 0036 1864
E: 9852.827488 0003 003a 71
E: 9852.827488 0003 0000 1422
E: 9852.827488 0003 0001 1864
E: 9852.827488 0003 0018 71
E: 9852.827488 0004 0005 1158900
E: 9852.827488 0000 0000 0
E: 9852.835358 0003 0035 1428
E: 9852.835358 0003 0036 1848
E: 9852.835358 0003 003a 73
E: 9852.835358 0003 0000 1428
E: 9852.835358 0003 0001 1848
E: 9852.835358 0003 0018 73
E: 9852.835358 0004 0005 1166900
E: 9852.835358 0000 0000 0
E: 9852.843212 0003 0035 1434
E: 9852.843212 0003 0036 1829
E: 9852.843212 0003 003a 75
E: 9852.843212 0003 0031 210
E: 9852.843212 0003 0000 1434
E: 9852.843212 0003 0001 1829
E: 9852.843212 0003 0018 75
E: 9852.843212 0004 0005 1174900
E: 9852.843212 0000 0000 0
E: 9852.851098 0003 0035 1441
E: 9852.851098 0003 0036 1807
E: 9852.851098 0003 003a 77
E: 9852.851098 0003 0000 1441
E: 9852.851098 0003 0001 1807
E: 9852.851098 0003 0018 77
E: 9852.851098 0004 0005 1182900
E: 9852.851098 0000 0000 0
E: 9852.858963 0003 0035 1448
E: 9852.858963 0003 0036 1785
E: 9852.858963 0003 003a 75
E: 9852.858963 0003 0030 480
E: 9852.858963 0003 0000 1448
E: 9852.858963 0003 0001 1785
E: 9852.858963 0003 0018 75
E: 9852.858963 0004 0005 1190900
E: 9852.858963 0000 0000 0
E: 9852.866831 0003 0035 1454
E: 9852.866831 0003 0036 1764
E: 9852.866831 0003 003a 74
E: 9852.866831 0003 0000 1454
E: 9852.866831 0003 0001 1764
E: 9852.866831 0003 0018 74
E: 9852.866831 0004 0005 1198900
E: 9852.866831 0000 0000 0
E: 9852.874714 0003 0035 1462
E: 9852.874714 0003 0036 1739
E: 9852.874714 0003 003a 75
E: 9852.874714 0003 0000 1462
E: 9852.874714 0003 0001 1739
E: 9852.874714 0003 0018 75
E: 9852.874714 0004 0005 1206900
E: 9852.874714 0000 0000 0
E: 9852.882584 0003 0035 1471
E: 9852.882584 0003 0036 1714
E: 9852.882584 0003 0000 1471
E: 9852.882584 0003 0001 1714
E: 9852.882584 0004 0005 1214900
E: 9852.882584 0000 0000 0
E: 9852.890454 0003 0035 1481
E: 9852.890454 0003 0036 1688
E: 9852.890454 0003 003a 78
E: 9852.890454 0003 0000 1481
E: 9852.890454 0003 0001 1688
E: 9852.890454 0003 0018 78
E: 9852.890454 0004 0005 1222900
E: 9852.890454 0000 0000 0
E: 9852.899333 0003 0035 1491
E: 9852.899333 0003 0036 1665
E: 9852.899333 0003 003a 80
E: 9852.899333 0003 0031 252
E: 9852.899333 0003 0000 1491
E: 9852.899333 0003 0001 1665
E: 9852.899333 0003 0018 80
E: 9852.899333 0004 0005 1231900
E: 9852.899333 0000 0000 0
E: 9852.907186 0003 0035 1499
E: 9852.907186 0003 0036 1643
E: 9852.907186 0003 003a 78
E: 9852.907186 0003 0030 432
E: 9852.907186 0003 0031 210
E: 9852.907186 0003 0000 1499
E: 9852.907186 0003 0001 1643
E: 9852.907186 0003 0018 78
E: 9852.907186 0004 0005 1239900
E: 9852.907186 0000 0000 0
E: 9852.915071 0003 0035 1508
E: 9852.915071 0003 0036 1622
E: 9852.915071 0003 003a 74
E: 9852.915071 0003 0000 1508
E: 9852.915071 0003 0001 1622
E: 9852.915071 0003 0018 74
E: 9852.915071 0004 0005 1247900
E: 9852.915071 0000 0000 0
E: 9852.922926 0003 0035 1515
E: 9852.922926 0003 0036 1606
E: 9852.922926 0003 003a 73
E: 9852.922926 0003 0000 1515
E: 9852.922926 0003 0001 1606
E: 9852.922926 0003 0018 73
E: 9852.922926 0004 0005 1255900
E: 9852.922926 0000 0000 0
E: 9852.930801 0003 0035 1521
E: 9852.930801 0003 0036 1591
E: 9852.930801 0003 0000 1521
E: 9852.930801 0003 0001 1591
E: 9852.930801 0004 0005 1263900
E: 9852.930801 0000 0000 0
E: 9852.938675 0003 0035 1526
E: 9852.938675 0003 0036 1575
E: 9852.938675 0003 003a 72
E: 9852.938675 0003 0000 1526
E: 9852.938675 0003 0001 1575
E: 9852.938675 0003 0018 72
E: 9852.938675 0004 0005 1271900
E: 9852.938675 0000 0000 0
E: 9852.946543 0003 0035 1532
E: 9852.946543 0003 0036 1558
E: 9852.946543 0003 0000 1532
E: 9852.946543 0003 0001 1558
E: 9852.946543 0004 0005 1279900
E: 9852.946543 0000 0000 0
E: 9852.954416 0003 0035 1540
E: 9852.954416 0003 0036 1541
E: 9852.954416 0003 0031 252
E: 9852.954416 0003 0000 1540
E: 9852.954416 0003 0001 1541
E: 9852.954416 0004 0005 1287900
E: 9852.954416 0000 0000 0
E: 9852.963286 0003 0035 1545
E: 9852.963286 0003 0036 1521
E: 9852.963286 0003 003a 75
E: 9852.963286 0003 0000 1545
E: 9852.963286 0003 0001 1521
E: 9852.963286 0003 0018 75
E: 9852.963286 0004 0005 1295900
E: 9852.963286 0000 0000 0
E: 9852.971173 0003 0035 1552
E: 9852.971173 0003 0036 1498
E: 9852.971173 0003 0000 1552
E: 9852.971173 0003 0001 1498
E: 9852.971173 0004 0005 1303900
E: 9852.971173 0000 0000 0
E: 9852.979039 0003 0035 1558
E: 9852.979039 0003 0036 1473
E: 9852.979039 0003 003a 73
E: 9852.979039 0003 0000 1558
E: 9852.979039 0003 0001 1473
E: 9852.979039 0003 0018 73
E: 9852.979039 0004 0005 1311900
E: 9852.979039 0000 0000 0
E: 9852.986894 0003 0035 1564
E: 9852.986894 0003 0036 1452
E: 9852.986894 0003 0031 210
E: 9852.986894 0003 0000 1564
E: 9852.986894 0003 0001 1452
E: 9852.986894 0004 0005 1319900
E: 9852.986894 0000 0000 0
E: 9852.994794 0003 0035 1570
E: 9852.994794 0003 0036 1431
E: 9852.994794 0003 003a 72
E: 9852.994794 0003 0000 1570
E: 9852.994794 0003 0001 1431
E: 9852.994794 0003 0018 72
E: 9852.994794 0004 0005 1327900
E: 9852.994794 0000 0000 0
E: 9853.003620 0003 0035 1576
E: 9853.003620 0003 0036 1412
E: 9853.003620 0003 003a 73
E: 9853.003620 0003 0031 252
E: 9853.003620 0003 0000 1576
E: 9853.003620 0003 0001 1412
E: 9853.003620 0003 0018 73
E: 9853.003620 0004 0005 1336900
E: 9853.003620 0000 0000 0
E: 9853.011524 0003 0035 1581
E: 9853.011524 0003 0036 1397
E: 9853.011524 0003 003a 72
E: 9853.011524 0003 0000 1581
E: 9853.011524 0003 0001 1397
E: 9853.011524 0003 0018 72
E: 9853.011524 0004 0005 1344900
E: 9853.011524 0000 0000 0
E: 9853.019384 0003 0035 1586
E: 9853.019384 0003 0036 1383
E: 9853.019384 0003 003a 74
E: 9853.019384 0003 0000 1586
E: 9853.019384 0003 0001 1383
E: 9853.019384 0003 0018 74
E: 9853.019384 0004 0005 1352900
E: 9853.019384 0000 0000 0
E: 9853.027213 0003 0035 1591
E: 9853.027213 0003 0036 1370
E: 9853.027213 0003 003a 72
E: 9853.027213 0003 0000 1591
E: 9853.027213 0003 0001 1370
E: 9853.027213 0003 0018 72
E: 9853.027213 0004 0005 1360900
E: 9853.027213 0000 0000 0
E: 9853.035123 0003 0035 1596
E: 9853.035123 0003 0036 1358
E: 9853.035123 0003 003a 74
E: 9853.035123 0003 0000 1596
E: 9853.035123 0003 0001 1358
E: 9853.035123 0003 0018 74
E: 9853.035123 0004 0005 1368900
E: 9853.035123 0000 0000 0
E: 9853.042994 0003 0035 1601
E: 9853.042994 0003 0036 1346
E: 9853.042994 0003 003a 75
E: 9853.042994 0003 0000 1601
E: 9853.042994 0003 0001 1346
E: 9853.042994 0003 0018 75
E: 9853.042994 0004 0005 1376900
E: 9853.042994 0000 0000 0
E: 9853.050870 0003 0035 1604
E: 9853.050870 0003 0036 1335
E: 9853.050870 0003 003a 73
E: 9853.050870 0003 0000 1604
E: 9853.050870 0003 0001 1335
E: 9853.050870 0003 0018 73
E: 9853.050870 0004 0005 1384900
E: 9853.050870 0000 0000 0
E: 9853.058734 0003 0035 1608
E: 9853.058734 0003 0036 1323
E: 9853.058734 0003 003a 72
E: 9853.058734 0003 0030 480
E: 9853.058734 0003 0031 210
E: 9853.058734 0003 0000 1608
E: 9853.058734 0003 0001 1323
E: 9853.058734 0003 0018 72
E: 9853.058734 0004 0005 1392900
E: 9853.058734 0000 0000 0
E: 9853.066581 0003 0035 1612
E: 9853.066581 0003 0036 1308
E: 9853.066581 0003 003a 73
E: 9853.066581 0003 0000 1612
E: 9853.066581 0003 0001 1308
E: 9853.066581 0003 0018 73
E: 9853.066581 0004 0005 1400900
E: 9853.066581 0000 0000 0
E: 9853.074456 0003 0035 1618
E: 9853.074456 0003 0036 1291
E: 9853.074456 0003 0000 1618
E: 9853.074456 0003 0001 1291
E: 9853.074456 0004 0005 1408900
E: 9853.074456 0000 0000 0
E: 9853.082331 0003 0035 1623
E: 9853.082331 0003 0036 1272
E: 9853.082331 0003 003a 72
E: 9853.082331 0003 0000 1623
E: 9853.082331 0003 0001 1272
E: 9853.082331 0003 0018 72
E: 9853.082331 0004 0005 1416900
E: 9853.082331 0000 0000 0
E: 9853.090204 0003 0035 1631
E: 9853.090204 0003 0036 1249
E: 9853.090204 0003 003a 73
E: 9853.090204 0003 0030 432
E: 9853.090204 0003 0031 252
E: 9853.090204 0003 0000 1631
E: 9853.090204 0003 0001 1249
E: 9853.090204 0003 0018 73
E: 9853.090204 0004 0005 1424900
E: 9853.090204 0000 0000 0
E: 9853.099096 0003 0035 1637
E: 9853.099096 0003 0036 1229
E: 9853.099096 0003 003a 74
E: 9853.099096 0003 0030 480
E: 9853.099096 0003 0000 1637
E: 9853.099096 0003 0001 1229
E: 9853.099096 0003 0018 74
E: 9853.099096 0004 0005 1433900
E: 9853.099096 0000 0000 0
E: 9853.108141 0003 0035 1643
E: 9853.108141 0003 0036 1210
E: 9853.108141 0003 0000 1643
E: 9853.108141 0003 0001 1210
E: 9853.108141 0004 0005 1442900
E: 9853.108141 0000 0000 0
E: 9853.115827 0003 0035 1650
E: 9853.115827 0003 0036 1193
E: 9853.115827 0003 003a 73
E: 9853.115827 0003 0000 1650
E: 9853.115827 0003 0001 1193
E: 9853.115827 0003 0018 73
E: 9853.115827 0004 0005 1450900
E: 9853.115827 0000 0000 0
E: 9853.123670 0003 0035 1657
E: 9853.123670 0003 0036 1176
E: 9853.123670 0003 003a 72
E: 9853.123670 0003 0000 1657
E: 9853.123670 0003 0001 1176
E: 9853.123670 0003 0018 72
E: 9853.123670 0004 0005 1458900
E: 9853.123670 0000 0000 0
E: 9853.131539 0003 0035 1662
E: 9853.131539 0003 0036 1160
E: 9853.131539 0003 0000 1662
E: 9853.131539 0003 0001 1160
E: 9853.131539 0004 0005 1466900
E: 9853.131539 0000 0000 0
E: 9853.139413 0003 0035 1667
E: 9853.139413 0003 0036 1147
E: 9853.139413 0003 003a 71
E: 9853.139413 0003 0031 210
E: 9853.139413 0003 0000 1667
E: 9853.139413 0003 0001 1147
E: 9853.139413 0003 0018 71
E: 9853.139413 0004 0005 1474900
E: 9853.139413 0000 0000 0
E: 9853.147302 0003 0035 1671
E: 9853.147302 0003 0036 1136
E: 9853.147302 0003 003a 70
E: 9853.147302 0003 0000 1671
E: 9853.147302 0003 0001 1136
E: 9853.147302 0003 0018 70
E: 9853.147302 0004 0005 1482900
E: 9853.147302 0000 0000 0
E: 9853.155155 0003 0035 1675
E: 9853.155155 0003 0036 1126
E: 9853.155155 0003 0030 432
E: 9853.155155 0003 0000 1675
E: 9853.155155 0003 0001 1126
E: 9853.155155 0004 0005 1490900
E: 9853.155155 0000 0000 0
E: 9853.163036 0003 0035 1679
E: 9853.163036 0003 0036 1116
E: 9853.163036 0003 0000 1679
E: 9853.163036 0003 0001 1116
E: 9853.163036 0004 0005 1498900
E: 9853.163036 0000 0000 0
E: 9853.170894 0003 0035 1685
E: 9853.170894 0003 0036 1105
E: 9853.170894 0003 003a 67
E: 9853.170894 0003 0000 1685
E: 9853.170894 0003 0001 1105
E: 9853.170894 0003 0018 67
E: 9853.170894 0004 0005 1506900
E: 9853.170894 0000 0000 0
E: 9853.178769 0003 0035 1691
E: 9853.178769 0003 0036 1094
E: 9853.178769 0003 003a 65
E: 9853.178769 0003 0000 1691
E: 9853.178769 0003 0001 1094
E: 9853.178769 0003 0018 65
E: 9853.178769 0004 0005 1514900
E: 9853.178769 0000 0000 0
E: 9853.186643 0003 0035 1702
E: 9853.186643 0003 0036 1081
E: 9853.186643 0003 003a 59
E: 9853.186643 0003 0000 1702
E: 9853.186643 0003 0001 1081
E: 9853.186643 0003 0018 59
E: 9853.186643 0004 0005 1522900
E: 9853.186643 0000 0000 0
E: 9853.195495 0003 0035 1715
E: 9853.195495 0003 0036 1069
E: 9853.195495 0003 003a 49
E: 9853.195495 0003 0031 252
E: 9853.195495 0003 0000 1715
E: 9853.195495 0003 0001 1069
E: 9853.195495 0003 0018 49
E: 9853.195495 0004 0005 1531900
E: 9853.195495 0000 0000 0
E: 9853.203388 0003 0035 1728
E: 9853.203388 0003 0036 1058
E: 9853.203388 0003 003a 35
E: 9853.203388 0003 0030 336
E: 9853.203388 0003 0031 168
E: 9853.203388 0003 0000 1728
E: 9853.203388 0003 0001 1058
E: 9853.203388 0003 0018 35
E: 9853.203388 0004 0005 1539900
E: 9853.203388 0000 0000 0
E: 9853.210257 0003 0035 1739
E: 9853.210257 0003 0036 1049
E: 9853.210257 0003 0030 48
E: 9853.210257 0003 0031 42
E: 9853.210257 0003 0000 1739
E: 9853.210257 0003 0001 1049
E: 9853.210257 0004 0005 1546900
E: 9853.210257 0000 0000 0
E: 9853.217198 0003 0039 -1
E: 9853.217198 0001 014a 0
E: 9853.217198 0001 0145 0
E: 9853.217198 0003 0018 0
E: 9853.217198 0004 0005 1553900
E: 9853.217198 0000 0000 0
E: 9853.217698 0003 002f 0
E: 9853.217698 0003 0039 -1
E: 9853.217698 0003 002f 1
E: 9853.217698 0003 0039 -1
E: 9853.217698 0003 002f 2
E: 9853.217698 0003 0039 -1
E: 9853.217698 0003 002f 3
E: 9853.217698 0003 0039 -1
E: 9853.217698 0003 002f 4
E: 9853.217698 0003 0039 -1
