# device: ACPI0C50:01 04F3:30C5 Touchpad
# bit: 1B 00 00 00 00 00 00 00
# key: 00 00 00 00 00 00 00 00 00 00 00 00 00 00 00 00 00 00 00 00 00 00 00 00 00 00 00 00 00 00 00 00 00 00 01 00 00 00 00 00 20 E5 00 00 00 00 00 00 00 00 00 00 00 00 00 00 00 00 00 00 00 00 00 00 00 00 00 00 00 00 00 00 00 00 00 00 00 00 00 00 00 00 00 00 00 00 00 00 00 00 00 00 00 00 00 00
# rel: 00 00 00 00 00 00 00 00
# abs: 03 00 00 01 00 80 F3 06
# led: 00 00 00 00 00 00 00 00
# prp: 05 00 00 00 00 00 00 00
# absinfo: 0 0 3602 0 0 32
# absinfo: 1 0 1987 0 0 32
# absinfo: 24 0 255 0 0 0
# absinfo: 47 0 4 0 0 0
# absinfo: 48 0 4095 0 0 65
# absinfo: 49 0 4095 0 0 65
# absinfo: 52 0 1 0 0 0
# absinfo: 53 0 3602 0 0 32
# absinfo: 54 0 1987 0 0 32
# absinfo: 55 0 2 0 0 0
# absinfo: 57 0 65535 0 0 0
# absinfo: 58 0 255 0 0 0
E: 4905.656877 0003 002f 0
E: 4905.656877 0003 0030 192
E: 4905.656877 0003 0031 168
E: 4905.656877 0003 0032 0
E: 4905.656877 0003 0033 0
E: 4905.656877 0003 0034 1
E: 4905.656877 0003 0035 972
E: 4905.656877 0003 0036 1209
E: 4905.656877 0003 0037 0
E: 4905.656877 0003 0038 0
E: 4905.656877 0003 0039 2091
E: 4905.656877 0003 003a 24
E: 4905.656877 0003 003b 0
E: 4905.656877 0003 002f 1
E: 4905.656877 0003 0039 -1
E: 4905.656877 0003 002f 2
E: 4905.656877 0003 0039 -1
E: 4905.656877 0003 002f 3
E: 4905.656877 0003 0039 -1
E: 4905.656877 0003 002f 4
E: 4905.656877 0003 0039 -1
E: 4905.656877 0003 002f 0
E: 4905.656877 0001 0145 1
E: 4905.656877 0001 014a 1
E: 4905.656877 0000 0000 0
E: 4905.663759 0004 0005 2400000
E: 4905.663759 0000 0000 0
E: 4905.671566 0004 0005 2408000
E: 4905.671566 0000 0000 0
E: 4905.679461 0004 0005 2416000
E: 4905.679461 0000 0000 0
E: 4905.687278 0003 003a 22
E: 4905.687278 0003 0018 22
E: 4905.687278 0004 0005 2424000
E: 4905.687278 0000 0000 0
E: 4905.695131 0003 0035 971
E: 4905.695131 0003 0036 1208
E: 4905.695131 0003 003a 19
E: 4905.695131 0003 0000 971
E: 4905.695131 0003 0001 1208
E: 4905.695131 0003 0018 19
E: 4905.695131 0004 0005 2432000
E: 4905.695131 0000 0000 0
E: 4905.702979 0003 0035 970
E: 4905.702979 0003 0036 1205
E: 4905.702979 0003 003a 16
E: 4905.702979 0003 0000 970
E: 4905.702979 0003 0001 1205
E: 4905.702979 0003 0018 16
E: 4905.702979 0004 0005 2440000
E: 4905.702979 0000 0000 0
E: 4905.710856 0003 0035 967
E: 4905.710856 0003 0036 1203
E: 4905.710856 0003 0034 0
E: 4905.710856 0003 003a 11
E: 4905.710856 0003 0030 168
E: 4905.710856 0003 0031 144
E: 4905.710856 0003 0000 967
E: 4905.710856 0003 0001 1203
E: 4905.710856 0003 0018 11
E: 4905.710856 0004 0005 2448000
E: 4905.710856 0000 0000 0
E: 4905.718696 0003 0035 966
E: 4905.718696 0003 0036 1202
E: 4905.718696 0003 0034 1
E: 4905.718696 0003 0030 48
E: 4905.718696 0003 0031 42
E: 4905.718696 0003 0000 966
E: 4905.718696 0003 0001 1202
E: 4905.718696 0004 0005 2456000
E: 4905.718696 0000 0000 0
E: 4905.726603 0003 0039 -1
E: 4905.726603 0001 014a 0
E: 4905.726603 0001 0145 0
E: 4905.726603 0003 0018 0
E: 4905.726603 0004 0005 2464000
E: 4905.726603 0000 0000 0
E: 4906.581486 0003 0039 2092
E: 4906.581486 0003 0035 1040
E: 4906.581486 0003 0036 1270
E: 4906.581486 0003 0034 0
E: 4906.581486 0003 003a 21
E: 4906.581486 0003 0030 210
E: 4906.581486 0003 0031 192
E: 4906.581486 0001 014a 1
E: 4906.581486 0001 0145 1
E: 4906.581486 0003 0000 1040
E: 4906.581486 0003 0001 1270
E: 4906.581486 0003 0018 21
E: 4906.581486 0004 0005 3323000
E: 4906.581486 0000 0000 0
E: 4906.588328 0003 003a 19
E: 4906.588328 0003 0018 19
E: 4906.588328 0004 0005 3330000
E: 4906.588328 0000 0000 0
E: 4906.595200 0004 0005 3337000
E: 4906.595200 0000 0000 0
E: 4906.602086 0004 0005 3344000
E: 4906.602086 0000 0000 0
E: 4906.609940 0003 0034 1
E: 4906.609940 0003 003a 18
E: 4906.609940 0003 0030 192
E: 4906.609940 0003 0031 168
E: 4906.609940 0003 0018 18
E: 4906.609940 0004 0005 3352000
E: 4906.609940 0000 0000 0
E: 4906.617799 0003 003a 16
E: 4906.617799 0003 0018 16
E: 4906.617799 0004 0005 3360000
E: 4906.617799 0000 0000 0
E: 4906.625663 0003 003a 14
E: 4906.625663 0003 0031 126
E: 4906.625663 0003 0018 14
E: 4906.625663 0004 0005 3368000
E: 4906.625663 0000 0000 0
E: 4906.633511 0003 003a 8
E: 4906.633511 0003 0030 144
E: 4906.633511 0003 0018 8
E: 4906.633511 0004 0005 3376000
E: 4906.633511 0000 0000 0
E: 4906.641342 0003 0035 1038
E: 4906.641342 0003 0036 1268
E: 4906.641342 0003 0030 48
E: 4906.641342 0003 0031 42
E: 4906.641342 0003 0000 1038
E: 4906.641342 0003 0001 1268
E: 4906.641342 0004 0005 3384000
E: 4906.641342 0000 0000 0
E: 4906.649658 0003 0039 -1
E: 4906.649658 0001 014a 0
E: 4906.649658 0001 0145 0
E: 4906.649658 0003 0018 0
E: 4906.649658 0004 0005 3392000
E: 4906.649658 0000 0000 0
E: 4907.316099 0003 0039 2093
E: 4907.316099 0003 0035 1146
E: 4907.316099 0003 0036 1339
E: 4907.316099 0003 0034 0
E: 4907.316099 0003 003a 19
E: 4907.316099 0003 0030 168
E: 4907.316099 0003 0031 144
E: 4907.316099 0001 014a 1
E: 4907.316099 0001 0145 1
E: 4907.316099 0003 0000 1146
E: 4907.316099 0003 0001 1339
E: 4907.316099 0003 0018 19
E: 4907.316099 0004 0005 4059000
E: 4907.316099 0000 0000 0
E: 4907.322349 0004 0005 4066000
E: 4907.322349 0000 0000 0
E: 4907.329631 0004 0005 4073000
E: 4907.329631 0000 0000 0
E: 4907.336200 0004 0005 4080000
E: 4907.336200 0000 0000 0
E: 4907.343984 0004 0005 4088000
E: 4907.343984 0000 0000 0
E: 4907.351829 0004 0005 4096000
E: 4907.351829 0000 0000 0
E: 4907.359713 0003 003a 20
E: 4907.359713 0003 0018 20
E: 4907.359713 0004 0005 4104000
E: 4907.359713 0000 0000 0
E: 4907.367570 0004 0005 4112000
E: 4907.367570 0000 0000 0
E: 4907.375430 0003 003a 19
E: 4907.375430 0003 0018 19
E: 4907.375430 0004 0005 4120000
E: 4907.375430 0000 0000 0
E: 4907.383291 0003 0035 1144
E: 4907.383291 0003 003a 16
E: 4907.383291 0003 0000 1144
E: 4907.383291 0003 0018 16
E: 4907.383291 0004 0005 4128000
E: 4907.383291 0000 0000 0
E: 4907.391154 0003 0035 1142
E: 4907.391154 0003 0036 1338
E: 4907.391154 0003 003a 14
E: 4907.391154 0003 0000 1142
E: 4907.391154 0003 0001 1338
E: 4907.391154 0003 0018 14
E: 4907.391154 0004 0005 4136000
E: 4907.391154 0000 0000 0
E: 4907.399023 0003 0035 1140
E: 4907.399023 0003 0036 1337
E: 4907.399023 0003 003a 11
E: 4907.399023 0003 0000 1140
E: 4907.399023 0003 0001 1337
E: 4907.399023 0003 0018 11
E: 4907.399023 0004 0005 4144000
E: 4907.399023 0000 0000 0
E: 4907.406855 0003 0035 1137
E: 4907.406855 0003 0036 1336
E: 4907.406855 0003 0034 1
E: 4907.406855 0003 0030 48
E: 4907.406855 0003 0031 42
E: 4907.406855 0003 0000 1137
E: 4907.406855 0003 0001 1336
E: 4907.406855 0004 0005 4152000
E: 4907.406855 0000 0000 0
E: 4907.414764 0003 0039 -1
E: 4907.414764 0001 014a 0
E: 4907.414764 0001 0145 0
E: 4907.414764 0003 0018 0
E: 4907.414764 0004 0005 4160000
E: 4907.414764 0000 0000 0
E: 4908.062640 0003 0039 2094
E: 4908.062640 0003 0035 929
E: 4908.062640 0003 0036 1562
E: 4908.062640 0003 0034 0
E: 4908.062640 0003 003a 31
E: 4908.062640 0003 0030 210
E: 4908.062640 0003 0031 192
E: 4908.062640 0001 014a 1
E: 4908.062640 0001 0145 1
E: 4908.062640 0003 0000 929
E: 4908.062640 0003 0001 1562
E: 4908.062640 0003 0018 31
E: 4908.062640 0004 0005 4818000
E: 4908.062640 0000 0000 0
E: 4908.070440 0003 003a 32
E: 4908.070440 0003 0018 32
E: 4908.070440 0004 0005 4826000
E: 4908.070440 0000 0000 0
E: 4908.077995 0003 003a 34
E: 4908.077995 0003 0018 34
E: 4908.077995 0004 0005 4834000
E: 4908.077995 0000 0000 0
E: 4908.085816 0001 0110 1
E: 4908.085816 0003 003a 35
E: 4908.085816 0003 0018 35
E: 4908.085816 0004 0005 4842000
E: 4908.085816 0000 0000 0
E: 4908.093679 0004 0005 4850000
E: 4908.093679 0000 0000 0
E: 4908.101758 0003 003a 37
E: 4908.101758 0003 0018 37
E: 4908.101758 0004 0005 4858000
E: 4908.101758 0000 0000 0
E: 4908.109419 0004 0005 4866000
E: 4908.109419 0000 0000 0
E: 4908.117282 0004 0005 4874000
E: 4908.117282 0000 0000 0
E: 4908.125141 0003 0036 1563
E: 4908.125141 0003 0001 1563
E: 4908.125141 0004 0005 4882000
E: 4908.125141 0000 0000 0
E: 4908.133010 0003 0036 1564
E: 4908.133010 0003 0001 1564
E: 4908.133010 0004 0005 4890000
E: 4908.133010 0000 0000 0
E: 4908.140865 0003 0036 1565
E: 4908.140865 0003 0001 1565
E: 4908.140865 0004 0005 4898000
E: 4908.140865 0000 0000 0
E: 4908.148724 0004 0005 4906000
E: 4908.148724 0000 0000 0
E: 4908.156612 0003 0036 1566
E: 4908.156612 0003 0001 1566
E: 4908.156612 0004 0005 4914000
E: 4908.156612 0000 0000 0
E: 4908.164471 0004 0005 4922000
E: 4908.164471 0000 0000 0
E: 4908.172299 0003 0035 928
E: 4908.172299 0003 0000 928
E: 4908.172299 0004 0005 4930000
E: 4908.172299 0000 0000 0
E: 4908.180208 0003 0035 927
E: 4908.180208 0003 003a 35
E: 4908.180208 0003 0000 927
E: 4908.180208 0003 0018 35
E: 4908.180208 0004 0005 4938000
E: 4908.180208 0000 0000 0
E: 4908.188037 0003 0035 926
E: 4908.188037 0003 003a 33
E: 4908.188037 0003 0000 926
E: 4908.188037 0003 0018 33
E: 4908.188037 0004 0005 4946000
E: 4908.188037 0000 0000 0
E: 4908.195905 0001 0110 0
E: 4908.195905 0003 0035 925
E: 4908.195905 0003 0036 1565
E: 4908.195905 0003 003a 28
E: 4908.195905 0003 0000 925
E: 4908.195905 0003 0001 1565
E: 4908.195905 0003 0018 28
E: 4908.195905 0004 0005 4954000
E: 4908.195905 0000 0000 0
E: 4908.202750 0003 0035 924
E: 4908.202750 0003 0036 1564
E: 4908.202750 0003 003a 22
E: 4908.202750 0003 0000 924
E: 4908.202750 0003 0001 1564
E: 4908.202750 0003 0018 22
E: 4908.202750 0004 0005 4961000
E: 4908.202750 0000 0000 0
E: 4908.209627 0003 0035 922
E: 4908.209627 0003 0036 1563
E: 4908.209627 0003 003a 17
E: 4908.209627 0003 0000 922
E: 4908.209627 0003 0001 1563
E: 4908.209627 0003 0018 17
E: 4908.209627 0004 0005 4968000
E: 4908.209627 0000 0000 0
E: 4908.217483 0003 0035 920
E: 4908.217483 0003 0036 1562
E: 4908.217483 0003 0034 1
E: 4908.217483 0003 003a 8
E: 4908.217483 0003 0030 192
E: 4908.217483 0003 0031 126
E: 4908.217483 0003 0000 920
E: 4908.217483 0003 0001 1562
E: 4908.217483 0003 0018 8
E: 4908.217483 0004 0005 4976000
E: 4908.217483 0000 0000 0
E: 4908.225340 0003 0035 917
E: 4908.225340 0003 0036 1560
E: 4908.225340 0003 0030 48
E: 4908.225340 0003 0031 42
E: 4908.225340 0003 0000 917
E: 4908.225340 0003 0001 1560
E: 4908.225340 0004 0005 4984000
E: 4908.225340 0000 0000 0
E: 4908.233225 0003 0039 -1
E: 4908.233225 0001 014a 0
E: 4908.233225 0001 0145 0
E: 4908.233225 0003 0018 0
E: 4908.233225 0004 0005 4992000
E: 4908.233225 0000 0000 0
E: 4908.233725 0003 002f 0
E: 4908.233725 0003 0039 -1
E: 4908.233725 0003 002f 1
E: 4908.233725 0003 0039 -1
E: 4908.233725 0003 002f 2
E: 4908.233725 0003 0039 -1
E: 4908.233725 0003 002f 3
E: 4908.233725 0003 0039 -1
E: 4908.233725 0003 002f 4
E: 4908.233725 0003 0039 -1
