E: 1346838853.244097 0003 002f 0
E: 1346838853.244097 0003 0030 0
E: 1346838853.244097 0003 0031 0
E: 1346838853.244097 0003 0032 0
E: 1346838853.244097 0003 0033 0
E: 1346838853.244097 0003 0034 0
E: 1346838853.244097 0003 0035 2767
E: 1346838853.244097 0003 0036 2988
E: 1346838853.244097 0003 0037 0
E: 1346838853.244097 0003 0038 0
E: 1346838853.244097 0003 0039 60
E: 1346838853.244097 0003 0018 29
E: 1346838853.244097 0003 003b 0
E: 1346838853.244097 0003 002f 1
E: 1346838853.244097 0003 0039 -1
E: 1346838853.244097 0003 002f 0
E: 1346838853.244097 0001 0145 1
E: 1346838853.244097 0000 0000 0
E: 1346838853.296753 0003 0035 2684
E: 1346838853.296757 0003 0036 2881
E: 1346838853.296761 0003 0018 88
E: 1346838853.296771 0000 0000 0
E: 1346838853.309451 0003 0035 2700
E: 1346838853.309454 0003 0036 2865
E: 1346838853.309466 0000 0000 0
E: 1346838853.323473 0003 0035 2705
E: 1346838853.323478 0003 0036 2896
E: 1346838853.323481 0003 0018 17
E: 1346838853.323492 0000 0000 0
E: 1346838853.334414 0003 0035 2706
E: 1346838853.334420 0003 0018 4
E: 1346838853.334430 0000 0000 0
E: 1346838853.345464 0003 0039 -1
E: 1346838853.345472 0001 0145 0
E: 1346838853.345476 0000 0000 0
E: 1346838853.446047 0003 0039 61
E: 1346838853.446053 0003 0035 2776
E: 1346838853.446057 0003 0036 2929
E: 1346838853.446060 0003 0018 17
E: 1346838853.446067 0001 0145 1
E: 1346838853.446072 0000 0000 0
E: 1346838853.457019 0003 0035 2770
E: 1346838853.457023 0003 0036 2923
E: 1346838853.457026 0003 0018 88
E: 1346838853.457036 0000 0000 0
E: 1346838853.469649 0003 0035 2768
E: 1346838853.469653 0003 0036 2921
E: 1346838853.469657 0003 0018 91
E: 1346838853.469667 0000 0000 0
E: 1346838853.481355 0003 0035 2716
E: 1346838853.481359 0003 0036 2885
E: 1346838853.481362 0003 0018 94
E: 1346838853.481372 0000 0000 0
E: 1346838853.495375 0003 0035 2711
E: 1346838853.495379 0003 0036 2880
E: 1346838853.495382 0003 0018 96
E: 1346838853.495393 0000 0000 0
E: 1346838853.507995 0003 0035 2706
E: 1346838853.507999 0003 0036 2878
E: 1346838853.508002 0003 0018 98
E: 1346838853.508012 0000 0000 0
E: 1346838853.518938 0003 0036 2876
E: 1346838853.518950 0000 0000 0
E: 1346838853.531565 0003 0018 99
E: 1346838853.531576 0000 0000 0
E: 1346838853.545529 0003 0018 100
E: 1346838853.545539 0000 0000 0
E: 1346838853.566829 0003 0035 2704
E: 1346838853.566834 0003 0018 101
E: 1346838853.566844 0000 0000 0
E: 1346838853.580725 0003 0035 2703
E: 1346838853.580731 0003 0018 103
E: 1346838853.580741 0000 0000 0
E: 1346838853.618325 0003 0036 2877
E: 1346838853.618337 0000 0000 0
E: 1346838853.629561 0003 0036 2881
E: 1346838853.629573 0000 0000 0
E: 1346838853.640536 0003 0036 2882
E: 1346838853.640548 0000 0000 0
E: 1346838853.653176 0003 0018 104
E: 1346838853.653186 0000 0000 0
E: 1346838853.666090 0003 0036 2883
E: 1346838853.666102 0000 0000 0
E: 1346838853.716170 0003 0018 105
E: 1346838853.716181 0000 0000 0
E: 1346838853.727132 0003 0036 2884
E: 1346838853.727145 0000 0000 0
E: 1346838853.804654 0003 0036 2885
E: 1346838853.804666 0000 0000 0
E: 1346838853.911679 0003 0035 2704
E: 1346838853.911693 0000 0000 0
E: 1346838853.923386 0003 0035 2705
E: 1346838853.923392 0003 0018 106
E: 1346838853.923402 0000 0000 0
E: 1346838853.938740 0003 0035 2709
E: 1346838853.938753 0000 0000 0
E: 1346838853.950798 0003 0035 2710
E: 1346838853.950811 0000 0000 0
E: 1346838853.974653 0003 0035 2835
E: 1346838853.974657 0003 0036 2856
E: 1346838853.974668 0000 0000 0
E: 1346838853.985633 0003 0035 2904
E: 1346838853.985637 0003 0036 2813
E: 1346838853.985649 0000 0000 0
E: 1346838853.997147 0003 0035 3008
E: 1346838853.997151 0003 0036 2741
E: 1346838853.997162 0000 0000 0
E: 1346838854.009969 0003 0035 3168
E: 1346838854.009973 0003 0036 2657
E: 1346838854.009984 0000 0000 0
E: 1346838854.023985 0003 0035 3338
E: 1346838854.023989 0003 0036 2598
E: 1346838854.024001 0000 0000 0
E: 1346838854.034930 0003 0035 3529
E: 1346838854.034933 0003 0036 2555
E: 1346838854.034945 0000 0000 0
E: 1346838854.047561 0003 0035 3737
E: 1346838854.047565 0003 0036 2523
E: 1346838854.047577 0000 0000 0
E: 1346838854.061518 0003 0035 3914
E: 1346838854.061521 0003 0036 2490
E: 1346838854.061533 0000 0000 0
E: 1346838854.070285 0003 0035 4085
E: 1346838854.070289 0003 0036 2435
E: 1346838854.070301 0000 0000 0
E: 1346838854.082520 0003 0035 4249
E: 1346838854.082523 0003 0036 2371
E: 1346838854.082535 0000 0000 0
E: 1346838854.096547 0003 0035 4383
E: 1346838854.096551 0003 0036 2316
E: 1346838854.096563 0000 0000 0
E: 1346838854.109184 0003 0035 4495
E: 1346838854.109187 0003 0036 2268
E: 1346838854.109199 0000 0000 0
E: 1346838854.121518 0003 0035 4572
E: 1346838854.121522 0003 0036 2249
E: 1346838854.121534 0000 0000 0
E: 1346838854.134142 0003 0035 4617
E: 1346838854.134155 0000 0000 0
E: 1346838854.145372 0003 0035 4639
E: 1346838854.145376 0003 0036 2268
E: 1346838854.145388 0000 0000 0
E: 1346838854.156356 0003 0035 4645
E: 1346838854.156360 0003 0036 2288
E: 1346838854.156372 0000 0000 0
E: 1346838854.168974 0003 0035 4651
E: 1346838854.168978 0003 0036 2306
E: 1346838854.168990 0000 0000 0
E: 1346838854.181895 0003 0035 4656
E: 1346838854.181899 0003 0036 2322
E: 1346838854.181910 0000 0000 0
E: 1346838854.196030 0003 0035 4657
E: 1346838854.196034 0003 0036 2323
E: 1346838854.196046 0000 0000 0
E: 1346838854.208108 0003 0035 4658
E: 1346838854.208112 0003 0036 2327
E: 1346838854.208124 0000 0000 0
E: 1346838854.219332 0003 0036 2331
E: 1346838854.219344 0000 0000 0
E: 1346838854.255566 0003 0036 2330
E: 1346838854.255578 0000 0000 0
E: 1346838854.267275 0003 0036 2329
E: 1346838854.267287 0000 0000 0
E: 1346838854.319656 0003 0036 2330
E: 1346838854.319669 0000 0000 0
E: 1346838854.328421 0003 0036 2331
E: 1346838854.328433 0000 0000 0
E: 1346838854.341074 0003 0036 2332
E: 1346838854.341086 0000 0000 0
E: 1346838854.378879 0003 0036 2330
E: 1346838854.378891 0000 0000 0
E: 1346838854.404147 0003 0036 2325
E: 1346838854.404159 0000 0000 0
E: 1346838854.416776 0003 0036 2324
E: 1346838854.416789 0000 0000 0
E: 1346838854.439278 0003 0036 2281
E: 1346838854.439291 0000 0000 0
E: 1346838854.453424 0003 0035 4656
E: 1346838854.453438 0000 0000 0
E: 1346838854.465946 0003 0035 4625
E: 1346838854.465950 0003 0036 2311
E: 1346838854.465953 0003 0018 33
E: 1346838854.465963 0000 0000 0
E: 1346838854.476897 0003 0018 7
E: 1346838854.476908 0000 0000 0
E: 1346838854.485655 0003 0039 -1
E: 1346838854.485663 0001 0145 0
E: 1346838854.485667 0000 0000 0
E: 1346838854.486167 0003 002f 0
E: 1346838854.486167 0003 0039 -1
E: 1346838854.486167 0003 002f 1
E: 1346838854.486167 0003 0039 -1
